Suite/Test/Step Name,Browser,Description,Tag,Start time,End time,Duration,Status
"INPROSPECT-NONGODIG GO,COMP,M200,FULLCVR,PERSONAL - TELERENEWAL",Chrome 90.0.4430.212,,,2021-05-19 22:23:07,2021-05-19 22:44:04,20m - 56.801s,INCOMPLETE
,,,,,,,
"Test Cases/SCENARIO/OTOSALES/Collaboration/NEW ORDER/MVNONGODIG/SINGLE YEAR/Create Polis/INPROSPECT-NONGODIG GO,COMP,M200,FULLCVR,PERSONAL - TELERENEWAL",Chrome 90.0.4430.212,,,2021-05-19 22:23:09,2021-05-19 22:32:28,9m - 19.142s,PASSED
"callTestCase(findTestCase(""SCENARIO/OTOSALES/LOGIN/Login Telerenewal""), [:], STOP_ON_FAILURE)",Chrome 90.0.4430.212,,,2021-05-19 22:23:11,2021-05-19 22:23:51,39.915s,PASSED
"callTestCase(findTestCase(""PAGE/OTOSALES/LOGIN/Side Menu-Switch""), [""menu"":""Input Prospect""], STOP_ON_FAILURE)",Chrome 90.0.4430.212,,,2021-05-19 22:23:51,2021-05-19 22:23:59,8.470s,PASSED
"callTestCase(findTestCase(""PAGE/OTOSALES/NEW/INPUT PROSPECT/1.Prospect Info""), [""MV"":""MV NON GODIG"", ""isCompany"":false, ""prospectName"":""Test Otosales Telerenewal WIC HRM K200 MY"", ""phone1"":""082127670262"", ... ], STOP_ON_FAILURE)",Chrome 90.0.4430.212,,,2021-05-19 22:23:59,2021-05-19 22:25:40,1m - 40.288s,PASSED
"callTestCase(findTestCase(""PAGE/OTOSALES/NEW/INPUT PROSPECT/2.Vehicle Info""), [""VehicleName"":""TOYOTA AGYA 2018 NEW 1.2 TRD M/T"", ""Usage"":""PRIBADI"", ""Region"":""Wilayah 2""], STOP_ON_FAILURE)",Chrome 90.0.4430.212,,,2021-05-19 22:25:40,2021-05-19 22:26:04,24.572s,PASSED
"callTestCase(findTestCase(""PAGE/OTOSALES/NEW/INPUT PROSPECT/3.Cover""), [""ProductType"":""Garda Oto"", ""MV"":OrderType, ""ProductCode"":""GWU50"", ""Coverage"":""Comprehensive 1 Year"", ""TJH"":""25,000,000"", ""Terrorism"":true, ... ], STOP_ON_FAILURE)",Chrome 90.0.4430.212,,,2021-05-19 22:26:04,2021-05-19 22:27:08,1m - 3.560s,PASSED
"callTestCase(findTestCase(""PAGE/OTOSALES/LOGIN/Side Menu-Switch""), [""menu"":""Task List""], STOP_ON_FAILURE)",Chrome 90.0.4430.212,,,2021-05-19 22:27:08,2021-05-19 22:27:16,8.138s,PASSED
"callTestCase(findTestCase(""PAGE/OTOSALES/NEW/TASKLIST/1.Home""), [""Chassis"":ChassisNo, ""CustName"":ProspectName], STOP_ON_FAILURE)",Chrome 90.0.4430.212,,,2021-05-19 22:27:16,2021-05-19 22:27:34,18.088s,PASSED
"callTestCase(findTestCase(""PAGE/OTOSALES/NEW/TASKLIST/2.Tasklist""), [""birthDate"":""15/10/1989"", ""NomorNPWP"":""371829374123"", ""JenisKelamin"":""Laki-Laki"", ""Alamat"":""Jalan Pelan - Pelan"", ""KodePos"":""55141"", ... ], STOP_ON_FAILURE)",Chrome 90.0.4430.212,,,2021-05-19 22:27:34,2021-05-19 22:29:42,2m - 8.331s,PASSED
"callTestCase(findTestCase(""PAGE/OTOSALES/NEW/TASKLIST/3.FollowUp""), [""Reason"":""Send to SA"", ""Notes"":""Contacted"", ""Receiver"":""Sir Cok Kotelawala"", ""Remarks"":""Created by Katalon Studio"", ""ProspectName"":ProspectName], STOP_ON_FAILURE)",Chrome 90.0.4430.212,,,2021-05-19 22:29:42,2021-05-19 22:32:28,2m - 45.644s,PASSED
,,,,,,,
Test Cases/SCENARIO/GEN5/TASKLIST SA/Tasklist,Chrome 90.0.4430.212,,,2021-05-19 22:32:28,2021-05-19 22:39:13,6m - 44.526s,PASSED
"callTestCase(findTestCase(""PAGE/GEN5/LOGIN/Login""), [""username"":""DOC"", ""password"":""ITG@nt1P455QC"", ""isSyariah"":false], STOP_ON_FAILURE)",Chrome 90.0.4430.212,,,2021-05-19 22:32:29,2021-05-19 22:32:46,16.838s,PASSED
"callTestCase(findTestCase(""PAGE/GEN5/HOME/Side Menu""), [""SideMenu"":""Task List SA""], STOP_ON_FAILURE)",Chrome 90.0.4430.212,,,2021-05-19 22:32:46,2021-05-19 22:33:12,25.831s,PASSED
"callTestCase(findTestCase(""PAGE/GEN5/TASKLIST SA/Dashboard""), [""SearchBy"":""Order No"", ""Parameter"":OtosalesOrderNo], STOP_ON_FAILURE)",Chrome 90.0.4430.212,,,2021-05-19 22:33:12,2021-05-19 22:33:57,45.053s,PASSED
"callTestCase(findTestCase(""PAGE/GEN5/TASKLIST SA/Tasklist SA""), [""changePolicyHolder"":false, ""SearchParam"":""Name"", ""PolicyHolderName"":""Sir Cok Kotelawala"", ""NameOnPolicy"":""Default"", ""EmailDelivery"":""Customer"", ... ], STOP_ON_FAILURE)",Chrome 90.0.4430.212,,,2021-05-19 22:33:57,2021-05-19 22:39:12,5m - 15.696s,PASSED
,,,,,,,
Test Cases/SCENARIO/OTOSALES/APPROVAL/Approval TELE,Chrome 90.0.4430.212,,,2021-05-19 22:39:13,2021-05-19 22:44:04,4m - 51.563s,PASSED
"QueryAABHead = ""SELECT TOP 1* FROM dbo.AABHead WHERE param = 'NIP'""",Chrome 90.0.4430.212,,,2021-05-19 22:39:14,2021-05-19 22:39:14,0.007s,PASSED
"Login = UI.getValueDatabase(""172.16.94.48"", ""AABMobile"", QueryAABHead, ""Value"")",Chrome 90.0.4430.212,,,2021-05-19 22:39:14,2021-05-19 22:39:14,0.339s,PASSED
"Approve = ""SELECT TOP 1* FROM mst_order_mobile_approval where Order_no = '"" + OtosalesOrderNo + ""' and ApprovalStatus = '0' order by ApprovalType ASC""",Chrome 90.0.4430.212,,,2021-05-19 22:39:14,2021-05-19 22:39:14,0.002s,PASSED
"approvalType = UI.getValueDatabase(""172.16.94.74"", ""AAB"", Approve, ""ApprovalType"")",Chrome 90.0.4430.212,,,2021-05-19 22:39:14,2021-05-19 22:39:14,0.109s,PASSED
"QueryMstOrder = ""SELECT * FROM mst_order WHERE Order_No = '"" + OtosalesOrderNo + ""'""",Chrome 90.0.4430.212,,,2021-05-19 22:39:14,2021-05-19 22:39:14,0.001s,PASSED
"OrdStatus = UI.getValueDatabase(""172.16.94.74"", ""AAB"", QueryMstOrder, ""Order_Status"")",Chrome 90.0.4430.212,,,2021-05-19 22:39:14,2021-05-19 22:39:14,0.121s,PASSED
"OrderNo = ""SELECT * FROM dbo.OrderSimulation WHERE PolicyOrderno = '"" + OtosalesOrderNo + ""'""",Chrome 90.0.4430.212,,,2021-05-19 22:39:14,2021-05-19 22:39:14,0.001s,PASSED
"OrderNoLong = UI.getValueDatabase(""172.16.94.48"", ""AABMOBILE"", OrderNo, ""OrderNo"")",Chrome 90.0.4430.212,,,2021-05-19 22:39:14,2021-05-19 22:39:15,0.854s,PASSED
"ApproveLP = ""SELECT * FROM dbo.OrderSimulationApproval where OrderNo = '"" + OrderNoLong + ""' and RowStatus = '1' and ApprovalStatus = '0'""",Chrome 90.0.4430.212,,,2021-05-19 22:39:15,2021-05-19 22:39:15,0.002s,PASSED
"approvalTypeLP = UI.getValueDatabase(""172.16.94.48"", ""AABMOBILE"", ApproveLP, ""ApprovalStatus"")",Chrome 90.0.4430.212,,,2021-05-19 22:39:15,2021-05-19 22:39:15,0.333s,PASSED
println(approvalType),Chrome 90.0.4430.212,,,2021-05-19 22:39:15,2021-05-19 22:39:15,0.002s,PASSED
println(OrdStatus),Chrome 90.0.4430.212,,,2021-05-19 22:39:15,2021-05-19 22:39:15,0.003s,PASSED
"while (approvalType != ""null"" && OrdStatus != ""9"")",Chrome 90.0.4430.212,,,2021-05-19 22:39:15,2021-05-19 22:40:05,50.149s,PASSED
println(approvalTypeLP),Chrome 90.0.4430.212,,,2021-05-19 22:40:05,2021-05-19 22:40:05,0.002s,PASSED
"if (approvalTypeLP == ""0"")",Chrome 90.0.4430.212,,,2021-05-19 22:40:05,2021-05-19 22:40:05,0.001s,PASSED
delay(2),Chrome 90.0.4430.212,,,2021-05-19 22:40:05,2021-05-19 22:40:07,2.006s,PASSED
delay(2),Chrome 90.0.4430.212,,,2021-05-19 22:40:07,2021-05-19 22:40:09,2.008s,PASSED
delay(2),Chrome 90.0.4430.212,,,2021-05-19 22:40:09,2021-05-19 22:40:12,2.008s,PASSED
delay(2),Chrome 90.0.4430.212,,,2021-05-19 22:40:12,2021-05-19 22:40:14,2.007s,PASSED
"QueryOrderStatus = ""select * from mst_order WHERE Order_No = '"" + OtosalesOrderNo + ""'""",Chrome 90.0.4430.212,,,2021-05-19 22:40:14,2021-05-19 22:40:14,0.002s,PASSED
"OrderStatus = UI.getValueDatabase(""172.16.94.74"", ""AAB"", QueryOrderStatus, ""Order_Status"")",Chrome 90.0.4430.212,,,2021-05-19 22:40:14,2021-05-19 22:40:14,0.128s,PASSED
"QueryAABMobile = ""SELECT FollowUpInfo,* FROM followUp WHERE FollowUpNo = (SELECT followUpNo FROM OrderSimulation WHERE PolicyOrderNo = '"" + OtosalesOrderNo + ""')""",Chrome 90.0.4430.212,,,2021-05-19 22:40:14,2021-05-19 22:40:14,0.003s,PASSED
"description = UI.getValueDatabase(""172.16.94.48"", ""AABMobile"", QueryAABMobile, ""FollowUpInfo"")",Chrome 90.0.4430.212,,,2021-05-19 22:40:14,2021-05-19 22:40:14,0.290s,PASSED
"while (description != ""50"")",Chrome 90.0.4430.212,,,2021-05-19 22:40:14,2021-05-19 22:44:02,3m - 48.049s,PASSED
println(description),Chrome 90.0.4430.212,,,2021-05-19 22:44:02,2021-05-19 22:44:02,0.002s,PASSED
closeBrowser(),Chrome 90.0.4430.212,,,2021-05-19 22:44:02,2021-05-19 22:44:04,2.085s,PASSED
