Suite/Test/Step Name,Browser,Description,Tag,Start time,End time,Duration,Status
"INPROSPECT-NONGODIG GO,COMP,M200,FULLCVR,PERSONAL - TELERENEWAL",Chrome 90.0.4430.93,,,2021-05-09 08:35:41,2021-05-09 08:37:08,1m - 26.334s,INCOMPLETE
,,,,,,,
"Test Cases/SCENARIO/OTOSALES/Collaboration/NEW ORDER/MVNONGODIG/SINGLE YEAR/Create Polis/INPROSPECT-NONGODIG GO,COMP,M200,FULLCVR,PERSONAL - TELERENEWAL",Chrome 90.0.4430.93,,,2021-05-09 08:35:44,2021-05-09 08:36:28,44.612s,FAILED
"callTestCase(findTestCase(""SCENARIO/OTOSALES/LOGIN/Login Telerenewal""), [:], STOP_ON_FAILURE)",Chrome 90.0.4430.93,,,2021-05-09 08:35:47,2021-05-09 08:36:28,41.637s,FAILED
,,,,,,,
Test Cases/SCENARIO/GEN5/TASKLIST SA/Tasklist,Chrome 90.0.4430.93,,,2021-05-09 08:36:28,2021-05-09 08:36:49,20.832s,FAILED
"callTestCase(findTestCase(""PAGE/GEN5/LOGIN/Login""), [""username"":""DOC"", ""password"":""ITG@nt1P455QC"", ""isSyariah"":false], STOP_ON_FAILURE)",Chrome 90.0.4430.93,,,2021-05-09 08:36:30,2021-05-09 08:36:49,18.912s,FAILED
,,,,,,,
Test Cases/SCENARIO/OTOSALES/APPROVAL/Approval TELE,Chrome 90.0.4430.93,,,2021-05-09 08:36:49,2021-05-09 08:37:08,18.548s,ERROR
"QueryAABHead = ""SELECT TOP 1* FROM dbo.AABHead WHERE param = 'NIP'""",Chrome 90.0.4430.93,,,2021-05-09 08:36:52,2021-05-09 08:36:52,0.012s,PASSED
"Login = UI.getValueDatabase(""172.16.94.48"", ""AABMobile"", QueryAABHead, ""Value"")",Chrome 90.0.4430.93,,,2021-05-09 08:36:52,2021-05-09 08:37:08,15.738s,PASSED
