Suite/Test/Step Name,Browser,Description,Tag,Start time,End time,Duration,Status
"INPROSPECT-NONGODIG SYARIAH,COMP,M200,FULLCVR,COMPANY - AO - UMA",Chrome 90.0.4430.212,,,2021-06-04 11:05:07,2021-06-04 11:11:19,6m - 12.111s,INCOMPLETE
,,,,,,,
"Test Cases/SCENARIO/OTOSALES/Collaboration/NEW ORDER/MVNONGODIG/SINGLE YEAR/Create Polis/INPROSPECT-NONGODIG SYARIAH,COMP,M200,FULLCVR,COMPANY,KOMISI,NOAPPADJ - AO",Chrome 90.0.4430.212,,,2021-06-04 11:05:09,2021-06-04 11:08:40,3m - 31.441s,FAILED
"callTestCase(findTestCase(""SCENARIO/OTOSALES/LOGIN/Login AO""), [:], STOP_ON_FAILURE)",Chrome 90.0.4430.212,,,2021-06-04 11:05:12,2021-06-04 11:06:23,1m - 10.421s,PASSED
"callTestCase(findTestCase(""PAGE/OTOSALES/LOGIN/Side Menu-Switch""), [""menu"":""Input Prospect""], STOP_ON_FAILURE)",Chrome 90.0.4430.212,,,2021-06-04 11:06:23,2021-06-04 11:06:41,18.717s,PASSED
"callTestCase(findTestCase(""PAGE/OTOSALES/NEW/INPUT PROSPECT/1.Prospect Info""), [""MV"":""MV NON GODIG"", ""isCompany"":true, ""prospectName"":""Test Otosales AO CD COM Syariah HRM"", ""phone1"":""082127670262"", ""phone2"":""081290154328"", ... ], STOP_ON_FAILURE)",Chrome 90.0.4430.212,,,2021-06-04 11:06:41,2021-06-04 11:08:24,1m - 42.191s,PASSED
"callTestCase(findTestCase(""PAGE/OTOSALES/NEW/INPUT PROSPECT/2.Vehicle Info""), [""VehicleName"":""XPANDER 2018 ULTIMATE"", ""Usage"":""PRIBADI"", ""Region"":""Wilayah 2""], STOP_ON_FAILURE)",Chrome 90.0.4430.212,,,2021-06-04 11:08:24,2021-06-04 11:08:40,16.837s,FAILED
,,,,,,,
Test Cases/SCENARIO/GEN5/TASKLIST SA/Tasklist Syariah,Chrome 90.0.4430.212,,,2021-06-04 11:08:41,2021-06-04 11:10:57,2m - 16.611s,FAILED
"callTestCase(findTestCase(""PAGE/GEN5/LOGIN/Login""), [""username"":""DOC"", ""password"":""ITG@nt1P455QC"", ""isSyariah"":true], STOP_ON_FAILURE)",Chrome 90.0.4430.212,,,2021-06-04 11:08:41,2021-06-04 11:09:09,27.111s,PASSED
"callTestCase(findTestCase(""PAGE/GEN5/HOME/Side Menu""), [""SideMenu"":""Task List SA""], STOP_ON_FAILURE)",Chrome 90.0.4430.212,,,2021-06-04 11:09:09,2021-06-04 11:09:36,27.089s,PASSED
"callTestCase(findTestCase(""PAGE/GEN5/TASKLIST SA/Dashboard""), [""SearchBy"":""Order No"", ""Parameter"":OtosalesOrderNo], STOP_ON_FAILURE)",Chrome 90.0.4430.212,,,2021-06-04 11:09:36,2021-06-04 11:10:33,57.027s,PASSED
"callTestCase(findTestCase(""PAGE/GEN5/TASKLIST SA/Tasklist SA""), [""changePolicyHolder"":false, ""SearchParam"":""Name"", ""PolicyHolderName"":""Sir Cok Kotelawala"", ""NameOnPolicy"":""Default"", ""EmailDelivery"":""Customer"", ... ], STOP_ON_FAILURE)",Chrome 90.0.4430.212,,,2021-06-04 11:10:33,2021-06-04 11:10:57,24.411s,FAILED
,,,,,,,
Test Cases/SCENARIO/OTOSALES/APPROVAL/Approval AO,Chrome 90.0.4430.212,,,2021-06-04 11:10:57,2021-06-04 11:11:19,21.631s,PASSED
"QuerySalesOfficer = ""SELECT TOP 1* FROM dbo.SalesOfficer WHERE SalesOfficerID = '"" + OtosalesLogin + ""'""",Chrome 90.0.4430.212,,,2021-06-04 11:11:01,2021-06-04 11:11:01,0.096s,PASSED
"BranchCode = UI.getValueDatabase(""172.16.94.48"", ""AABMobile"", QuerySalesOfficer, ""BranchCode"")",Chrome 90.0.4430.212,,,2021-06-04 11:11:01,2021-06-04 11:11:03,1.147s,PASSED
"QueryAABHead = ""SELECT TOP 1* FROM dbo.AABHead WHERE param = '"" + BranchCode + ""' and RowStatus = '1'""",Chrome 90.0.4430.212,,,2021-06-04 11:11:03,2021-06-04 11:11:03,0.003s,PASSED
"Login = UI.getValueDatabase(""172.16.94.48"", ""AABMobile"", QueryAABHead, ""Value"")",Chrome 90.0.4430.212,,,2021-06-04 11:11:03,2021-06-04 11:11:04,0.992s,PASSED
Userlogin = OtosalesLogin,Chrome 90.0.4430.212,,,2021-06-04 11:11:04,2021-06-04 11:11:04,0.003s,PASSED
"Approve = ""SELECT TOP 1* FROM mst_order_mobile_approval where Order_no = '"" + OtosalesOrderNo + ""' and ApprovalStatus = '0' order by ApprovalType ASC""",Chrome 90.0.4430.212,,,2021-06-04 11:11:04,2021-06-04 11:11:04,0.002s,PASSED
"approvalType = UI.getValueDatabase(""172.16.94.74"", ""AAB"", Approve, ""ApprovalType"")",Chrome 90.0.4430.212,,,2021-06-04 11:11:04,2021-06-04 11:11:04,0.412s,PASSED
println(approvalType),Chrome 90.0.4430.212,,,2021-06-04 11:11:04,2021-06-04 11:11:04,0.012s,PASSED
"QueryMstOrder = ""SELECT * FROM mst_order WHERE Order_No = '"" + OtosalesOrderNo + ""'""",Chrome 90.0.4430.212,,,2021-06-04 11:11:04,2021-06-04 11:11:04,0.002s,PASSED
"OrdStatus = UI.getValueDatabase(""172.16.94.74"", ""AAB"", QueryMstOrder, ""Order_Status"")",Chrome 90.0.4430.212,,,2021-06-04 11:11:04,2021-06-04 11:11:04,0.373s,PASSED
"OrderNo = ""SELECT * FROM dbo.OrderSimulation WHERE PolicyOrderno = '"" + OtosalesOrderNo + ""'""",Chrome 90.0.4430.212,,,2021-06-04 11:11:04,2021-06-04 11:11:04,0.003s,PASSED
"OrderNoLong = UI.getValueDatabase(""172.16.94.48"", ""AABMOBILE"", OrderNo, ""OrderNo"")",Chrome 90.0.4430.212,,,2021-06-04 11:11:04,2021-06-04 11:11:06,1.438s,PASSED
"ApproveLP = ""SELECT * FROM dbo.OrderSimulationApproval where OrderNo = '"" + OrderNoLong + ""' and RowStatus = '1' and ApprovalStatus = '0'""",Chrome 90.0.4430.212,,,2021-06-04 11:11:06,2021-06-04 11:11:06,0.002s,PASSED
"approvalTypeLP = UI.getValueDatabase(""172.16.94.48"", ""AABMOBILE"", ApproveLP, ""ApprovalStatus"")",Chrome 90.0.4430.212,,,2021-06-04 11:11:06,2021-06-04 11:11:07,0.658s,PASSED
"while (approvalType != ""null"" && OrdStatus != ""9"")",Chrome 90.0.4430.212,,,2021-06-04 11:11:07,2021-06-04 11:11:07,0.002s,PASSED
println(approvalTypeLP),Chrome 90.0.4430.212,,,2021-06-04 11:11:07,2021-06-04 11:11:07,0.001s,PASSED
"if (approvalTypeLP == ""0"")",Chrome 90.0.4430.212,,,2021-06-04 11:11:07,2021-06-04 11:11:07,0.002s,PASSED
delay(2),Chrome 90.0.4430.212,,,2021-06-04 11:11:07,2021-06-04 11:11:09,2.012s,PASSED
delay(2),Chrome 90.0.4430.212,,,2021-06-04 11:11:09,2021-06-04 11:11:11,2.015s,PASSED
delay(2),Chrome 90.0.4430.212,,,2021-06-04 11:11:11,2021-06-04 11:11:13,2.030s,PASSED
delay(2),Chrome 90.0.4430.212,,,2021-06-04 11:11:13,2021-06-04 11:11:15,2.015s,PASSED
"QueryOrderStatus = ""select * from mst_order WHERE Order_No = '"" + OtosalesOrderNo + ""'""",Chrome 90.0.4430.212,,,2021-06-04 11:11:15,2021-06-04 11:11:15,0.002s,PASSED
"OrderStatus = UI.getValueDatabase(""172.16.94.74"", ""AAB"", QueryOrderStatus, ""Order_Status"")",Chrome 90.0.4430.212,,,2021-06-04 11:11:15,2021-06-04 11:11:15,0.603s,PASSED
"QueryAABMobile = ""SELECT FollowUpInfo,* FROM followUp WHERE FollowUpNo = (SELECT followUpNo FROM OrderSimulation WHERE PolicyOrderNo = '"" + OtosalesOrderNo + ""')""",Chrome 90.0.4430.212,,,2021-06-04 11:11:15,2021-06-04 11:11:15,0.003s,PASSED
"description = UI.getValueDatabase(""172.16.94.48"", ""AABMobile"", QueryAABMobile, ""FollowUpInfo"")",Chrome 90.0.4430.212,,,2021-06-04 11:11:15,2021-06-04 11:11:17,1.470s,PASSED
"while (description != ""50"")",Chrome 90.0.4430.212,,,2021-06-04 11:11:17,2021-06-04 11:11:17,0.002s,PASSED
println(description),Chrome 90.0.4430.212,,,2021-06-04 11:11:17,2021-06-04 11:11:17,0.002s,PASSED
closeBrowser(),Chrome 90.0.4430.212,,,2021-06-04 11:11:17,2021-06-04 11:11:19,2.069s,PASSED
