Suite/Test/Step Name,Browser,Description,Tag,Start time,End time,Duration,Status
"INPROSPECT-NONGODIG GO,COMP,M200,FULLCVR,COMPANY,KOMISI,NOAPPADJ - AO",Chrome 90.0.4430.93,,,2021-05-10 03:16:59,2021-05-10 03:49:54,32m - 54.796s,INCOMPLETE
,,,,,,,
"Test Cases/SCENARIO/OTOSALES/Collaboration/NEW ORDER/MVNONGODIG/SINGLE YEAR/Create Polis/INPROSPECT-NONGODIG GO,COMP,M200,FULLCVR,COMPANY,KOMISI,NOAPPADJ - AO",Chrome 90.0.4430.93,,,2021-05-10 03:17:01,2021-05-10 03:47:06,30m - 5.269s,ERROR
"callTestCase(findTestCase(""SCENARIO/OTOSALES/LOGIN/Login AO""), [:], STOP_ON_FAILURE)",Chrome 90.0.4430.93,,,2021-05-10 03:17:03,2021-05-10 03:17:55,51.729s,PASSED
"callTestCase(findTestCase(""PAGE/OTOSALES/LOGIN/Side Menu-Switch""), [""menu"":""Input Prospect""], STOP_ON_FAILURE)",Chrome 90.0.4430.93,,,2021-05-10 03:17:55,2021-05-10 03:18:07,12.598s,PASSED
"callTestCase(findTestCase(""PAGE/OTOSALES/NEW/INPUT PROSPECT/1.Prospect Info""), [""MV"":""MV NON GODIG"", ""isCompany"":true, ""prospectName"":""Test Otosales AO CDealer HRM"", ""phone1"":""082127670262"", ""phone2"":""081290154328"", ... ], STOP_ON_FAILURE)",Chrome 90.0.4430.93,,,2021-05-10 03:18:07,2021-05-10 03:18:38,30.423s,PASSED
"callTestCase(findTestCase(""PAGE/OTOSALES/NEW/INPUT PROSPECT/2.Vehicle Info""), [""VehicleName"":""Toyota agya 2018 New 1.2 G M/T"", ""Usage"":""KOMERSIAL"", ""Region"":""Wilayah 2""], STOP_ON_FAILURE)",Chrome 90.0.4430.93,,,2021-05-10 03:18:38,2021-05-10 03:19:13,34.835s,PASSED
"callTestCase(findTestCase(""PAGE/OTOSALES/NEW/INPUT PROSPECT/3.Cover""), [""ProductType"":""Garda Oto"", ""ProductCode"":""GDU52"", ""Coverage"":""Comprehensive 1 Year"", ""TJH"":""25,000,000"", ""Terrorism"":true, ... ], STOP_ON_FAILURE)",Chrome 90.0.4430.93,,,2021-05-10 03:19:13,2021-05-10 03:20:32,1m - 19.345s,PASSED
"callTestCase(findTestCase(""PAGE/OTOSALES/LOGIN/Side Menu-Switch""), [""menu"":""Task List""], STOP_ON_FAILURE)",Chrome 90.0.4430.93,,,2021-05-10 03:20:32,2021-05-10 03:20:40,7.575s,PASSED
"callTestCase(findTestCase(""PAGE/OTOSALES/NEW/TASKLIST/1.Home""), [""Chassis"":ChassisNo, ""CustName"":ProspectName], STOP_ON_FAILURE)",Chrome 90.0.4430.93,,,2021-05-10 03:20:40,2021-05-10 03:21:00,19.914s,PASSED
"callTestCase(findTestCase(""PAGE/OTOSALES/NEW/TASKLIST/2.Tasklist""), [""birthDate"":""15/10/1989"", ""NomorNPWP"":""371829374123456"", ""JenisKelamin"":""Laki-Laki"", ""Alamat"":""Jalan Pelan - Pelan"", ""KodePos"":""55141"", ... ], STOP_ON_FAILURE)",Chrome 90.0.4430.93,,,2021-05-10 03:21:00,2021-05-10 03:25:12,4m - 12.942s,PASSED
"callTestCase(findTestCase(""PAGE/OTOSALES/NEW/TASKLIST/3.FollowUp""), [""Reason"":""Send to SA"", ""Notes"":""Contacted"", ""Receiver"":""Sir Cok Kotelawala"", ""Remarks"":""Created by Katalon Studio"", ""ProspectName"":ProspectName], STOP_ON_FAILURE)",Chrome 90.0.4430.93,,,2021-05-10 03:25:12,2021-05-10 03:47:06,21m - 53.488s,FAILED
,,,,,,,
Test Cases/SCENARIO/GEN5/TASKLIST SA/Tasklist,Chrome 90.0.4430.93,,,2021-05-10 03:47:06,2021-05-10 03:49:40,2m - 34.153s,FAILED
"callTestCase(findTestCase(""PAGE/GEN5/LOGIN/Login""), [""username"":""DOC"", ""password"":""ITG@nt1P455QC"", ""isSyariah"":false], STOP_ON_FAILURE)",Chrome 90.0.4430.93,,,2021-05-10 03:47:07,2021-05-10 03:47:28,20.201s,PASSED
"callTestCase(findTestCase(""PAGE/GEN5/HOME/Side Menu""), [""SideMenu"":""Task List SA""], STOP_ON_FAILURE)",Chrome 90.0.4430.93,,,2021-05-10 03:47:28,2021-05-10 03:47:53,25.195s,PASSED
"callTestCase(findTestCase(""PAGE/GEN5/TASKLIST SA/Dashboard""), [""SearchBy"":""Order No"", ""Parameter"":OtosalesOrderNo], STOP_ON_FAILURE)",Chrome 90.0.4430.93,,,2021-05-10 03:47:53,2021-05-10 03:48:42,49.530s,PASSED
"callTestCase(findTestCase(""PAGE/GEN5/TASKLIST SA/Tasklist SA""), [""changePolicyHolder"":false, ""SearchParam"":""Name"", ""PolicyHolderName"":""Sir Cok Kotelawala"", ""NameOnPolicy"":""Default"", ""EmailDelivery"":""Customer"", ... ], STOP_ON_FAILURE)",Chrome 90.0.4430.93,,,2021-05-10 03:48:42,2021-05-10 03:49:40,57.918s,FAILED
,,,,,,,
Test Cases/SCENARIO/OTOSALES/APPROVAL/Approval AO,Chrome 90.0.4430.93,,,2021-05-10 03:49:40,2021-05-10 03:49:54,13.357s,PASSED
"QuerySalesOfficer = ""SELECT TOP 1* FROM dbo.SalesOfficer WHERE SalesOfficerID = '"" + OtosalesLogin + ""'""",Chrome 90.0.4430.93,,,2021-05-10 03:49:41,2021-05-10 03:49:41,0.002s,PASSED
"BranchCode = UI.getValueDatabase(""172.16.94.48"", ""AABMobile"", QuerySalesOfficer, ""BranchCode"")",Chrome 90.0.4430.93,,,2021-05-10 03:49:41,2021-05-10 03:49:42,0.163s,PASSED
"QueryAABHead = ""SELECT TOP 1* FROM dbo.AABHead WHERE param = '"" + BranchCode + ""' and RowStatus = '1'""",Chrome 90.0.4430.93,,,2021-05-10 03:49:42,2021-05-10 03:49:42,0.001s,PASSED
"Login = UI.getValueDatabase(""172.16.94.48"", ""AABMobile"", QueryAABHead, ""Value"")",Chrome 90.0.4430.93,,,2021-05-10 03:49:42,2021-05-10 03:49:42,0.132s,PASSED
Userlogin = OtosalesLogin,Chrome 90.0.4430.93,,,2021-05-10 03:49:42,2021-05-10 03:49:42,0.002s,PASSED
"Approve = ""SELECT TOP 1* FROM mst_order_mobile_approval where Order_no = '"" + OtosalesOrderNo + ""' and ApprovalStatus = '0' order by ApprovalType ASC""",Chrome 90.0.4430.93,,,2021-05-10 03:49:42,2021-05-10 03:49:42,0.000s,PASSED
"approvalType = UI.getValueDatabase(""172.16.94.74"", ""AAB"", Approve, ""ApprovalType"")",Chrome 90.0.4430.93,,,2021-05-10 03:49:42,2021-05-10 03:49:42,0.128s,PASSED
println(approvalType),Chrome 90.0.4430.93,,,2021-05-10 03:49:42,2021-05-10 03:49:42,0.002s,PASSED
"QueryMstOrder = ""SELECT * FROM mst_order WHERE Order_No = '"" + OtosalesOrderNo + ""'""",Chrome 90.0.4430.93,,,2021-05-10 03:49:42,2021-05-10 03:49:42,0.001s,PASSED
"OrdStatus = UI.getValueDatabase(""172.16.94.74"", ""AAB"", QueryMstOrder, ""Order_Status"")",Chrome 90.0.4430.93,,,2021-05-10 03:49:42,2021-05-10 03:49:42,0.140s,PASSED
"OrderNo = ""SELECT * FROM dbo.OrderSimulation WHERE PolicyOrderno = '"" + OtosalesOrderNo + ""'""",Chrome 90.0.4430.93,,,2021-05-10 03:49:42,2021-05-10 03:49:42,0.001s,PASSED
"OrderNoLong = UI.getValueDatabase(""172.16.94.48"", ""AABMOBILE"", OrderNo, ""OrderNo"")",Chrome 90.0.4430.93,,,2021-05-10 03:49:42,2021-05-10 03:49:42,0.295s,PASSED
"ApproveLP = ""SELECT * FROM dbo.OrderSimulationApproval where OrderNo = '"" + OrderNoLong + ""' and RowStatus = '1' and ApprovalStatus = '0'""",Chrome 90.0.4430.93,,,2021-05-10 03:49:42,2021-05-10 03:49:42,0.001s,PASSED
"approvalTypeLP = UI.getValueDatabase(""172.16.94.48"", ""AABMOBILE"", ApproveLP, ""ApprovalStatus"")",Chrome 90.0.4430.93,,,2021-05-10 03:49:42,2021-05-10 03:49:42,0.150s,PASSED
"while (approvalType != ""null"" && OrdStatus != ""9"")",Chrome 90.0.4430.93,,,2021-05-10 03:49:42,2021-05-10 03:49:42,0.001s,PASSED
println(approvalTypeLP),Chrome 90.0.4430.93,,,2021-05-10 03:49:42,2021-05-10 03:49:42,0.001s,PASSED
"if (approvalTypeLP == ""0"")",Chrome 90.0.4430.93,,,2021-05-10 03:49:42,2021-05-10 03:49:42,0.001s,PASSED
delay(2),Chrome 90.0.4430.93,,,2021-05-10 03:49:42,2021-05-10 03:49:44,2.015s,PASSED
delay(2),Chrome 90.0.4430.93,,,2021-05-10 03:49:44,2021-05-10 03:49:46,2.008s,PASSED
delay(2),Chrome 90.0.4430.93,,,2021-05-10 03:49:46,2021-05-10 03:49:48,2.010s,PASSED
delay(2),Chrome 90.0.4430.93,,,2021-05-10 03:49:48,2021-05-10 03:49:50,2.009s,PASSED
"QueryOrderStatus = ""select * from mst_order WHERE Order_No = '"" + OtosalesOrderNo + ""'""",Chrome 90.0.4430.93,,,2021-05-10 03:49:50,2021-05-10 03:49:50,0.002s,PASSED
"OrderStatus = UI.getValueDatabase(""172.16.94.74"", ""AAB"", QueryOrderStatus, ""Order_Status"")",Chrome 90.0.4430.93,,,2021-05-10 03:49:50,2021-05-10 03:49:51,0.109s,PASSED
"QueryAABMobile = ""SELECT FollowUpInfo,* FROM followUp WHERE FollowUpNo = (SELECT followUpNo FROM OrderSimulation WHERE PolicyOrderNo = '"" + OtosalesOrderNo + ""')""",Chrome 90.0.4430.93,,,2021-05-10 03:49:51,2021-05-10 03:49:51,0.001s,PASSED
"description = UI.getValueDatabase(""172.16.94.48"", ""AABMobile"", QueryAABMobile, ""FollowUpInfo"")",Chrome 90.0.4430.93,,,2021-05-10 03:49:51,2021-05-10 03:49:52,1.337s,PASSED
"while (description != ""50"")",Chrome 90.0.4430.93,,,2021-05-10 03:49:52,2021-05-10 03:49:52,0.001s,PASSED
println(description),Chrome 90.0.4430.93,,,2021-05-10 03:49:52,2021-05-10 03:49:52,0.002s,PASSED
closeBrowser(),Chrome 90.0.4430.93,,,2021-05-10 03:49:52,2021-05-10 03:49:54,1.602s,PASSED
