Suite/Test/Step Name,Browser,Description,Tag,Start time,End time,Duration,Status
"INPROSPECT-NONGODIG SYARIAH,COMP,M200,FULLCVR,PERSONAL - AO - UMA",Chrome 89.0.4389.114,,,2021-04-13 23:07:30,2021-04-14 04:43:52,5h - 36m - 21.928s,INCOMPLETE
,,,,,,,
"Test Cases/SCENARIO/OTOSALES/Collaboration/NEW ORDER/MVNONGODIG/SINGLE YEAR/Create Polis/INPROSPECT-NONGODIG SYARIAH,COMP,M200,FULLCVR,PERSONAL - AO - UMA",Chrome 89.0.4389.114,,,2021-04-13 23:07:32,2021-04-13 23:13:47,6m - 14.872s,FAILED
"callTestCase(findTestCase(""SCENARIO/OTOSALES/LOGIN/Login AO""), [:], STOP_ON_FAILURE)",Chrome 89.0.4389.114,,,2021-04-13 23:07:34,2021-04-13 23:08:27,52.811s,PASSED
"callTestCase(findTestCase(""PAGE/OTOSALES/LOGIN/Side Menu-Switch""), [""menu"":""Input Prospect""], STOP_ON_FAILURE)",Chrome 89.0.4389.114,,,2021-04-13 23:08:27,2021-04-13 23:08:34,7.348s,PASSED
"callTestCase(findTestCase(""PAGE/OTOSALES/NEW/INPUT PROSPECT/1.Prospect Info""), [""MV"":""MV NON GODIG"", ""isCompany"":false, ""prospectName"":""Test Otosales AO WIC Syariah HRM"", ""phone1"":""082127670262"", ""phone2"":""081290154328"", ... ], STOP_ON_FAILURE)",Chrome 89.0.4389.114,,,2021-04-13 23:08:34,2021-04-13 23:10:15,1m - 41.448s,PASSED
"callTestCase(findTestCase(""PAGE/OTOSALES/NEW/INPUT PROSPECT/2.Vehicle Info""), [""VehicleName"":""XPANDER 2018 ULTIMATE"", ""Usage"":""PRIBADI"", ""Region"":""Wilayah 2""], STOP_ON_FAILURE)",Chrome 89.0.4389.114,,,2021-04-13 23:10:15,2021-04-13 23:10:41,25.681s,PASSED
"callTestCase(findTestCase(""PAGE/OTOSALES/NEW/INPUT PROSPECT/3.Cover""), [""ProductType"":""Garda Oto Syariah"", ""MV"":OrderType, ""ProductCode"":""GWU0S"", ""Coverage"":""Comprehensive 1 Year"", ""TJH"":""25,000,000"", ... ], STOP_ON_FAILURE)",Chrome 89.0.4389.114,,,2021-04-13 23:10:41,2021-04-13 23:11:51,1m - 9.628s,PASSED
"callTestCase(findTestCase(""PAGE/OTOSALES/LOGIN/Side Menu-Switch""), [""menu"":""Task List""], STOP_ON_FAILURE)",Chrome 89.0.4389.114,,,2021-04-13 23:11:51,2021-04-13 23:11:57,5.999s,PASSED
"callTestCase(findTestCase(""PAGE/OTOSALES/NEW/TASKLIST/1.Home""), [""Chassis"":ChassisNo, ""CustName"":ProspectName], STOP_ON_FAILURE)",Chrome 89.0.4389.114,,,2021-04-13 23:11:57,2021-04-13 23:12:19,22.535s,PASSED
"callTestCase(findTestCase(""PAGE/OTOSALES/NEW/TASKLIST/2.Tasklist""), [""birthDate"":""15/10/1989"", ""NomorNPWP"":""371829374123"", ""JenisKelamin"":""Laki-Laki"", ""Alamat"":""Jalan Pelan - Pelan"", ""KodePos"":""55141"", ... ], STOP_ON_FAILURE)",Chrome 89.0.4389.114,,,2021-04-13 23:12:19,2021-04-13 23:13:47,1m - 27.399s,FAILED
,,,,,,,
Test Cases/SCENARIO/GEN5/TASKLIST SA/Tasklist Syariah,Chrome 89.0.4389.114,,,2021-04-13 23:13:47,2021-04-13 23:15:39,1m - 52.064s,FAILED
"callTestCase(findTestCase(""PAGE/GEN5/LOGIN/Login""), [""username"":""DOC"", ""password"":""ITG@nt1P455QC"", ""isSyariah"":true], STOP_ON_FAILURE)",Chrome 89.0.4389.114,,,2021-04-13 23:13:48,2021-04-13 23:14:13,25.531s,PASSED
"callTestCase(findTestCase(""PAGE/GEN5/HOME/Side Menu""), [""SideMenu"":""Task List SA""], STOP_ON_FAILURE)",Chrome 89.0.4389.114,,,2021-04-13 23:14:13,2021-04-13 23:14:34,21.379s,PASSED
"callTestCase(findTestCase(""PAGE/GEN5/TASKLIST SA/Dashboard""), [""SearchBy"":""Order No"", ""Parameter"":OtosalesOrderNo], STOP_ON_FAILURE)",Chrome 89.0.4389.114,,,2021-04-13 23:14:34,2021-04-13 23:15:27,52.445s,PASSED
"callTestCase(findTestCase(""PAGE/GEN5/TASKLIST SA/Tasklist SA""), [""changePolicyHolder"":false, ""SearchParam"":""Name"", ""PolicyHolderName"":""Sir Cok Kotelawala"", ""NameOnPolicy"":""Default"", ""EmailDelivery"":""Customer"", ... ], STOP_ON_FAILURE)",Chrome 89.0.4389.114,,,2021-04-13 23:15:27,2021-04-13 23:15:39,11.767s,FAILED
,,,,,,,
Test Cases/SCENARIO/OTOSALES/APPROVAL/Approval AO,Chrome 89.0.4389.114,,,2021-04-13 23:15:39,2021-04-14 04:43:52,5h - 28m - 13.092s,ERROR
"QuerySalesOfficer = ""SELECT TOP 1* FROM dbo.SalesOfficer WHERE SalesOfficerID = '"" + OtosalesLogin + ""'""",Chrome 89.0.4389.114,,,2021-04-13 23:15:39,2021-04-13 23:15:39,0.002s,PASSED
"BranchCode = UI.getValueDatabase(""172.16.94.48"", ""AABMobile"", QuerySalesOfficer, ""BranchCode"")",Chrome 89.0.4389.114,,,2021-04-13 23:15:39,2021-04-13 23:15:40,0.169s,PASSED
"QueryAABHead = ""SELECT TOP 1* FROM dbo.AABHead WHERE param = '"" + BranchCode + ""' and RowStatus = '1'""",Chrome 89.0.4389.114,,,2021-04-13 23:15:40,2021-04-13 23:15:40,0.002s,PASSED
"Login = UI.getValueDatabase(""172.16.94.48"", ""AABMobile"", QueryAABHead, ""Value"")",Chrome 89.0.4389.114,,,2021-04-13 23:15:40,2021-04-13 23:15:40,0.168s,PASSED
Userlogin = OtosalesLogin,Chrome 89.0.4389.114,,,2021-04-13 23:15:40,2021-04-13 23:15:40,0.001s,PASSED
"Approve = ""SELECT TOP 1* FROM mst_order_mobile_approval where Order_no = '"" + OtosalesOrderNo + ""' and ApprovalStatus = '0' order by ApprovalType ASC""",Chrome 89.0.4389.114,,,2021-04-13 23:15:40,2021-04-13 23:15:40,0.001s,PASSED
"approvalType = UI.getValueDatabase(""172.16.94.74"", ""AAB"", Approve, ""ApprovalType"")",Chrome 89.0.4389.114,,,2021-04-13 23:15:40,2021-04-13 23:15:40,0.164s,PASSED
println(approvalType),Chrome 89.0.4389.114,,,2021-04-13 23:15:40,2021-04-13 23:15:40,0.002s,PASSED
"QueryMstOrder = ""SELECT * FROM mst_order WHERE Order_No = '"" + OtosalesOrderNo + ""'""",Chrome 89.0.4389.114,,,2021-04-13 23:15:40,2021-04-13 23:15:40,0.002s,PASSED
"OrdStatus = UI.getValueDatabase(""172.16.94.74"", ""AAB"", QueryMstOrder, ""Order_Status"")",Chrome 89.0.4389.114,,,2021-04-13 23:15:40,2021-04-13 23:15:40,0.185s,PASSED
"OrderNo = ""SELECT * FROM dbo.OrderSimulation WHERE PolicyOrderno = '"" + OtosalesOrderNo + ""'""",Chrome 89.0.4389.114,,,2021-04-13 23:15:40,2021-04-13 23:15:40,0.001s,PASSED
"OrderNoLong = UI.getValueDatabase(""172.16.94.48"", ""AABMOBILE"", OrderNo, ""OrderNo"")",Chrome 89.0.4389.114,,,2021-04-13 23:15:40,2021-04-13 23:15:40,0.302s,PASSED
"ApproveLP = ""SELECT * FROM dbo.OrderSimulationApproval where OrderNo = '"" + OrderNoLong + ""' and RowStatus = '1' and ApprovalStatus = '0'""",Chrome 89.0.4389.114,,,2021-04-13 23:15:40,2021-04-13 23:15:40,0.002s,PASSED
"approvalTypeLP = UI.getValueDatabase(""172.16.94.48"", ""AABMOBILE"", ApproveLP, ""ApprovalStatus"")",Chrome 89.0.4389.114,,,2021-04-13 23:15:40,2021-04-13 23:15:41,0.126s,PASSED
"while (approvalType != ""null"" && OrdStatus == ""9"")",Chrome 89.0.4389.114,,,2021-04-13 23:15:41,2021-04-13 23:15:41,0.001s,PASSED
println(approvalTypeLP),Chrome 89.0.4389.114,,,2021-04-13 23:15:41,2021-04-13 23:15:41,0.002s,PASSED
"if (approvalTypeLP == ""0"")",Chrome 89.0.4389.114,,,2021-04-13 23:15:41,2021-04-13 23:15:41,0.001s,PASSED
delay(2),Chrome 89.0.4389.114,,,2021-04-13 23:15:41,2021-04-13 23:15:43,2.007s,PASSED
delay(2),Chrome 89.0.4389.114,,,2021-04-13 23:15:43,2021-04-13 23:15:45,2.141s,PASSED
delay(2),Chrome 89.0.4389.114,,,2021-04-13 23:15:45,2021-04-13 23:15:47,2.008s,PASSED
delay(2),Chrome 89.0.4389.114,,,2021-04-13 23:15:47,2021-04-13 23:15:49,2.008s,PASSED
"QueryOrderStatus = ""select * from mst_order WHERE Order_No = '"" + OtosalesOrderNo + ""'""",Chrome 89.0.4389.114,,,2021-04-13 23:15:49,2021-04-13 23:15:49,0.002s,PASSED
"OrderStatus = UI.getValueDatabase(""172.16.94.74"", ""AAB"", QueryOrderStatus, ""Order_Status"")",Chrome 89.0.4389.114,,,2021-04-13 23:15:49,2021-04-13 23:15:49,0.145s,PASSED
"while (OrderStatus != ""9"")",Chrome 89.0.4389.114,,,2021-04-13 23:15:49,2021-04-14 04:43:52,5h - 28m - 2.931s,PASSED
