Suite/Test/Step Name,Browser,Description,Tag,Start time,End time,Duration,Status
"INPROSPECT-NONGODIG GO,COMP,M200,FULLCVR,PERSONAL - AO - UMA",Chrome 87.0.4280.141,,,2021-01-22 23:32:44,2021-01-22 23:53:45,21m - 0.395s,INCOMPLETE
,,,,,,,
"Test Cases/SCENARIO/OTOSALES/Collaboration/NEW ORDER/MVNONGODIG/SINGLE YEAR/Create Polis/INPROSPECT-NONGODIG GO,COMP,M200,FULLCVR,PERSONAL - AO - UMA",Chrome 87.0.4280.141,,,2021-01-22 23:32:46,2021-01-22 23:44:19,11m - 32.919s,PASSED
"callTestCase(findTestCase(""SCENARIO/OTOSALES/LOGIN/Login CSO Cabang""), [:], STOP_ON_FAILURE)",Chrome 87.0.4280.141,,,2021-01-22 23:32:48,2021-01-22 23:33:38,49.985s,PASSED
"callTestCase(findTestCase(""PAGE/OTOSALES/LOGIN/Side Menu-Switch""), [""menu"":""Input Prospect""], STOP_ON_FAILURE)",Chrome 87.0.4280.141,,,2021-01-22 23:33:38,2021-01-22 23:33:46,7.952s,PASSED
"callTestCase(findTestCase(""PAGE/OTOSALES/NEW/INPUT PROSPECT/1.Prospect Info""), [""MV"":""MV NON GODIG"", ""isCompany"":false, ""prospectName"":""TEST OTOSALES AO GO PER"", ""phone1"":""082127670262"", ""phone2"":""081290154328"", ... ], STOP_ON_FAILURE)",Chrome 87.0.4280.141,,,2021-01-22 23:33:46,2021-01-22 23:36:14,2m - 28.659s,PASSED
"callTestCase(findTestCase(""PAGE/OTOSALES/NEW/INPUT PROSPECT/2.Vehicle Info""), [""VehicleName"":""XPANDER 2018 ULTIMATE"", ""Usage"":""PRIBADI"", ""Region"":""Wilayah 2""], STOP_ON_FAILURE)",Chrome 87.0.4280.141,,,2021-01-22 23:36:14,2021-01-22 23:36:39,24.990s,PASSED
"callTestCase(findTestCase(""PAGE/OTOSALES/NEW/INPUT PROSPECT/3.Cover""), [""ProductType"":""Garda Oto"", ""MV"":OrderType, ""ProductCode"":""GWU50"", ""Coverage"":""Comprehensive 1 Year"", ""TJH"":""25,000,000"", ""Terrorism"":true, ... ], STOP_ON_FAILURE)",Chrome 87.0.4280.141,,,2021-01-22 23:36:39,2021-01-22 23:37:43,1m - 3.770s,PASSED
"callTestCase(findTestCase(""PAGE/OTOSALES/LOGIN/Side Menu-Switch""), [""menu"":""Task List""], STOP_ON_FAILURE)",Chrome 87.0.4280.141,,,2021-01-22 23:37:43,2021-01-22 23:37:47,4.000s,PASSED
"callTestCase(findTestCase(""PAGE/OTOSALES/NEW/TASKLIST/1.Home""), [""Chassis"":ChassisNo, ""CustName"":ProspectName], STOP_ON_FAILURE)",Chrome 87.0.4280.141,,,2021-01-22 23:37:47,2021-01-22 23:38:49,1m - 2.377s,PASSED
"callTestCase(findTestCase(""PAGE/OTOSALES/NEW/TASKLIST/2.Tasklist""), [""birthDate"":""15/10/1989"", ""NomorNPWP"":""371829374123"", ""JenisKelamin"":""Laki-Laki"", ""Alamat"":""Jalan Pelan - Pelan"", ""KodePos"":""55141"", ... ], STOP_ON_FAILURE)",Chrome 87.0.4280.141,,,2021-01-22 23:38:49,2021-01-22 23:40:54,2m - 4.932s,PASSED
"callTestCase(findTestCase(""PAGE/OTOSALES/NEW/TASKLIST/3.FollowUp""), [""Reason"":""Send to SA"", ""Notes"":""Contacted"", ""Receiver"":""Sir Cok Kotelawala"", ""Remarks"":""Created by Katalon Studio"", ""ProspectName"":ProspectName], STOP_ON_FAILURE)",Chrome 87.0.4280.141,,,2021-01-22 23:40:54,2021-01-22 23:44:19,3m - 24.294s,PASSED
,,,,,,,
Test Cases/SCENARIO/GEN5/TASKLIST SA/Tasklist,Chrome 87.0.4280.141,,,2021-01-22 23:44:19,2021-01-22 23:52:11,7m - 52.622s,PASSED
"callTestCase(findTestCase(""PAGE/GEN5/LOGIN/Login""), [""username"":""DOC"", ""password"":""ITG@nt1P455QC"", ""isSyariah"":false], STOP_ON_FAILURE)",Chrome 87.0.4280.141,,,2021-01-22 23:44:19,2021-01-22 23:44:40,20.101s,PASSED
"callTestCase(findTestCase(""PAGE/GEN5/HOME/Side Menu""), [""SideMenu"":""Task List SA""], STOP_ON_FAILURE)",Chrome 87.0.4280.141,,,2021-01-22 23:44:40,2021-01-22 23:44:57,17.881s,PASSED
"callTestCase(findTestCase(""PAGE/GEN5/TASKLIST SA/Dashboard""), [""SearchBy"":""Order No"", ""Parameter"":OtosalesOrderNo], STOP_ON_FAILURE)",Chrome 87.0.4280.141,,,2021-01-22 23:44:57,2021-01-22 23:45:45,47.152s,PASSED
"callTestCase(findTestCase(""PAGE/GEN5/TASKLIST SA/Tasklist SA""), [""changePolicyHolder"":false, ""SearchParam"":""Name"", ""PolicyHolderName"":""Sir Cok Kotelawala"", ""NameOnPolicy"":""Default"", ""EmailDelivery"":""Customer"", ... ], STOP_ON_FAILURE)",Chrome 87.0.4280.141,,,2021-01-22 23:45:45,2021-01-22 23:52:11,6m - 26.678s,PASSED
,,,,,,,
Test Cases/SCENARIO/OTOSALES/APPROVAL/Approval AO,Chrome 87.0.4280.141,,,2021-01-22 23:52:11,2021-01-22 23:53:45,1m - 33.537s,FAILED
"QuerySalesOfficer = ""SELECT TOP 1* FROM dbo.SalesOfficer WHERE SalesOfficerID = '"" + OtosalesLogin + ""'""",Chrome 87.0.4280.141,,,2021-01-22 23:52:12,2021-01-22 23:52:12,0.005s,PASSED
"BranchCode = UI.getValueDatabase(""172.16.94.48"", ""AABMobile"", QuerySalesOfficer, ""BranchCode"")",Chrome 87.0.4280.141,,,2021-01-22 23:52:12,2021-01-22 23:52:13,0.666s,PASSED
"QueryAABHead = ""SELECT TOP 1* FROM dbo.AABHead WHERE param = '"" + BranchCode + ""' and RowStatus = '1'""",Chrome 87.0.4280.141,,,2021-01-22 23:52:13,2021-01-22 23:52:13,0.002s,PASSED
"Login = UI.getValueDatabase(""172.16.94.48"", ""AABMobile"", QueryAABHead, ""Value"")",Chrome 87.0.4280.141,,,2021-01-22 23:52:13,2021-01-22 23:52:13,0.704s,PASSED
Userlogin = OtosalesLogin,Chrome 87.0.4280.141,,,2021-01-22 23:52:13,2021-01-22 23:52:13,0.001s,PASSED
"Approve = ""SELECT TOP 1* FROM mst_order_mobile_approval where Order_no = '"" + OtosalesOrderNo + ""' and ApprovalStatus = '0' order by ApprovalType ASC""",Chrome 87.0.4280.141,,,2021-01-22 23:52:13,2021-01-22 23:52:13,0.002s,PASSED
"approvalType = UI.getValueDatabase(""172.16.94.74"", ""AAB"", Approve, ""ApprovalType"")",Chrome 87.0.4280.141,,,2021-01-22 23:52:13,2021-01-22 23:52:14,0.534s,PASSED
"while (approvalType != ""null"")",Chrome 87.0.4280.141,,,2021-01-22 23:52:14,2021-01-22 23:53:45,1m - 30.849s,FAILED
