Suite/Test/Step Name,Browser,Description,Tag,Start time,End time,Duration,Status
MGO-AGENCY-Muncul Link Payment-CCFP,Chrome 90.0.4430.72,,,2021-04-22 22:30:01,2021-04-22 22:51:09,21m - 8.335s,INCOMPLETE
,,,,,,,
"Test Cases/SCENARIO/OTOSALES/Collaboration/NEW ORDER/LINK PAYMENT/MGO-AGENCY-Muncul Link Payment-CCFP/ORD-IP-NONGODIG GO,COMP,M200,FULLCVR,PER,NOAPPADJ",Chrome 90.0.4430.72,,,2021-04-22 22:30:03,2021-04-22 22:39:58,9m - 54.508s,PASSED
"callTestCase(findTestCase(""SCENARIO/OTOSALES/LOGIN/Login MGO""), [:], STOP_ON_FAILURE)",Chrome 90.0.4430.72,,,2021-04-22 22:30:06,2021-04-22 22:31:03,57.405s,PASSED
"callTestCase(findTestCase(""PAGE/OTOSALES/LOGIN/Side Menu-Switch""), [""menu"":""Input Prospect""], STOP_ON_FAILURE)",Chrome 90.0.4430.72,,,2021-04-22 22:31:03,2021-04-22 22:31:15,11.788s,PASSED
"callTestCase(findTestCase(""PAGE/OTOSALES/NEW/INPUT PROSPECT/1.Prospect Info""), [""MV"":""MV NON GODIG"", ""isCompany"":false, ""prospectName"":""Automate Customer Non Godig"", ""phone1"":""082127670262"", ""phone2"":""081290154328"", ... ], STOP_ON_FAILURE)",Chrome 90.0.4430.72,,,2021-04-22 22:31:15,2021-04-22 22:33:05,1m - 49.346s,PASSED
"callTestCase(findTestCase(""PAGE/OTOSALES/NEW/INPUT PROSPECT/2.Vehicle Info""), [""VehicleName"":""XPANDER 2018 ULTIMATE"", ""Usage"":""PRIBADI"", ""Region"":""Wilayah 2""], STOP_ON_FAILURE)",Chrome 90.0.4430.72,,,2021-04-22 22:33:05,2021-04-22 22:33:36,31.237s,PASSED
"callTestCase(findTestCase(""PAGE/OTOSALES/NEW/INPUT PROSPECT/3.Cover""), [""ProductType"":""Garda Oto"", ""MV"":OrderType, ""ProductCode"":""GAU52"", ""Coverage"":""Comprehensive 1 Year"", ""TJH"":""25,000,000"", ""Terrorism"":true, ... ], STOP_ON_FAILURE)",Chrome 90.0.4430.72,,,2021-04-22 22:33:36,2021-04-22 22:34:52,1m - 16.008s,PASSED
"callTestCase(findTestCase(""PAGE/OTOSALES/LOGIN/Side Menu-Switch""), [""menu"":""Task List""], STOP_ON_FAILURE)",Chrome 90.0.4430.72,,,2021-04-22 22:34:52,2021-04-22 22:34:57,4.859s,PASSED
"callTestCase(findTestCase(""PAGE/OTOSALES/NEW/TASKLIST/1.Home""), [""Chassis"":ChassisNo, ""CustName"":ProspectName], STOP_ON_FAILURE)",Chrome 90.0.4430.72,,,2021-04-22 22:34:57,2021-04-22 22:35:35,37.898s,PASSED
"callTestCase(findTestCase(""PAGE/OTOSALES/NEW/TASKLIST/2.Tasklist""), [""birthDate"":""15/10/1989"", ""NomorNPWP"":""371829374123"", ""JenisKelamin"":""Laki-Laki"", ""Alamat"":""Jalan Pelan - Pelan"", ""KodePos"":""55141"", ... ], STOP_ON_FAILURE)",Chrome 90.0.4430.72,,,2021-04-22 22:35:35,2021-04-22 22:37:58,2m - 23.119s,PASSED
"callTestCase(findTestCase(""PAGE/OTOSALES/NEW/TASKLIST/3.FollowUp""), [""Reason"":""Send to SA"", ""Notes"":""Contacted"", ""Receiver"":""Sir Cok Kotelawala"", ""Remarks"":""Created by Katalon Studio"", ""ProspectName"":ProspectName], STOP_ON_FAILURE)",Chrome 90.0.4430.72,,,2021-04-22 22:37:58,2021-04-22 22:39:58,2m - 0.103s,PASSED
,,,,,,,
Test Cases/SCENARIO/GEN5/TASKLIST SA/Tasklist,Chrome 90.0.4430.72,,,2021-04-22 22:39:58,2021-04-22 22:45:55,5m - 57.090s,PASSED
"callTestCase(findTestCase(""PAGE/GEN5/LOGIN/Login""), [""username"":""DOC"", ""password"":""ITG@nt1P455QC"", ""isSyariah"":false], STOP_ON_FAILURE)",Chrome 90.0.4430.72,,,2021-04-22 22:39:59,2021-04-22 22:40:21,22.948s,PASSED
"callTestCase(findTestCase(""PAGE/GEN5/HOME/Side Menu""), [""SideMenu"":""Task List SA""], STOP_ON_FAILURE)",Chrome 90.0.4430.72,,,2021-04-22 22:40:21,2021-04-22 22:40:47,25.191s,PASSED
"callTestCase(findTestCase(""PAGE/GEN5/TASKLIST SA/Dashboard""), [""SearchBy"":""Order No"", ""Parameter"":OtosalesOrderNo], STOP_ON_FAILURE)",Chrome 90.0.4430.72,,,2021-04-22 22:40:47,2021-04-22 22:41:40,52.852s,PASSED
"callTestCase(findTestCase(""PAGE/GEN5/TASKLIST SA/Tasklist SA""), [""changePolicyHolder"":false, ""SearchParam"":""Name"", ""PolicyHolderName"":""Sir Cok Kotelawala"", ""NameOnPolicy"":""Default"", ""EmailDelivery"":""Customer"", ... ], STOP_ON_FAILURE)",Chrome 90.0.4430.72,,,2021-04-22 22:41:40,2021-04-22 22:45:55,4m - 15.449s,PASSED
,,,,,,,
Test Cases/SCENARIO/OTOSALES/APPROVAL/Approval MGO,Chrome 90.0.4430.72,,,2021-04-22 22:45:55,2021-04-22 22:48:18,2m - 22.965s,PASSED
"QuerySalesOfficer = ""SELECT TOP 1* FROM dbo.SalesOfficer WHERE email = '"" + OtosalesLogin + ""'""",Chrome 90.0.4430.72,,,2021-04-22 22:45:56,2021-04-22 22:45:56,0.003s,PASSED
"UserID = UI.getValueDatabase(""172.16.94.48"", ""AABMobile"", QuerySalesOfficer, ""SalesOfficerID"")",Chrome 90.0.4430.72,,,2021-04-22 22:45:56,2021-04-22 22:45:57,0.509s,PASSED
"QueryAABHead = ""SELECT TOP 1* FROM dbo.AABHead WHERE param = '"" + UserID + ""' and RowStatus = '1' and Value = 'SRW'""",Chrome 90.0.4430.72,,,2021-04-22 22:45:57,2021-04-22 22:45:57,0.002s,PASSED
"Login = UI.getValueDatabase(""172.16.94.48"", ""AABMobile"", QueryAABHead, ""Value"")",Chrome 90.0.4430.72,,,2021-04-22 22:45:57,2021-04-22 22:45:57,0.322s,PASSED
"Approve = ""SELECT TOP 1* FROM mst_order_mobile_approval where Order_no = '"" + OtosalesOrderNo + ""' and ApprovalStatus = '0' order by ApprovalType ASC""",Chrome 90.0.4430.72,,,2021-04-22 22:45:57,2021-04-22 22:45:57,0.002s,PASSED
"approvalType = UI.getValueDatabase(""172.16.94.74"", ""AAB"", Approve, ""ApprovalType"")",Chrome 90.0.4430.72,,,2021-04-22 22:45:57,2021-04-22 22:45:57,0.120s,PASSED
"QueryMstOrder = ""SELECT * FROM mst_order WHERE Order_No = '"" + OtosalesOrderNo + ""'""",Chrome 90.0.4430.72,,,2021-04-22 22:45:57,2021-04-22 22:45:57,0.002s,PASSED
"OrdStatus = UI.getValueDatabase(""172.16.94.74"", ""AAB"", QueryMstOrder, ""Order_Status"")",Chrome 90.0.4430.72,,,2021-04-22 22:45:57,2021-04-22 22:45:57,0.132s,PASSED
"OrderNo = ""SELECT * FROM dbo.OrderSimulation WHERE PolicyOrderno = '"" + OtosalesOrderNo + ""'""",Chrome 90.0.4430.72,,,2021-04-22 22:45:57,2021-04-22 22:45:57,0.001s,PASSED
"OrderNoLong = UI.getValueDatabase(""172.16.94.48"", ""AABMOBILE"", OrderNo, ""OrderNo"")",Chrome 90.0.4430.72,,,2021-04-22 22:45:57,2021-04-22 22:45:58,0.415s,PASSED
"ApproveLP = ""SELECT * FROM dbo.OrderSimulationApproval where OrderNo = '"" + OrderNoLong + ""' and RowStatus = '1' and ApprovalStatus = '0'""",Chrome 90.0.4430.72,,,2021-04-22 22:45:58,2021-04-22 22:45:58,0.001s,PASSED
"approvalTypeLP = UI.getValueDatabase(""172.16.94.48"", ""AABMOBILE"", ApproveLP, ""ApprovalStatus"")",Chrome 90.0.4430.72,,,2021-04-22 22:45:58,2021-04-22 22:45:58,0.420s,PASSED
"while (approvalType != ""null"" && OrdStatus != ""9"")",Chrome 90.0.4430.72,,,2021-04-22 22:45:58,2021-04-22 22:48:04,2m - 5.611s,PASSED
println(approvalTypeLP),Chrome 90.0.4430.72,,,2021-04-22 22:48:04,2021-04-22 22:48:04,0.002s,PASSED
"if (approvalTypeLP == ""0"")",Chrome 90.0.4430.72,,,2021-04-22 22:48:04,2021-04-22 22:48:04,0.000s,PASSED
delay(2),Chrome 90.0.4430.72,,,2021-04-22 22:48:04,2021-04-22 22:48:06,2.007s,PASSED
delay(2),Chrome 90.0.4430.72,,,2021-04-22 22:48:06,2021-04-22 22:48:08,2.006s,PASSED
delay(2),Chrome 90.0.4430.72,,,2021-04-22 22:48:08,2021-04-22 22:48:10,2.005s,PASSED
delay(2),Chrome 90.0.4430.72,,,2021-04-22 22:48:10,2021-04-22 22:48:12,1.999s,PASSED
"QueryOrderStatus = ""select * from mst_order WHERE Order_No = '"" + OtosalesOrderNo + ""'""",Chrome 90.0.4430.72,,,2021-04-22 22:48:12,2021-04-22 22:48:12,0.002s,PASSED
"OrderStatus = UI.getValueDatabase(""172.16.94.74"", ""AAB"", QueryOrderStatus, ""Order_Status"")",Chrome 90.0.4430.72,,,2021-04-22 22:48:12,2021-04-22 22:48:12,0.140s,PASSED
"QueryAABMobile = ""SELECT FollowUpInfo,* FROM followUp WHERE FollowUpNo = (SELECT followUpNo FROM OrderSimulation WHERE PolicyOrderNo = '"" + OtosalesOrderNo + ""')""",Chrome 90.0.4430.72,,,2021-04-22 22:48:12,2021-04-22 22:48:12,0.002s,PASSED
"description = UI.getValueDatabase(""172.16.94.48"", ""AABMobile"", QueryAABMobile, ""FollowUpInfo"")",Chrome 90.0.4430.72,,,2021-04-22 22:48:12,2021-04-22 22:48:12,0.510s,PASSED
"while (description != ""50"")",Chrome 90.0.4430.72,,,2021-04-22 22:48:12,2021-04-22 22:48:16,3.495s,PASSED
println(description),Chrome 90.0.4430.72,,,2021-04-22 22:48:16,2021-04-22 22:48:16,0.001s,PASSED
closeBrowser(),Chrome 90.0.4430.72,,,2021-04-22 22:48:16,2021-04-22 22:48:18,2.160s,PASSED
,,,,,,,
"Test Cases/SCENARIO/OTOSALES/Collaboration/NEW ORDER/LINK PAYMENT/MGO-AGENCY-Muncul Link Payment-CCFP/POL-IP-NONGODIG GO,COMP,M200,FULLCVR,PER,NOAPPADJ",Chrome 90.0.4430.72,,,2021-04-22 22:48:18,2021-04-22 22:51:09,2m - 51.329s,FAILED
"callTestCase(findTestCase(""SCENARIO/OTOSALES/LOGIN/Login MGO""), [:], STOP_ON_FAILURE)",Chrome 90.0.4430.72,,,2021-04-22 22:48:19,2021-04-22 22:48:46,27.619s,PASSED
"callTestCase(findTestCase(""PAGE/OTOSALES/LOGIN/Side Menu-Switch""), [""menu"":""Task List""], STOP_ON_FAILURE)",Chrome 90.0.4430.72,,,2021-04-22 22:48:46,2021-04-22 22:48:54,7.829s,PASSED
"callTestCase(findTestCase(""PAGE/OTOSALES/NEW/TASKLIST/1.Home""), [""Chassis"":ChassisNo, ""CustName"":ProspectName], STOP_ON_FAILURE)",Chrome 90.0.4430.72,,,2021-04-22 22:48:54,2021-04-22 22:49:40,46.230s,PASSED
"callTestCase(findTestCase(""PAGE/OTOSALES/NEW/TASKLIST/2.Tasklist""), [""birthDate"":""15/10/1989"", ""NomorNPWP"":""371829374123"", ""JenisKelamin"":""Laki-Laki"", ""Alamat"":""Jalan Pelan - Pelan"", ""KodePos"":""55141"", ... ], STOP_ON_FAILURE)",Chrome 90.0.4430.72,,,2021-04-22 22:49:40,2021-04-22 22:51:09,1m - 29.049s,FAILED
