Suite/Test/Step Name,Browser,Description,Tag,Start time,End time,Duration,Status
"INPROSPECT-NONGODIG SYARIAH,COMP,M200,FULLCVR,PERSONAL - TELERENEWAL",Chrome 91.0.4472.77,,,2021-06-14 08:58:43,2021-06-14 09:04:38,5m - 54.705s,INCOMPLETE
,,,,,,,
"Test Cases/SCENARIO/OTOSALES/Collaboration/NEW ORDER/MVNONGODIG/SINGLE YEAR/Create Polis/INPROSPECT-NONGODIG SYARIAH,COMP,M200,FULLCVR,PERSONAL - TELERENEWAL",Chrome 91.0.4472.77,,,2021-06-14 08:58:46,2021-06-14 09:00:47,2m - 1.064s,ERROR
"callTestCase(findTestCase(""SCENARIO/OTOSALES/LOGIN/Login Telerenewal""), [:], STOP_ON_FAILURE)",Chrome 91.0.4472.77,,,2021-06-14 08:58:49,2021-06-14 09:00:01,1m - 12.243s,PASSED
"callTestCase(findTestCase(""PAGE/OTOSALES/LOGIN/Side Menu-Switch""), [""menu"":""Input Prospect""], STOP_ON_FAILURE)",Chrome 91.0.4472.77,,,2021-06-14 09:00:01,2021-06-14 09:00:21,19.123s,PASSED
"callTestCase(findTestCase(""PAGE/OTOSALES/NEW/INPUT PROSPECT/1.Prospect Info""), [""MV"":""MV NON GODIG"", ""isCompany"":false, ""prospectName"":""Test Otosales TELE PER Syariah HRM"", ""phone1"":""082127670262"", ""phone2"":""081290154328"", ... ], STOP_ON_FAILURE)",Chrome 91.0.4472.77,,,2021-06-14 09:00:21,2021-06-14 09:00:47,26.014s,FAILED
,,,,,,,
Test Cases/SCENARIO/GEN5/TASKLIST SA/Tasklist Syariah,Chrome 91.0.4472.77,,,2021-06-14 09:00:47,2021-06-14 09:04:19,3m - 32.117s,FAILED
"callTestCase(findTestCase(""PAGE/GEN5/LOGIN/Login""), [""username"":""DOC"", ""password"":""ITG@nt1P455QC"", ""isSyariah"":true], STOP_ON_FAILURE)",Chrome 91.0.4472.77,,,2021-06-14 09:00:49,2021-06-14 09:01:58,1m - 9.019s,PASSED
"callTestCase(findTestCase(""PAGE/GEN5/HOME/Side Menu""), [""SideMenu"":""Task List SA""], STOP_ON_FAILURE)",Chrome 91.0.4472.77,,,2021-06-14 09:01:58,2021-06-14 09:02:52,53.538s,PASSED
"callTestCase(findTestCase(""PAGE/GEN5/TASKLIST SA/Dashboard""), [""SearchBy"":""Order No"", ""Parameter"":OtosalesOrderNo], STOP_ON_FAILURE)",Chrome 91.0.4472.77,,,2021-06-14 09:02:52,2021-06-14 09:04:04,1m - 12.480s,PASSED
"callTestCase(findTestCase(""PAGE/GEN5/TASKLIST SA/Tasklist SA""), [""changePolicyHolder"":false, ""SearchParam"":""Name"", ""PolicyHolderName"":""Sir Cok Kotelawala"", ""NameOnPolicy"":""Default"", ""EmailDelivery"":""Customer"", ... ], STOP_ON_FAILURE)",Chrome 91.0.4472.77,,,2021-06-14 09:04:04,2021-06-14 09:04:19,14.548s,FAILED
,,,,,,,
Test Cases/SCENARIO/OTOSALES/APPROVAL/Approval TELE,Chrome 91.0.4472.77,,,2021-06-14 09:04:19,2021-06-14 09:04:38,18.910s,ERROR
"QueryAABHead = ""SELECT TOP 1* FROM dbo.AABHead WHERE param = 'NIP'""",Chrome 91.0.4472.77,,,2021-06-14 09:04:21,2021-06-14 09:04:21,0.004s,PASSED
"Login = UI.getValueDatabase(""172.16.94.48"", ""AABMobile"", QueryAABHead, ""Value"")",Chrome 91.0.4472.77,,,2021-06-14 09:04:21,2021-06-14 09:04:38,16.581s,PASSED
