Suite/Test/Step Name,Browser,Description,Tag,Start time,End time,Duration,Status
"INPROSPECT-NONGODIG LEXUS,COMP,M200,FULLCVR,COMPANY - AO - UMA",Chrome 89.0.4389.114,,,2021-04-13 21:19:13,2021-04-13 21:38:19,19m - 5.618s,INCOMPLETE
,,,,,,,
"Test Cases/SCENARIO/OTOSALES/Collaboration/NEW ORDER/MVNONGODIG/SINGLE YEAR/Create Polis/INPROSPECT-NONGODIG LEXUS,COMP,M200,FULLCVR,COMPANY - AO - UMA",Chrome 89.0.4389.114,,,2021-04-13 21:19:17,2021-04-13 21:23:41,4m - 24.091s,FAILED
"callTestCase(findTestCase(""SCENARIO/OTOSALES/LOGIN/Login AO""), [:], STOP_ON_FAILURE)",Chrome 89.0.4389.114,,,2021-04-13 21:19:24,2021-04-13 21:20:46,1m - 21.915s,PASSED
"callTestCase(findTestCase(""PAGE/OTOSALES/LOGIN/Side Menu-Switch""), [""menu"":""Input Prospect""], STOP_ON_FAILURE)",Chrome 89.0.4389.114,,,2021-04-13 21:20:46,2021-04-13 21:20:58,12.368s,PASSED
"callTestCase(findTestCase(""PAGE/OTOSALES/NEW/INPUT PROSPECT/1.Prospect Info""), [""MV"":""MV NON GODIG"", ""isCompany"":true, ""prospectName"":""Test Otosales AO Lexus HRM"", ""phone1"":""082127670262"", ""phone2"":""081290154328"", ... ], STOP_ON_FAILURE)",Chrome 89.0.4389.114,,,2021-04-13 21:20:58,2021-04-13 21:21:48,50.314s,PASSED
"callTestCase(findTestCase(""PAGE/OTOSALES/NEW/INPUT PROSPECT/2.Vehicle Info""), [""VehicleName"":""Lexus NX 2018 300 Luxury 4x2 A/T"", ""Usage"":""PRIBADI"", ""Region"":""Wilayah 2""], STOP_ON_FAILURE)",Chrome 89.0.4389.114,,,2021-04-13 21:21:48,2021-04-13 21:22:25,37.123s,PASSED
"callTestCase(findTestCase(""PAGE/OTOSALES/NEW/INPUT PROSPECT/3.Cover""), [""ProductType"":""Lexus Insurance"", ""ProductCode"":""LDN61"", ""Coverage"":""Comprehensive 1 Year"", ""TJH"":""25,000,000"", ""Terrorism"":true, ... ], STOP_ON_FAILURE)",Chrome 89.0.4389.114,,,2021-04-13 21:22:25,2021-04-13 21:23:34,1m - 8.139s,PASSED
"callTestCase(findTestCase(""PAGE/OTOSALES/LOGIN/Side Menu-Switch""), [""menu"":""Task List""], STOP_ON_FAILURE)",Chrome 89.0.4389.114,,,2021-04-13 21:23:34,2021-04-13 21:23:41,7.663s,FAILED
,,,,,,,
Test Cases/SCENARIO/GEN5/TASKLIST SA/Tasklist,Chrome 89.0.4389.114,,,2021-04-13 21:23:41,2021-04-13 21:25:42,2m - 0.876s,FAILED
"callTestCase(findTestCase(""PAGE/GEN5/LOGIN/Login""), [""username"":""DOC"", ""password"":""ITG@nt1P455QC"", ""isSyariah"":false], STOP_ON_FAILURE)",Chrome 89.0.4389.114,,,2021-04-13 21:23:42,2021-04-13 21:24:18,35.522s,PASSED
"callTestCase(findTestCase(""PAGE/GEN5/HOME/Side Menu""), [""SideMenu"":""Task List SA""], STOP_ON_FAILURE)",Chrome 89.0.4389.114,,,2021-04-13 21:24:18,2021-04-13 21:24:42,24.397s,PASSED
"callTestCase(findTestCase(""PAGE/GEN5/TASKLIST SA/Dashboard""), [""SearchBy"":""Order No"", ""Parameter"":OtosalesOrderNo], STOP_ON_FAILURE)",Chrome 89.0.4389.114,,,2021-04-13 21:24:42,2021-04-13 21:25:30,47.707s,PASSED
"callTestCase(findTestCase(""PAGE/GEN5/TASKLIST SA/Tasklist SA""), [""changePolicyHolder"":false, ""SearchParam"":""Name"", ""PolicyHolderName"":""Sir Cok Kotelawala"", ""NameOnPolicy"":""Default"", ""EmailDelivery"":""Customer"", ... ], STOP_ON_FAILURE)",Chrome 89.0.4389.114,,,2021-04-13 21:25:30,2021-04-13 21:25:42,12.080s,FAILED
,,,,,,,
Test Cases/SCENARIO/OTOSALES/APPROVAL/Approval AO,Chrome 89.0.4389.114,,,2021-04-13 21:25:42,2021-04-13 21:38:19,12m - 36.785s,ERROR
"QuerySalesOfficer = ""SELECT TOP 1* FROM dbo.SalesOfficer WHERE SalesOfficerID = '"" + OtosalesLogin + ""'""",Chrome 89.0.4389.114,,,2021-04-13 21:25:43,2021-04-13 21:25:43,0.010s,PASSED
"BranchCode = UI.getValueDatabase(""172.16.94.48"", ""AABMobile"", QuerySalesOfficer, ""BranchCode"")",Chrome 89.0.4389.114,,,2021-04-13 21:25:43,2021-04-13 21:25:44,0.478s,PASSED
"QueryAABHead = ""SELECT TOP 1* FROM dbo.AABHead WHERE param = '"" + BranchCode + ""' and RowStatus = '1'""",Chrome 89.0.4389.114,,,2021-04-13 21:25:44,2021-04-13 21:25:44,0.003s,PASSED
"Login = UI.getValueDatabase(""172.16.94.48"", ""AABMobile"", QueryAABHead, ""Value"")",Chrome 89.0.4389.114,,,2021-04-13 21:25:44,2021-04-13 21:25:44,0.166s,PASSED
Userlogin = OtosalesLogin,Chrome 89.0.4389.114,,,2021-04-13 21:25:44,2021-04-13 21:25:44,0.003s,PASSED
"Approve = ""SELECT TOP 1* FROM mst_order_mobile_approval where Order_no = '"" + OtosalesOrderNo + ""' and ApprovalStatus = '0' order by ApprovalType ASC""",Chrome 89.0.4389.114,,,2021-04-13 21:25:44,2021-04-13 21:25:44,0.003s,PASSED
"approvalType = UI.getValueDatabase(""172.16.94.74"", ""AAB"", Approve, ""ApprovalType"")",Chrome 89.0.4389.114,,,2021-04-13 21:25:44,2021-04-13 21:25:44,0.167s,PASSED
println(approvalType),Chrome 89.0.4389.114,,,2021-04-13 21:25:44,2021-04-13 21:25:44,0.003s,PASSED
"while (approvalType != ""null"")",Chrome 89.0.4389.114,,,2021-04-13 21:25:44,2021-04-13 21:25:44,0.002s,PASSED
"QueryOrderStatus = ""select * from mst_order WHERE Order_No = '"" + OtosalesOrderNo + ""'""",Chrome 89.0.4389.114,,,2021-04-13 21:25:44,2021-04-13 21:25:44,0.002s,PASSED
"OrderStatus = UI.getValueDatabase(""172.16.94.74"", ""AAB"", QueryOrderStatus, ""Order_Status"")",Chrome 89.0.4389.114,,,2021-04-13 21:25:44,2021-04-13 21:25:44,0.191s,PASSED
"while (OrderStatus != ""9"")",Chrome 89.0.4389.114,,,2021-04-13 21:25:44,2021-04-13 21:38:19,12m - 34.424s,PASSED
