Suite/Test/Step Name,Browser,Description,Tag,Start time,End time,Duration,Status
"INPROSPECT-NONGODIG GO,COMP,M200,FULLCVR,PERSONAL - AO - UMA -Edit",Chrome 91.0.4472.114,,,2021-06-27 14:51:49,2021-06-27 15:02:26,10m - 37.239s,INCOMPLETE
,,,,,,,
"Test Cases/SCENARIO/OTOSALES/Collaboration/NEW ORDER/MVNONGODIG/SINGLE YEAR/Create Polis/INPROSPECT-NONGODIG GO,COMP,M200,FULLCVR,PERSONAL - AO - UMA -Edit",Chrome 91.0.4472.114,,,2021-06-27 14:51:51,2021-06-27 14:59:09,7m - 18.798s,FAILED
"callTestCase(findTestCase(""SCENARIO/OTOSALES/LOGIN/Login AO""), [:], STOP_ON_FAILURE)",Chrome 91.0.4472.114,,,2021-06-27 14:51:52,2021-06-27 14:52:43,50.646s,PASSED
"callTestCase(findTestCase(""PAGE/OTOSALES/LOGIN/Side Menu-Switch""), [""menu"":""Input Prospect""], STOP_ON_FAILURE)",Chrome 91.0.4472.114,,,2021-06-27 14:52:43,2021-06-27 14:52:51,8.193s,PASSED
"callTestCase(findTestCase(""PAGE/OTOSALES/NEW/INPUT PROSPECT/1.Prospect Info""), [""MV"":""MV NON GODIG"", ""isCompany"":false, ""prospectName"":""Test Otosales AO CD COM SPRINT 23 HRM"", ""phone1"":""082127670262"", ""phone2"":""081290154328"", ... ], STOP_ON_FAILURE)",Chrome 91.0.4472.114,,,2021-06-27 14:52:51,2021-06-27 14:54:39,1m - 48.256s,PASSED
"callTestCase(findTestCase(""PAGE/OTOSALES/NEW/INPUT PROSPECT/2.Vehicle Info""), [""VehicleName"":""SUZUKI CARRY 2008 PICK UP 1.0 BOX"", ""Usage"":""KOMERSIAL"", ""Region"":""Wilayah 2""], STOP_ON_FAILURE)",Chrome 91.0.4472.114,,,2021-06-27 14:54:39,2021-06-27 14:55:12,32.652s,PASSED
"callTestCase(findTestCase(""PAGE/OTOSALES/NEW/INPUT PROSPECT/3.Cover""), [""ProductType"":""Garda Oto"", ""MV"":OrderType, ""ProductCode"":""GDU52"", ""Coverage"":""TLO 1 Year"", ""TJH"":""25,000,000"", ""Terrorism"":true, ... ], STOP_ON_FAILURE)",Chrome 91.0.4472.114,,,2021-06-27 14:55:12,2021-06-27 14:59:09,3m - 57.207s,FAILED
,,,,,,,
Test Cases/SCENARIO/GEN5/TASKLIST SA/Tasklist,Chrome 91.0.4472.114,,,2021-06-27 14:59:09,2021-06-27 15:02:06,2m - 56.369s,FAILED
file = new java.io.File((com.kms.katalon.core.configuration.RunConfiguration.getProjectDir() + /Data Files/parameterLinkOtosales.txt)),Chrome 91.0.4472.114,,,2021-06-27 14:59:11,2021-06-27 14:59:11,0.004s,PASSED
text = FileUtils.readFileToString(file),Chrome 91.0.4472.114,,,2021-06-27 14:59:11,2021-06-27 14:59:11,0.007s,PASSED
switch (text),Chrome 91.0.4472.114,,,2021-06-27 14:59:11,2021-06-27 14:59:35,23.841s,PASSED
"callTestCase(findTestCase(""PAGE/GEN5/HOME/Side Menu""), [""SideMenu"":""Task List SA""], STOP_ON_FAILURE)",Chrome 91.0.4472.114,,,2021-06-27 14:59:35,2021-06-27 14:59:55,20.097s,PASSED
"callTestCase(findTestCase(""PAGE/GEN5/TASKLIST SA/Dashboard""), [""SearchBy"":""Order No"", ""Parameter"":OtosalesOrderNo], STOP_ON_FAILURE)",Chrome 91.0.4472.114,,,2021-06-27 14:59:55,2021-06-27 15:00:56,1m - 0.599s,PASSED
"callTestCase(findTestCase(""PAGE/GEN5/TASKLIST SA/Tasklist SA""), [""changePolicyHolder"":false, ""SearchParam"":""Name"", ""PolicyHolderName"":""Sir Cok Kotelawala"", ""NameOnPolicy"":""Default"", ""EmailDelivery"":""Customer"", ... ], STOP_ON_FAILURE)",Chrome 91.0.4472.114,,,2021-06-27 15:00:56,2021-06-27 15:02:06,1m - 10.153s,FAILED
,,,,,,,
Test Cases/SCENARIO/OTOSALES/APPROVAL/Approval AO,Chrome 91.0.4472.114,,,2021-06-27 15:02:06,2021-06-27 15:02:26,20.766s,PASSED
"QuerySalesOfficer = ""SELECT TOP 1* FROM dbo.SalesOfficer WHERE SalesOfficerID = '"" + OtosalesLogin + ""'""",Chrome 91.0.4472.114,,,2021-06-27 15:02:07,2021-06-27 15:02:07,0.003s,PASSED
"BranchCode = UI.getValueDatabase(""172.16.94.48"", ""AABMobile"", QuerySalesOfficer, ""BranchCode"")",Chrome 91.0.4472.114,,,2021-06-27 15:02:07,2021-06-27 15:02:08,1.406s,PASSED
"QueryAABHead = ""SELECT TOP 1* FROM dbo.AABHead WHERE param = '"" + BranchCode + ""' and RowStatus = '1'""",Chrome 91.0.4472.114,,,2021-06-27 15:02:08,2021-06-27 15:02:08,0.002s,PASSED
"Login = UI.getValueDatabase(""172.16.94.48"", ""AABMobile"", QueryAABHead, ""Value"")",Chrome 91.0.4472.114,,,2021-06-27 15:02:08,2021-06-27 15:02:11,3.321s,PASSED
Userlogin = OtosalesLogin,Chrome 91.0.4472.114,,,2021-06-27 15:02:11,2021-06-27 15:02:11,0.001s,PASSED
"Approve = ""SELECT TOP 1* FROM mst_order_mobile_approval where Order_no = '"" + OtosalesOrderNo + ""' and ApprovalStatus = '0' order by ApprovalType ASC""",Chrome 91.0.4472.114,,,2021-06-27 15:02:11,2021-06-27 15:02:11,0.002s,PASSED
"approvalType = UI.getValueDatabase(""172.16.94.74"", ""AAB"", Approve, ""ApprovalType"")",Chrome 91.0.4472.114,,,2021-06-27 15:02:11,2021-06-27 15:02:13,1.119s,PASSED
println(approvalType),Chrome 91.0.4472.114,,,2021-06-27 15:02:13,2021-06-27 15:02:13,0.002s,PASSED
"QueryMstOrder = ""SELECT * FROM mst_order WHERE Order_No = '"" + OtosalesOrderNo + ""'""",Chrome 91.0.4472.114,,,2021-06-27 15:02:13,2021-06-27 15:02:13,0.001s,PASSED
"OrdStatus = UI.getValueDatabase(""172.16.94.74"", ""AAB"", QueryMstOrder, ""Order_Status"")",Chrome 91.0.4472.114,,,2021-06-27 15:02:13,2021-06-27 15:02:13,0.851s,PASSED
"OrderNo = ""SELECT * FROM dbo.OrderSimulation WHERE PolicyOrderno = '"" + OtosalesOrderNo + ""'""",Chrome 91.0.4472.114,,,2021-06-27 15:02:13,2021-06-27 15:02:13,0.002s,PASSED
"OrderNoLong = UI.getValueDatabase(""172.16.94.48"", ""AABMOBILE"", OrderNo, ""OrderNo"")",Chrome 91.0.4472.114,,,2021-06-27 15:02:13,2021-06-27 15:02:15,1.791s,PASSED
"ApproveLP = ""SELECT * FROM dbo.OrderSimulationApproval where OrderNo = '"" + OrderNoLong + ""' and RowStatus = '1' and ApprovalStatus = '0'""",Chrome 91.0.4472.114,,,2021-06-27 15:02:15,2021-06-27 15:02:15,0.001s,PASSED
"approvalTypeLP = UI.getValueDatabase(""172.16.94.48"", ""AABMOBILE"", ApproveLP, ""ApprovalStatus"")",Chrome 91.0.4472.114,,,2021-06-27 15:02:15,2021-06-27 15:02:16,0.526s,PASSED
"while (approvalType != ""null"" && OrdStatus != ""9"")",Chrome 91.0.4472.114,,,2021-06-27 15:02:16,2021-06-27 15:02:16,0.001s,PASSED
println(approvalTypeLP),Chrome 91.0.4472.114,,,2021-06-27 15:02:16,2021-06-27 15:02:16,0.001s,PASSED
"if (approvalTypeLP == ""0"")",Chrome 91.0.4472.114,,,2021-06-27 15:02:16,2021-06-27 15:02:16,0.001s,PASSED
delay(2),Chrome 91.0.4472.114,,,2021-06-27 15:02:16,2021-06-27 15:02:18,2.008s,PASSED
delay(2),Chrome 91.0.4472.114,,,2021-06-27 15:02:18,2021-06-27 15:02:20,2.008s,PASSED
delay(2),Chrome 91.0.4472.114,,,2021-06-27 15:02:20,2021-06-27 15:02:22,2.007s,PASSED
delay(2),Chrome 91.0.4472.114,,,2021-06-27 15:02:22,2021-06-27 15:02:24,2.008s,PASSED
"QueryOrderStatus = ""select * from mst_order WHERE Order_No = '"" + OtosalesOrderNo + ""'""",Chrome 91.0.4472.114,,,2021-06-27 15:02:24,2021-06-27 15:02:24,0.002s,PASSED
"OrderStatus = UI.getValueDatabase(""172.16.94.74"", ""AAB"", QueryOrderStatus, ""Order_Status"")",Chrome 91.0.4472.114,,,2021-06-27 15:02:24,2021-06-27 15:02:24,0.368s,PASSED
"QueryAABMobile = ""SELECT FollowUpInfo,* FROM followUp WHERE FollowUpNo = (SELECT followUpNo FROM OrderSimulation WHERE PolicyOrderNo = '"" + OtosalesOrderNo + ""')""",Chrome 91.0.4472.114,,,2021-06-27 15:02:24,2021-06-27 15:02:24,0.002s,PASSED
"description = UI.getValueDatabase(""172.16.94.48"", ""AABMobile"", QueryAABMobile, ""FollowUpInfo"")",Chrome 91.0.4472.114,,,2021-06-27 15:02:24,2021-06-27 15:02:25,0.725s,PASSED
"while (description != ""50"")",Chrome 91.0.4472.114,,,2021-06-27 15:02:25,2021-06-27 15:02:25,0.002s,PASSED
println(description),Chrome 91.0.4472.114,,,2021-06-27 15:02:25,2021-06-27 15:02:25,0.002s,PASSED
closeBrowser(),Chrome 91.0.4472.114,,,2021-06-27 15:02:25,2021-06-27 15:02:26,1.573s,PASSED
