Suite/Test/Step Name,Browser,Description,Tag,Start time,End time,Duration,Status
"INPROSPECT-NONGODIG GO,COMP,M200,FULLCVR,COMPANY - TELERENEWAL",Chrome 91.0.4472.77,,,2021-06-09 08:10:20,2021-06-09 08:28:04,17m - 43.547s,INCOMPLETE
,,,,,,,
"Test Cases/SCENARIO/OTOSALES/Collaboration/NEW ORDER/MVNONGODIG/SINGLE YEAR/Create Polis/INPROSPECT-NONGODIG GO,COMP,M200,FULLCVR,COMPANY - TELERENEWAL",Chrome 91.0.4472.77,,,2021-06-09 08:10:22,2021-06-09 08:15:53,5m - 31.372s,FAILED
"callTestCase(findTestCase(""SCENARIO/OTOSALES/LOGIN/Login Telerenewal""), [:], STOP_ON_FAILURE)",Chrome 91.0.4472.77,,,2021-06-09 08:10:24,2021-06-09 08:12:12,1m - 47.877s,PASSED
"callTestCase(findTestCase(""PAGE/OTOSALES/LOGIN/Side Menu-Switch""), [""menu"":""Input Prospect""], STOP_ON_FAILURE)",Chrome 91.0.4472.77,,,2021-06-09 08:12:12,2021-06-09 08:12:34,22.518s,PASSED
"callTestCase(findTestCase(""PAGE/OTOSALES/NEW/INPUT PROSPECT/1.Prospect Info""), [""MV"":""MV NON GODIG"", ""isCompany"":false, ""prospectName"":""Test Otosales Telerenewal WIC COM HRM K200 MY"", ""phone1"":""082127670262"", ... ], STOP_ON_FAILURE)",Chrome 91.0.4472.77,,,2021-06-09 08:12:34,2021-06-09 08:15:25,2m - 50.893s,PASSED
"callTestCase(findTestCase(""PAGE/OTOSALES/NEW/INPUT PROSPECT/2.Vehicle Info""), [""VehicleName"":""XPANDER 2018 ULTIMATE"", ""Usage"":""PRIBADI"", ""Region"":""Wilayah 2""], STOP_ON_FAILURE)",Chrome 91.0.4472.77,,,2021-06-09 08:15:25,2021-06-09 08:15:53,28.086s,FAILED
,,,,,,,
Test Cases/SCENARIO/GEN5/TASKLIST SA/Tasklist,Chrome 91.0.4472.77,,,2021-06-09 08:15:53,2021-06-09 08:27:10,11m - 17.019s,FAILED
"callTestCase(findTestCase(""PAGE/GEN5/LOGIN/Login""), [""username"":""DOC"", ""password"":""ITG@nt1P455QC"", ""isSyariah"":false], STOP_ON_FAILURE)",Chrome 91.0.4472.77,,,2021-06-09 08:15:55,2021-06-09 08:17:28,1m - 32.970s,PASSED
"callTestCase(findTestCase(""PAGE/GEN5/HOME/Side Menu""), [""SideMenu"":""Task List SA""], STOP_ON_FAILURE)",Chrome 91.0.4472.77,,,2021-06-09 08:17:28,2021-06-09 08:19:01,1m - 33.036s,PASSED
"callTestCase(findTestCase(""PAGE/GEN5/TASKLIST SA/Dashboard""), [""SearchBy"":""Order No"", ""Parameter"":OtosalesOrderNo], STOP_ON_FAILURE)",Chrome 91.0.4472.77,,,2021-06-09 08:19:01,2021-06-09 08:21:31,2m - 29.821s,PASSED
"callTestCase(findTestCase(""PAGE/GEN5/TASKLIST SA/Tasklist SA""), [""changePolicyHolder"":false, ""SearchParam"":""Name"", ""PolicyHolderName"":""Sir Cok Kotelawala"", ""NameOnPolicy"":""Default"", ""EmailDelivery"":""Customer"", ... ], STOP_ON_FAILURE)",Chrome 91.0.4472.77,,,2021-06-09 08:21:31,2021-06-09 08:27:10,5m - 39.888s,FAILED
,,,,,,,
Test Cases/SCENARIO/OTOSALES/APPROVAL/Approval TELE,Chrome 91.0.4472.77,,,2021-06-09 08:27:10,2021-06-09 08:28:04,53.500s,PASSED
"QueryAABHead = ""SELECT TOP 1* FROM dbo.AABHead WHERE param = 'NIP'""",Chrome 91.0.4472.77,,,2021-06-09 08:27:12,2021-06-09 08:27:12,0.002s,PASSED
"Login = UI.getValueDatabase(""172.16.94.48"", ""AABMobile"", QueryAABHead, ""Value"")",Chrome 91.0.4472.77,,,2021-06-09 08:27:12,2021-06-09 08:27:19,7.720s,PASSED
"Approve = ""SELECT TOP 1* FROM mst_order_mobile_approval where Order_no = '"" + OtosalesOrderNo + ""' and ApprovalStatus = '0' order by ApprovalType ASC""",Chrome 91.0.4472.77,,,2021-06-09 08:27:19,2021-06-09 08:27:19,0.004s,PASSED
"approvalType = UI.getValueDatabase(""172.16.94.74"", ""AAB"", Approve, ""ApprovalType"")",Chrome 91.0.4472.77,,,2021-06-09 08:27:19,2021-06-09 08:27:27,7.129s,PASSED
"QueryMstOrder = ""SELECT * FROM mst_order WHERE Order_No = '"" + OtosalesOrderNo + ""'""",Chrome 91.0.4472.77,,,2021-06-09 08:27:27,2021-06-09 08:27:27,0.002s,PASSED
"OrdStatus = UI.getValueDatabase(""172.16.94.74"", ""AAB"", QueryMstOrder, ""Order_Status"")",Chrome 91.0.4472.77,,,2021-06-09 08:27:27,2021-06-09 08:27:31,4.599s,PASSED
"OrderNo = ""SELECT * FROM dbo.OrderSimulation WHERE PolicyOrderno = '"" + OtosalesOrderNo + ""'""",Chrome 91.0.4472.77,,,2021-06-09 08:27:31,2021-06-09 08:27:31,0.002s,PASSED
"OrderNoLong = UI.getValueDatabase(""172.16.94.48"", ""AABMOBILE"", OrderNo, ""OrderNo"")",Chrome 91.0.4472.77,,,2021-06-09 08:27:31,2021-06-09 08:27:37,5.653s,PASSED
"ApproveLP = ""SELECT * FROM dbo.OrderSimulationApproval where OrderNo = '"" + OrderNoLong + ""' and RowStatus = '1' and ApprovalStatus = '0'""",Chrome 91.0.4472.77,,,2021-06-09 08:27:37,2021-06-09 08:27:37,0.002s,PASSED
"approvalTypeLP = UI.getValueDatabase(""172.16.94.48"", ""AABMOBILE"", ApproveLP, ""ApprovalStatus"")",Chrome 91.0.4472.77,,,2021-06-09 08:27:37,2021-06-09 08:27:44,7.477s,PASSED
println(approvalType),Chrome 91.0.4472.77,,,2021-06-09 08:27:44,2021-06-09 08:27:44,0.011s,PASSED
println(OrdStatus),Chrome 91.0.4472.77,,,2021-06-09 08:27:44,2021-06-09 08:27:44,0.002s,PASSED
"while (approvalType != ""null"" && OrdStatus != ""9"")",Chrome 91.0.4472.77,,,2021-06-09 08:27:44,2021-06-09 08:27:44,0.002s,PASSED
println(approvalTypeLP),Chrome 91.0.4472.77,,,2021-06-09 08:27:44,2021-06-09 08:27:44,0.002s,PASSED
"if (approvalTypeLP == ""0"")",Chrome 91.0.4472.77,,,2021-06-09 08:27:44,2021-06-09 08:27:44,0.002s,PASSED
delay(2),Chrome 91.0.4472.77,,,2021-06-09 08:27:44,2021-06-09 08:27:46,2.012s,PASSED
delay(2),Chrome 91.0.4472.77,,,2021-06-09 08:27:46,2021-06-09 08:27:48,2.008s,PASSED
delay(2),Chrome 91.0.4472.77,,,2021-06-09 08:27:48,2021-06-09 08:27:50,2.009s,PASSED
delay(2),Chrome 91.0.4472.77,,,2021-06-09 08:27:50,2021-06-09 08:27:52,2.009s,PASSED
"QueryOrderStatus = ""select * from mst_order WHERE Order_No = '"" + OtosalesOrderNo + ""'""",Chrome 91.0.4472.77,,,2021-06-09 08:27:52,2021-06-09 08:27:52,0.002s,PASSED
"OrderStatus = UI.getValueDatabase(""172.16.94.74"", ""AAB"", QueryOrderStatus, ""Order_Status"")",Chrome 91.0.4472.77,,,2021-06-09 08:27:52,2021-06-09 08:27:56,3.948s,PASSED
"QueryAABMobile = ""SELECT FollowUpInfo,* FROM followUp WHERE FollowUpNo = (SELECT followUpNo FROM OrderSimulation WHERE PolicyOrderNo = '"" + OtosalesOrderNo + ""')""",Chrome 91.0.4472.77,,,2021-06-09 08:27:56,2021-06-09 08:27:56,0.002s,PASSED
"description = UI.getValueDatabase(""172.16.94.48"", ""AABMobile"", QueryAABMobile, ""FollowUpInfo"")",Chrome 91.0.4472.77,,,2021-06-09 08:27:56,2021-06-09 08:28:02,6.029s,PASSED
"while (description != ""50"")",Chrome 91.0.4472.77,,,2021-06-09 08:28:02,2021-06-09 08:28:02,0.003s,PASSED
println(description),Chrome 91.0.4472.77,,,2021-06-09 08:28:02,2021-06-09 08:28:02,0.003s,PASSED
closeBrowser(),Chrome 91.0.4472.77,,,2021-06-09 08:28:02,2021-06-09 08:28:04,1.682s,PASSED
