Suite/Test/Step Name,Browser,Description,Tag,Start time,End time,Duration,Status
AO - SYARIAH - Tidak muncul Link Payment,Chrome 86.0.4240.111,,,2020-11-03 16:54:16,2020-11-03 17:25:22,31m - 6.723s,INCOMPLETE
,,,,,,,
"Test Cases/SCENARIO/OTOSALES/Collaboration/NEW ORDER/LINK PAYMENT/AO - SYARIAH - Tidak muncul Link Payment/ORD-INPROSPECT-NONGODIG SYARIAH,COMP,M200,FULLCVR,PER",Chrome 86.0.4240.111,,,2020-11-03 16:54:18,2020-11-03 17:05:06,10m - 48.171s,PASSED
"callTestCase(findTestCase(""SCENARIO/OTOSALES/LOGIN/Login AO""), [:], STOP_ON_FAILURE)",Chrome 86.0.4240.111,,,2020-11-03 16:54:23,2020-11-03 16:55:22,58.799s,PASSED
"callTestCase(findTestCase(""PAGE/OTOSALES/LOGIN/Side Menu-Switch""), [""menu"":""Input Prospect""], STOP_ON_FAILURE)",Chrome 86.0.4240.111,,,2020-11-03 16:55:22,2020-11-03 16:55:31,9.042s,PASSED
"callTestCase(findTestCase(""PAGE/OTOSALES/NEW/INPUT PROSPECT/1.Prospect Info""), [""MV"":""MV NON GODIG"", ""isCompany"":false, ""prospectName"":""Automate Customer Non Godig"", ""phone1"":""082127670262"", ""phone2"":""081290154328"", ... ], STOP_ON_FAILURE)",Chrome 86.0.4240.111,,,2020-11-03 16:55:31,2020-11-03 16:57:14,1m - 43.167s,PASSED
"callTestCase(findTestCase(""PAGE/OTOSALES/NEW/INPUT PROSPECT/2.Vehicle Info""), [""VehicleName"":""XPANDER 2018 ULTIMATE"", ""Usage"":""PRIBADI"", ""Region"":""Wilayah 2""], STOP_ON_FAILURE)",Chrome 86.0.4240.111,,,2020-11-03 16:57:14,2020-11-03 16:57:47,33.037s,PASSED
"callTestCase(findTestCase(""PAGE/OTOSALES/NEW/INPUT PROSPECT/3.Cover""), [""ProductType"":""Garda Oto Syariah"", ""MV"":OrderType, ""ProductCode"":""GWU0S"", ""Coverage"":""Comprehensive 1 Year"", ""TJH"":""25,000,000"", ... ], STOP_ON_FAILURE)",Chrome 86.0.4240.111,,,2020-11-03 16:57:47,2020-11-03 16:59:26,1m - 38.889s,PASSED
"callTestCase(findTestCase(""PAGE/OTOSALES/LOGIN/Side Menu-Switch""), [""menu"":""Task List""], STOP_ON_FAILURE)",Chrome 86.0.4240.111,,,2020-11-03 16:59:26,2020-11-03 16:59:40,13.833s,PASSED
"callTestCase(findTestCase(""PAGE/OTOSALES/NEW/TASKLIST/1.Home""), [""Chassis"":ChassisNo, ""CustName"":ProspectName], STOP_ON_FAILURE)",Chrome 86.0.4240.111,,,2020-11-03 16:59:40,2020-11-03 17:00:07,26.883s,PASSED
"callTestCase(findTestCase(""PAGE/OTOSALES/NEW/TASKLIST/2.Tasklist""), [""birthDate"":""15/10/1989"", ""NomorNPWP"":""371829374123"", ""JenisKelamin"":""Laki-Laki"", ""Alamat"":""Jalan Pelan - Pelan"", ""KodePos"":""55141"", ... ], STOP_ON_FAILURE)",Chrome 86.0.4240.111,,,2020-11-03 17:00:07,2020-11-03 17:03:06,2m - 59.624s,PASSED
"callTestCase(findTestCase(""PAGE/OTOSALES/NEW/TASKLIST/3.FollowUp""), [""Reason"":""Send to SA"", ""Notes"":""Contacted"", ""Receiver"":""Sir Cok Kotelawala"", ""Remarks"":""Created by Katalon Studio"", ""ProspectName"":ProspectName], STOP_ON_FAILURE)",Chrome 86.0.4240.111,,,2020-11-03 17:03:06,2020-11-03 17:05:06,2m - 0.043s,PASSED
,,,,,,,
Test Cases/SCENARIO/GEN5/TASKLIST SA/Tasklist Syariah,Chrome 86.0.4240.111,,,2020-11-03 17:05:07,2020-11-03 17:12:46,7m - 39.811s,PASSED
"callTestCase(findTestCase(""PAGE/GEN5/LOGIN/Login""), [""username"":""DOC"", ""password"":""ITG@nt1P455QC"", ""isSyariah"":true], STOP_ON_FAILURE)",Chrome 86.0.4240.111,,,2020-11-03 17:05:08,2020-11-03 17:05:43,34.844s,PASSED
"callTestCase(findTestCase(""PAGE/GEN5/HOME/Side Menu""), [""SideMenu"":""Task List SA""], STOP_ON_FAILURE)",Chrome 86.0.4240.111,,,2020-11-03 17:05:43,2020-11-03 17:06:07,24.306s,PASSED
"callTestCase(findTestCase(""PAGE/GEN5/TASKLIST SA/Dashboard""), [""SearchBy"":""Order No"", ""Parameter"":OtosalesOrderNo], STOP_ON_FAILURE)",Chrome 86.0.4240.111,,,2020-11-03 17:06:07,2020-11-03 17:07:15,1m - 7.718s,PASSED
"callTestCase(findTestCase(""PAGE/GEN5/TASKLIST SA/Tasklist SA""), [""changePolicyHolder"":false, ""SearchParam"":""Name"", ""PolicyHolderName"":""Sir Cok Kotelawala"", ""NameOnPolicy"":""Default"", ""EmailDelivery"":""Customer"", ... ], STOP_ON_FAILURE)",Chrome 86.0.4240.111,,,2020-11-03 17:07:15,2020-11-03 17:12:46,5m - 31.199s,PASSED
,,,,,,,
Test Cases/SCENARIO/OTOSALES/APPROVAL/Approval AO,Chrome 86.0.4240.111,,,2020-11-03 17:12:46,2020-11-03 17:20:13,7m - 26.810s,PASSED
"QuerySalesOfficer = ""SELECT TOP 1* FROM dbo.SalesOfficer WHERE SalesOfficerID = '"" + OtosalesLogin + ""'""",Chrome 86.0.4240.111,,,2020-11-03 17:12:47,2020-11-03 17:12:47,0.000s,PASSED
"BranchCode = UI.getValueDatabase(""172.16.94.48"", ""AABMobile"", QuerySalesOfficer, ""BranchCode"")",Chrome 86.0.4240.111,,,2020-11-03 17:12:47,2020-11-03 17:12:47,0.335s,PASSED
"QueryAABHead = ""SELECT TOP 1* FROM dbo.AABHead WHERE param = '"" + BranchCode + ""' and RowStatus = '1'""",Chrome 86.0.4240.111,,,2020-11-03 17:12:47,2020-11-03 17:12:47,0.000s,PASSED
"Login = UI.getValueDatabase(""172.16.94.48"", ""AABMobile"", QueryAABHead, ""Value"")",Chrome 86.0.4240.111,,,2020-11-03 17:12:47,2020-11-03 17:12:48,0.285s,PASSED
"Approve = ""SELECT TOP 1* FROM mst_order_mobile_approval where Order_no = '"" + OtosalesOrderNo + ""' and ApprovalStatus = '0' order by ApprovalType ASC""",Chrome 86.0.4240.111,,,2020-11-03 17:12:48,2020-11-03 17:12:48,0.015s,PASSED
"approvalType = UI.getValueDatabase(""172.16.94.74"", ""AAB"", Approve, ""ApprovalType"")",Chrome 86.0.4240.111,,,2020-11-03 17:12:48,2020-11-03 17:12:48,0.145s,PASSED
"while (approvalType != ""null"")",Chrome 86.0.4240.111,,,2020-11-03 17:12:48,2020-11-03 17:16:50,4m - 1.865s,PASSED
delay(2),Chrome 86.0.4240.111,,,2020-11-03 17:16:50,2020-11-03 17:16:52,2.003s,PASSED
general.scheduler.Otosales_Approval_Gen5(),Chrome 86.0.4240.111,,,2020-11-03 17:16:52,2020-11-03 17:17:32,40.693s,PASSED
delay(2),Chrome 86.0.4240.111,,,2020-11-03 17:17:32,2020-11-03 17:17:34,2.006s,PASSED
general.scheduler.Otosales_Approval_New(),Chrome 86.0.4240.111,,,2020-11-03 17:17:34,2020-11-03 17:18:30,55.842s,PASSED
delay(2),Chrome 86.0.4240.111,,,2020-11-03 17:18:30,2020-11-03 17:18:32,2.003s,PASSED
general.scheduler.Otosales_Approval_Next_Limit(),Chrome 86.0.4240.111,,,2020-11-03 17:18:32,2020-11-03 17:19:03,30.693s,PASSED
delay(2),Chrome 86.0.4240.111,,,2020-11-03 17:19:03,2020-11-03 17:19:05,2.005s,PASSED
general.scheduler.Otosales_MonitorOrder(),Chrome 86.0.4240.111,,,2020-11-03 17:19:05,2020-11-03 17:20:11,1m - 6.169s,PASSED
closeBrowser(),Chrome 86.0.4240.111,,,2020-11-03 17:20:11,2020-11-03 17:20:13,2.157s,PASSED
,,,,,,,
"Test Cases/SCENARIO/OTOSALES/Collaboration/NEW ORDER/LINK PAYMENT/AO - SYARIAH - Tidak muncul Link Payment/POL-INPROSPECT-NONGODIG SYARIAH,COMP,M200,FULLCVR,PER",Chrome 86.0.4240.111,,,2020-11-03 17:20:13,2020-11-03 17:22:03,1m - 49.484s,FAILED
"callTestCase(findTestCase(""SCENARIO/OTOSALES/LOGIN/Login AO""), [:], STOP_ON_FAILURE)",Chrome 86.0.4240.111,,,2020-11-03 17:20:14,2020-11-03 17:20:46,31.475s,PASSED
"callTestCase(findTestCase(""PAGE/OTOSALES/LOGIN/Side Menu-Switch""), [""menu"":""Task List""], STOP_ON_FAILURE)",Chrome 86.0.4240.111,,,2020-11-03 17:20:46,2020-11-03 17:20:51,5.059s,PASSED
"callTestCase(findTestCase(""PAGE/OTOSALES/NEW/TASKLIST/1.Home""), [""Chassis"":ChassisNo, ""CustName"":ProspectName], STOP_ON_FAILURE)",Chrome 86.0.4240.111,,,2020-11-03 17:20:51,2020-11-03 17:21:19,28.200s,PASSED
"callTestCase(findTestCase(""PAGE/OTOSALES/NEW/TASKLIST/2.Tasklist""), [""birthDate"":""15/10/1989"", ""NomorNPWP"":""371829374123"", ""JenisKelamin"":""Laki-Laki"", ""Alamat"":""Jalan Pelan - Pelan"", ""KodePos"":""55141"", ... ], STOP_ON_FAILURE)",Chrome 86.0.4240.111,,,2020-11-03 17:21:19,2020-11-03 17:22:03,43.444s,FAILED
,,,,,,,
Test Cases/SCENARIO/OTOSALES/APPROVAL/Approval AO,Chrome 86.0.4240.111,,,2020-11-03 17:22:03,2020-11-03 17:25:22,3m - 19.658s,PASSED
"QuerySalesOfficer = ""SELECT TOP 1* FROM dbo.SalesOfficer WHERE SalesOfficerID = '"" + OtosalesLogin + ""'""",Chrome 86.0.4240.111,,,2020-11-03 17:22:03,2020-11-03 17:22:03,0.000s,PASSED
"BranchCode = UI.getValueDatabase(""172.16.94.48"", ""AABMobile"", QuerySalesOfficer, ""BranchCode"")",Chrome 86.0.4240.111,,,2020-11-03 17:22:03,2020-11-03 17:22:03,0.105s,PASSED
"QueryAABHead = ""SELECT TOP 1* FROM dbo.AABHead WHERE param = '"" + BranchCode + ""' and RowStatus = '1'""",Chrome 86.0.4240.111,,,2020-11-03 17:22:03,2020-11-03 17:22:03,0.002s,PASSED
"Login = UI.getValueDatabase(""172.16.94.48"", ""AABMobile"", QueryAABHead, ""Value"")",Chrome 86.0.4240.111,,,2020-11-03 17:22:03,2020-11-03 17:22:03,0.112s,PASSED
"Approve = ""SELECT TOP 1* FROM mst_order_mobile_approval where Order_no = '"" + OtosalesOrderNo + ""' and ApprovalStatus = '0' order by ApprovalType ASC""",Chrome 86.0.4240.111,,,2020-11-03 17:22:03,2020-11-03 17:22:03,0.002s,PASSED
"approvalType = UI.getValueDatabase(""172.16.94.74"", ""AAB"", Approve, ""ApprovalType"")",Chrome 86.0.4240.111,,,2020-11-03 17:22:03,2020-11-03 17:22:03,0.128s,PASSED
"while (approvalType != ""null"")",Chrome 86.0.4240.111,,,2020-11-03 17:22:03,2020-11-03 17:22:03,0.001s,PASSED
delay(2),Chrome 86.0.4240.111,,,2020-11-03 17:22:03,2020-11-03 17:22:05,2.008s,PASSED
general.scheduler.Otosales_Approval_Gen5(),Chrome 86.0.4240.111,,,2020-11-03 17:22:05,2020-11-03 17:22:56,50.911s,PASSED
delay(2),Chrome 86.0.4240.111,,,2020-11-03 17:22:56,2020-11-03 17:22:58,2.007s,PASSED
general.scheduler.Otosales_Approval_New(),Chrome 86.0.4240.111,,,2020-11-03 17:22:58,2020-11-03 17:23:59,1m - 0.757s,PASSED
delay(2),Chrome 86.0.4240.111,,,2020-11-03 17:23:59,2020-11-03 17:24:01,2.010s,PASSED
general.scheduler.Otosales_Approval_Next_Limit(),Chrome 86.0.4240.111,,,2020-11-03 17:24:01,2020-11-03 17:24:37,36.489s,PASSED
delay(2),Chrome 86.0.4240.111,,,2020-11-03 17:24:37,2020-11-03 17:24:39,2.008s,PASSED
general.scheduler.Otosales_MonitorOrder(),Chrome 86.0.4240.111,,,2020-11-03 17:24:39,2020-11-03 17:25:20,41.112s,PASSED
closeBrowser(),Chrome 86.0.4240.111,,,2020-11-03 17:25:20,2020-11-03 17:25:22,1.959s,PASSED
