Suite/Test/Step Name,Browser,Description,Tag,Start time,End time,Duration,Status
"INPROSPECT-NONGODIG GO,COMP,M200,FULLCVR,PERSONAL - TELERENEWAL - Edit",Chrome 91.0.4472.114,,,2021-06-27 14:23:29,2021-06-27 14:42:51,19m - 22.097s,INCOMPLETE
,,,,,,,
"Test Cases/SCENARIO/OTOSALES/Collaboration/NEW ORDER/MVNONGODIG/SINGLE YEAR/Create Polis/INPROSPECT-NONGODIG GO,COMP,M200,FULLCVR,PERSONAL - TELERENEWAL - Edit",Chrome 91.0.4472.114,,,2021-06-27 14:23:31,2021-06-27 14:33:13,9m - 42.627s,PASSED
"callTestCase(findTestCase(""SCENARIO/OTOSALES/LOGIN/Login Telerenewal""), [:], STOP_ON_FAILURE)",Chrome 91.0.4472.114,,,2021-06-27 14:23:33,2021-06-27 14:24:36,1m - 3.456s,PASSED
"callTestCase(findTestCase(""PAGE/OTOSALES/LOGIN/Side Menu-Switch""), [""menu"":""Input Prospect""], STOP_ON_FAILURE)",Chrome 91.0.4472.114,,,2021-06-27 14:24:36,2021-06-27 14:24:47,10.771s,PASSED
"callTestCase(findTestCase(""PAGE/OTOSALES/NEW/INPUT PROSPECT/1.Prospect Info""), [""MV"":""MV NON GODIG"", ""isCompany"":false, ""prospectName"":""Test Otosales TELE WIC PER SPRINT 23 HRM"", ""phone1"":""082127670262"", ... ], STOP_ON_FAILURE)",Chrome 91.0.4472.114,,,2021-06-27 14:24:47,2021-06-27 14:26:40,1m - 52.956s,PASSED
"callTestCase(findTestCase(""PAGE/OTOSALES/NEW/INPUT PROSPECT/2.Vehicle Info""), [""VehicleName"":""SUZUKI CARRY 2008 PICK UP 1.0 BOX"", ""Usage"":""KOMERSIAL"", ""Region"":""Wilayah 2""], STOP_ON_FAILURE)",Chrome 91.0.4472.114,,,2021-06-27 14:26:40,2021-06-27 14:27:19,38.531s,PASSED
"callTestCase(findTestCase(""PAGE/OTOSALES/NEW/INPUT PROSPECT/3.Cover""), [""ProductType"":""Garda Oto"", ""MV"":OrderType, ""ProductCode"":""GWU50"", ""Coverage"":""Comprehensive 1 Year"", ""TJH"":""25,000,000"", ""Terrorism"":true, ... ], STOP_ON_FAILURE)",Chrome 91.0.4472.114,,,2021-06-27 14:27:19,2021-06-27 14:28:37,1m - 18.130s,PASSED
"callTestCase(findTestCase(""PAGE/OTOSALES/LOGIN/Side Menu-Switch""), [""menu"":""Task List""], STOP_ON_FAILURE)",Chrome 91.0.4472.114,,,2021-06-27 14:28:37,2021-06-27 14:28:43,6.657s,PASSED
"callTestCase(findTestCase(""PAGE/OTOSALES/NEW/TASKLIST/1.Home""), [""Chassis"":ChassisNo, ""CustName"":ProspectName], STOP_ON_FAILURE)",Chrome 91.0.4472.114,,,2021-06-27 14:28:43,2021-06-27 14:28:59,15.899s,PASSED
"callTestCase(findTestCase(""PAGE/OTOSALES/NEW/TASKLIST/2.Tasklist""), [""birthDate"":""15/10/1989"", ""NomorNPWP"":""371829374123"", ""JenisKelamin"":""Laki-Laki"", ""Alamat"":""Jalan Pelan - Pelan"", ""KodePos"":""55141"", ... ], STOP_ON_FAILURE)",Chrome 91.0.4472.114,,,2021-06-27 14:28:59,2021-06-27 14:31:58,2m - 58.702s,PASSED
"callTestCase(findTestCase(""PAGE/OTOSALES/NEW/TASKLIST/3.FollowUp""), [""Reason"":""Send to SA"", ""Notes"":""Contacted"", ""Receiver"":""Sir Cok Kotelawala"", ""Remarks"":""Created by Katalon Studio"", ""ProspectName"":ProspectName], STOP_ON_FAILURE)",Chrome 91.0.4472.114,,,2021-06-27 14:31:58,2021-06-27 14:33:13,1m - 15.344s,PASSED
,,,,,,,
Test Cases/SCENARIO/GEN5/TASKLIST SA/Tasklist,Chrome 91.0.4472.114,,,2021-06-27 14:33:13,2021-06-27 14:39:32,6m - 18.494s,PASSED
file = new java.io.File((com.kms.katalon.core.configuration.RunConfiguration.getProjectDir() + /Data Files/parameterLinkOtosales.txt)),Chrome 91.0.4472.114,,,2021-06-27 14:33:15,2021-06-27 14:33:15,0.002s,PASSED
text = FileUtils.readFileToString(file),Chrome 91.0.4472.114,,,2021-06-27 14:33:15,2021-06-27 14:33:15,0.003s,PASSED
switch (text),Chrome 91.0.4472.114,,,2021-06-27 14:33:15,2021-06-27 14:33:37,21.931s,PASSED
"callTestCase(findTestCase(""PAGE/GEN5/HOME/Side Menu""), [""SideMenu"":""Task List SA""], STOP_ON_FAILURE)",Chrome 91.0.4472.114,,,2021-06-27 14:33:37,2021-06-27 14:34:05,27.949s,PASSED
"callTestCase(findTestCase(""PAGE/GEN5/TASKLIST SA/Dashboard""), [""SearchBy"":""Order No"", ""Parameter"":OtosalesOrderNo], STOP_ON_FAILURE)",Chrome 91.0.4472.114,,,2021-06-27 14:34:05,2021-06-27 14:35:01,56.352s,PASSED
"callTestCase(findTestCase(""PAGE/GEN5/TASKLIST SA/Tasklist SA""), [""changePolicyHolder"":false, ""SearchParam"":""Name"", ""PolicyHolderName"":""Sir Cok Kotelawala"", ""NameOnPolicy"":""Default"", ""EmailDelivery"":""Customer"", ... ], STOP_ON_FAILURE)",Chrome 91.0.4472.114,,,2021-06-27 14:35:01,2021-06-27 14:39:32,4m - 31.034s,PASSED
,,,,,,,
Test Cases/SCENARIO/OTOSALES/APPROVAL/Approval TELE,Chrome 91.0.4472.114,,,2021-06-27 14:39:32,2021-06-27 14:42:51,3m - 18.973s,PASSED
"QueryAABHead = ""SELECT TOP 1* FROM dbo.AABHead WHERE param = 'NIP'""",Chrome 91.0.4472.114,,,2021-06-27 14:39:33,2021-06-27 14:39:33,0.001s,PASSED
"Login = UI.getValueDatabase(""172.16.94.48"", ""AABMobile"", QueryAABHead, ""Value"")",Chrome 91.0.4472.114,,,2021-06-27 14:39:33,2021-06-27 14:39:34,1.062s,PASSED
"Approve = ""SELECT TOP 1* FROM mst_order_mobile_approval where Order_no = '"" + OtosalesOrderNo + ""' and ApprovalStatus = '0' order by ApprovalType ASC""",Chrome 91.0.4472.114,,,2021-06-27 14:39:34,2021-06-27 14:39:34,0.001s,PASSED
"approvalType = UI.getValueDatabase(""172.16.94.74"", ""AAB"", Approve, ""ApprovalType"")",Chrome 91.0.4472.114,,,2021-06-27 14:39:34,2021-06-27 14:39:34,0.470s,PASSED
"QueryMstOrder = ""SELECT * FROM mst_order WHERE Order_No = '"" + OtosalesOrderNo + ""'""",Chrome 91.0.4472.114,,,2021-06-27 14:39:34,2021-06-27 14:39:34,0.002s,PASSED
"OrdStatus = UI.getValueDatabase(""172.16.94.74"", ""AAB"", QueryMstOrder, ""Order_Status"")",Chrome 91.0.4472.114,,,2021-06-27 14:39:34,2021-06-27 14:39:35,0.651s,PASSED
"OrderNo = ""SELECT * FROM dbo.OrderSimulation WHERE PolicyOrderno = '"" + OtosalesOrderNo + ""'""",Chrome 91.0.4472.114,,,2021-06-27 14:39:35,2021-06-27 14:39:35,0.002s,PASSED
"OrderNoLong = UI.getValueDatabase(""172.16.94.48"", ""AABMOBILE"", OrderNo, ""OrderNo"")",Chrome 91.0.4472.114,,,2021-06-27 14:39:35,2021-06-27 14:39:36,0.747s,PASSED
"ApproveLP = ""SELECT * FROM dbo.OrderSimulationApproval where OrderNo = '"" + OrderNoLong + ""' and RowStatus = '1' and ApprovalStatus = '0'""",Chrome 91.0.4472.114,,,2021-06-27 14:39:36,2021-06-27 14:39:36,0.002s,PASSED
"approvalTypeLP = UI.getValueDatabase(""172.16.94.48"", ""AABMOBILE"", ApproveLP, ""ApprovalStatus"")",Chrome 91.0.4472.114,,,2021-06-27 14:39:36,2021-06-27 14:39:36,0.520s,PASSED
println(approvalType),Chrome 91.0.4472.114,,,2021-06-27 14:39:36,2021-06-27 14:39:36,0.002s,PASSED
println(OrdStatus),Chrome 91.0.4472.114,,,2021-06-27 14:39:36,2021-06-27 14:39:36,0.003s,PASSED
"while (approvalType != ""null"" && OrdStatus != ""9"")",Chrome 91.0.4472.114,,,2021-06-27 14:39:36,2021-06-27 14:40:56,1m - 19.388s,PASSED
println(approvalTypeLP),Chrome 91.0.4472.114,,,2021-06-27 14:40:56,2021-06-27 14:40:56,0.001s,PASSED
"if (approvalTypeLP == ""0"")",Chrome 91.0.4472.114,,,2021-06-27 14:40:56,2021-06-27 14:40:56,0.002s,PASSED
delay(2),Chrome 91.0.4472.114,,,2021-06-27 14:40:56,2021-06-27 14:40:58,2.008s,PASSED
delay(2),Chrome 91.0.4472.114,,,2021-06-27 14:40:58,2021-06-27 14:41:00,2.032s,PASSED
delay(2),Chrome 91.0.4472.114,,,2021-06-27 14:41:00,2021-06-27 14:41:02,2.009s,PASSED
delay(2),Chrome 91.0.4472.114,,,2021-06-27 14:41:02,2021-06-27 14:41:04,2.009s,PASSED
"QueryOrderStatus = ""select * from mst_order WHERE Order_No = '"" + OtosalesOrderNo + ""'""",Chrome 91.0.4472.114,,,2021-06-27 14:41:04,2021-06-27 14:41:04,0.005s,PASSED
"OrderStatus = UI.getValueDatabase(""172.16.94.74"", ""AAB"", QueryOrderStatus, ""Order_Status"")",Chrome 91.0.4472.114,,,2021-06-27 14:41:04,2021-06-27 14:41:05,1.422s,PASSED
"QueryAABMobile = ""SELECT FollowUpInfo,* FROM followUp WHERE FollowUpNo = (SELECT followUpNo FROM OrderSimulation WHERE PolicyOrderNo = '"" + OtosalesOrderNo + ""')""",Chrome 91.0.4472.114,,,2021-06-27 14:41:05,2021-06-27 14:41:05,0.003s,PASSED
"description = UI.getValueDatabase(""172.16.94.48"", ""AABMobile"", QueryAABMobile, ""FollowUpInfo"")",Chrome 91.0.4472.114,,,2021-06-27 14:41:05,2021-06-27 14:41:06,0.530s,PASSED
"while (description != ""50"")",Chrome 91.0.4472.114,,,2021-06-27 14:41:06,2021-06-27 14:42:49,1m - 43.301s,PASSED
println(description),Chrome 91.0.4472.114,,,2021-06-27 14:42:49,2021-06-27 14:42:49,0.002s,PASSED
closeBrowser(),Chrome 91.0.4472.114,,,2021-06-27 14:42:49,2021-06-27 14:42:51,2.062s,PASSED
