Suite/Test/Step Name,Browser,Description,Tag,Start time,End time,Duration,Status
"INPROSPECT-NONGODIG TI,COMP,M200,FULLCVR,COMPANY - AO - UMA",Chrome 87.0.4280.66,,,2020-11-30 11:03:19,2020-11-30 11:08:20,5m - 1.069s,INCOMPLETE
,,,,,,,
"Test Cases/SCENARIO/OTOSALES/Collaboration/NEW ORDER/MVNONGODIG/SINGLE YEAR/Create Polis/INPROSPECT-NONGODIG TI,COMP,M200,FULLCVR,COMPANY - AO - UMA",Chrome 87.0.4280.66,,,2020-11-30 11:03:21,2020-11-30 11:04:55,1m - 34.512s,FAILED
"callTestCase(findTestCase(""SCENARIO/OTOSALES/LOGIN/Login CSO Cabang""), [:], STOP_ON_FAILURE)",Chrome 87.0.4280.66,,,2020-11-30 11:03:23,2020-11-30 11:04:14,50.470s,PASSED
"callTestCase(findTestCase(""PAGE/OTOSALES/LOGIN/Side Menu-Switch""), [""menu"":""Input Prospect""], STOP_ON_FAILURE)",Chrome 87.0.4280.66,,,2020-11-30 11:04:14,2020-11-30 11:04:55,41.815s,FAILED
,,,,,,,
Test Cases/SCENARIO/GEN5/TASKLIST SA/Tasklist,Chrome 87.0.4280.66,,,2020-11-30 11:04:56,2020-11-30 11:08:20,3m - 24.334s,FAILED
"callTestCase(findTestCase(""PAGE/GEN5/LOGIN/Login""), [""username"":""DOC"", ""password"":""ITG@nt1P455QC"", ""isSyariah"":false], STOP_ON_FAILURE)",Chrome 87.0.4280.66,,,2020-11-30 11:04:57,2020-11-30 11:05:25,28.169s,PASSED
"callTestCase(findTestCase(""PAGE/GEN5/HOME/Side Menu""), [""SideMenu"":""Task List SA""], STOP_ON_FAILURE)",Chrome 87.0.4280.66,,,2020-11-30 11:05:25,2020-11-30 11:05:46,21.553s,PASSED
"callTestCase(findTestCase(""PAGE/GEN5/TASKLIST SA/Dashboard""), [""SearchBy"":""Order No"", ""Parameter"":OtosalesOrderNo], STOP_ON_FAILURE)",Chrome 87.0.4280.66,,,2020-11-30 11:05:46,2020-11-30 11:07:07,1m - 20.489s,PASSED
"callTestCase(findTestCase(""PAGE/GEN5/TASKLIST SA/Tasklist SA""), [""changePolicyHolder"":false, ""SearchParam"":""Name"", ""PolicyHolderName"":""Sir Cok Kotelawala"", ""NameOnPolicy"":""Default"", ""EmailDelivery"":""Customer"", ... ], STOP_ON_FAILURE)",Chrome 87.0.4280.66,,,2020-11-30 11:07:07,2020-11-30 11:08:20,1m - 13.045s,FAILED
