Suite/Test/Step Name,Browser,Description,Tag,Start time,End time,Duration,Status
MGO-AGENCY-Muncul Link Payment-CCFP,Chrome 90.0.4430.85,,,2021-04-26 05:35:53,2021-04-26 06:46:29,1h - 10m - 35.505s,INCOMPLETE
,,,,,,,
"Test Cases/SCENARIO/OTOSALES/Collaboration/NEW ORDER/LINK PAYMENT/MGO-AGENCY-Muncul Link Payment-CCFP/ORD-IP-NONGODIG GO,COMP,M200,FULLCVR,PER,NOAPPADJ",Chrome 90.0.4430.85,,,2021-04-26 05:35:55,2021-04-26 05:45:19,9m - 23.791s,PASSED
"callTestCase(findTestCase(""SCENARIO/OTOSALES/LOGIN/Login MGO""), [:], STOP_ON_FAILURE)",Chrome 90.0.4430.85,,,2021-04-26 05:35:57,2021-04-26 05:37:28,1m - 30.507s,PASSED
"callTestCase(findTestCase(""PAGE/OTOSALES/LOGIN/Side Menu-Switch""), [""menu"":""Input Prospect""], STOP_ON_FAILURE)",Chrome 90.0.4430.85,,,2021-04-26 05:37:28,2021-04-26 05:37:37,8.986s,PASSED
"callTestCase(findTestCase(""PAGE/OTOSALES/NEW/INPUT PROSPECT/1.Prospect Info""), [""MV"":""MV NON GODIG"", ""isCompany"":false, ""prospectName"":""Automate Customer Non Godig"", ""phone1"":""082127670262"", ""phone2"":""081290154328"", ... ], STOP_ON_FAILURE)",Chrome 90.0.4430.85,,,2021-04-26 05:37:37,2021-04-26 05:39:31,1m - 54.383s,PASSED
"callTestCase(findTestCase(""PAGE/OTOSALES/NEW/INPUT PROSPECT/2.Vehicle Info""), [""VehicleName"":""XPANDER 2018 ULTIMATE"", ""Usage"":""PRIBADI"", ""Region"":""Wilayah 2""], STOP_ON_FAILURE)",Chrome 90.0.4430.85,,,2021-04-26 05:39:31,2021-04-26 05:40:03,32.073s,PASSED
"callTestCase(findTestCase(""PAGE/OTOSALES/NEW/INPUT PROSPECT/3.Cover""), [""ProductType"":""Garda Oto"", ""MV"":OrderType, ""ProductCode"":""GAU52"", ""Coverage"":""Comprehensive 1 Year"", ""TJH"":""25,000,000"", ""Terrorism"":true, ... ], STOP_ON_FAILURE)",Chrome 90.0.4430.85,,,2021-04-26 05:40:03,2021-04-26 05:41:22,1m - 18.450s,PASSED
"callTestCase(findTestCase(""PAGE/OTOSALES/LOGIN/Side Menu-Switch""), [""menu"":""Task List""], STOP_ON_FAILURE)",Chrome 90.0.4430.85,,,2021-04-26 05:41:22,2021-04-26 05:41:29,7.799s,PASSED
"callTestCase(findTestCase(""PAGE/OTOSALES/NEW/TASKLIST/1.Home""), [""Chassis"":ChassisNo, ""CustName"":ProspectName], STOP_ON_FAILURE)",Chrome 90.0.4430.85,,,2021-04-26 05:41:29,2021-04-26 05:42:05,35.675s,PASSED
"callTestCase(findTestCase(""PAGE/OTOSALES/NEW/TASKLIST/2.Tasklist""), [""birthDate"":""15/10/1989"", ""NomorNPWP"":""371829374123"", ""JenisKelamin"":""Laki-Laki"", ""Alamat"":""Jalan Pelan - Pelan"", ""KodePos"":""55141"", ... ], STOP_ON_FAILURE)",Chrome 90.0.4430.85,,,2021-04-26 05:42:05,2021-04-26 05:44:28,2m - 22.730s,PASSED
"callTestCase(findTestCase(""PAGE/OTOSALES/NEW/TASKLIST/3.FollowUp""), [""Reason"":""Send to SA"", ""Notes"":""Contacted"", ""Receiver"":""Sir Cok Kotelawala"", ""Remarks"":""Created by Katalon Studio"", ""ProspectName"":ProspectName], STOP_ON_FAILURE)",Chrome 90.0.4430.85,,,2021-04-26 05:44:28,2021-04-26 05:45:19,51.119s,PASSED
,,,,,,,
Test Cases/SCENARIO/GEN5/TASKLIST SA/Tasklist,Chrome 90.0.4430.85,,,2021-04-26 05:45:19,2021-04-26 05:46:27,1m - 8.084s,FAILED
"callTestCase(findTestCase(""PAGE/GEN5/LOGIN/Login""), [""username"":""DOC"", ""password"":""ITG@nt1P455QC"", ""isSyariah"":false], STOP_ON_FAILURE)",Chrome 90.0.4430.85,,,2021-04-26 05:45:20,2021-04-26 05:45:42,22.499s,PASSED
"callTestCase(findTestCase(""PAGE/GEN5/HOME/Side Menu""), [""SideMenu"":""Task List SA""], STOP_ON_FAILURE)",Chrome 90.0.4430.85,,,2021-04-26 05:45:42,2021-04-26 05:46:27,44.839s,FAILED
,,,,,,,
Test Cases/SCENARIO/OTOSALES/APPROVAL/Approval MGO,Chrome 90.0.4430.85,,,2021-04-26 05:46:27,2021-04-26 06:45:44,59m - 16.823s,ERROR
"QuerySalesOfficer = ""SELECT TOP 1* FROM dbo.SalesOfficer WHERE email = '"" + OtosalesLogin + ""'""",Chrome 90.0.4430.85,,,2021-04-26 05:46:29,2021-04-26 05:46:29,0.006s,PASSED
"UserID = UI.getValueDatabase(""172.16.94.48"", ""AABMobile"", QuerySalesOfficer, ""SalesOfficerID"")",Chrome 90.0.4430.85,,,2021-04-26 05:46:29,2021-04-26 05:46:29,0.499s,PASSED
"QueryAABHead = ""SELECT TOP 1* FROM dbo.AABHead WHERE param = '"" + UserID + ""' and RowStatus = '1' and Value = 'SRW'""",Chrome 90.0.4430.85,,,2021-04-26 05:46:29,2021-04-26 05:46:29,0.000s,PASSED
"Login = UI.getValueDatabase(""172.16.94.48"", ""AABMobile"", QueryAABHead, ""Value"")",Chrome 90.0.4430.85,,,2021-04-26 05:46:29,2021-04-26 05:46:30,0.513s,PASSED
"Approve = ""SELECT TOP 1* FROM mst_order_mobile_approval where Order_no = '"" + OtosalesOrderNo + ""' and ApprovalStatus = '0' order by ApprovalType ASC""",Chrome 90.0.4430.85,,,2021-04-26 05:46:30,2021-04-26 05:46:30,0.000s,PASSED
"approvalType = UI.getValueDatabase(""172.16.94.74"", ""AAB"", Approve, ""ApprovalType"")",Chrome 90.0.4430.85,,,2021-04-26 05:46:30,2021-04-26 05:46:30,0.115s,PASSED
"QueryMstOrder = ""SELECT * FROM mst_order WHERE Order_No = '"" + OtosalesOrderNo + ""'""",Chrome 90.0.4430.85,,,2021-04-26 05:46:30,2021-04-26 05:46:30,0.001s,PASSED
"OrdStatus = UI.getValueDatabase(""172.16.94.74"", ""AAB"", QueryMstOrder, ""Order_Status"")",Chrome 90.0.4430.85,,,2021-04-26 05:46:30,2021-04-26 05:46:30,0.126s,PASSED
"OrderNo = ""SELECT * FROM dbo.OrderSimulation WHERE PolicyOrderno = '"" + OtosalesOrderNo + ""'""",Chrome 90.0.4430.85,,,2021-04-26 05:46:30,2021-04-26 05:46:30,0.002s,PASSED
"OrderNoLong = UI.getValueDatabase(""172.16.94.48"", ""AABMOBILE"", OrderNo, ""OrderNo"")",Chrome 90.0.4430.85,,,2021-04-26 05:46:30,2021-04-26 05:46:31,0.846s,PASSED
"ApproveLP = ""SELECT * FROM dbo.OrderSimulationApproval where OrderNo = '"" + OrderNoLong + ""' and RowStatus = '1' and ApprovalStatus = '0'""",Chrome 90.0.4430.85,,,2021-04-26 05:46:31,2021-04-26 05:46:31,0.001s,PASSED
"approvalTypeLP = UI.getValueDatabase(""172.16.94.48"", ""AABMOBILE"", ApproveLP, ""ApprovalStatus"")",Chrome 90.0.4430.85,,,2021-04-26 05:46:31,2021-04-26 05:46:31,0.432s,PASSED
"while (approvalType != ""null"" && OrdStatus != ""9"")",Chrome 90.0.4430.85,,,2021-04-26 05:46:31,2021-04-26 05:46:31,0.000s,PASSED
println(approvalTypeLP),Chrome 90.0.4430.85,,,2021-04-26 05:46:31,2021-04-26 05:46:31,0.000s,PASSED
"if (approvalTypeLP == ""0"")",Chrome 90.0.4430.85,,,2021-04-26 05:46:31,2021-04-26 05:46:31,0.000s,PASSED
delay(2),Chrome 90.0.4430.85,,,2021-04-26 05:46:31,2021-04-26 05:46:33,2.038s,PASSED
delay(2),Chrome 90.0.4430.85,,,2021-04-26 05:46:33,2021-04-26 05:46:35,2.021s,PASSED
delay(2),Chrome 90.0.4430.85,,,2021-04-26 05:46:35,2021-04-26 05:46:37,2.022s,PASSED
delay(2),Chrome 90.0.4430.85,,,2021-04-26 05:46:37,2021-04-26 05:46:39,2.018s,PASSED
"QueryOrderStatus = ""select * from mst_order WHERE Order_No = '"" + OtosalesOrderNo + ""'""",Chrome 90.0.4430.85,,,2021-04-26 05:46:40,2021-04-26 05:46:40,0.001s,PASSED
"OrderStatus = UI.getValueDatabase(""172.16.94.74"", ""AAB"", QueryOrderStatus, ""Order_Status"")",Chrome 90.0.4430.85,,,2021-04-26 05:46:40,2021-04-26 05:46:40,0.138s,PASSED
"QueryAABMobile = ""SELECT FollowUpInfo,* FROM followUp WHERE FollowUpNo = (SELECT followUpNo FROM OrderSimulation WHERE PolicyOrderNo = '"" + OtosalesOrderNo + ""')""",Chrome 90.0.4430.85,,,2021-04-26 05:46:40,2021-04-26 05:46:40,0.000s,PASSED
"description = UI.getValueDatabase(""172.16.94.48"", ""AABMobile"", QueryAABMobile, ""FollowUpInfo"")",Chrome 90.0.4430.85,,,2021-04-26 05:46:40,2021-04-26 05:46:41,0.857s,PASSED
"while (description != ""50"")",Chrome 90.0.4430.85,,,2021-04-26 05:46:41,2021-04-26 06:45:44,59m - 3.407s,PASSED
,,,,,,,
"Test Cases/SCENARIO/OTOSALES/Collaboration/NEW ORDER/LINK PAYMENT/MGO-AGENCY-Muncul Link Payment-CCFP/POL-IP-NONGODIG GO,COMP,M200,FULLCVR,PER,NOAPPADJ",Chrome 90.0.4430.85,,,2021-04-26 06:45:44,2021-04-26 06:46:29,44.598s,FAILED
"callTestCase(findTestCase(""SCENARIO/OTOSALES/LOGIN/Login MGO""), [:], STOP_ON_FAILURE)",Chrome 90.0.4430.85,,,2021-04-26 06:45:45,2021-04-26 06:46:29,43.826s,FAILED
