Suite/Test/Step Name,Browser,Description,Tag,Start time,End time,Duration,Status
"INPROSPECT-NONGODIG GO,COMP,M200,FULLCVR,PERSONAL - TELERENEWAL",Chrome 90.0.4430.93,,,2021-05-09 08:42:48,2021-05-09 08:44:09,1m - 21.309s,INCOMPLETE
,,,,,,,
"Test Cases/SCENARIO/OTOSALES/Collaboration/NEW ORDER/MVNONGODIG/SINGLE YEAR/Create Polis/INPROSPECT-NONGODIG GO,COMP,M200,FULLCVR,PERSONAL - TELERENEWAL",Chrome 90.0.4430.93,,,2021-05-09 08:42:49,2021-05-09 08:43:24,34.478s,FAILED
"callTestCase(findTestCase(""SCENARIO/OTOSALES/LOGIN/Login Telerenewal""), [:], STOP_ON_FAILURE)",Chrome 90.0.4430.93,,,2021-05-09 08:42:52,2021-05-09 08:43:24,31.663s,FAILED
,,,,,,,
Test Cases/SCENARIO/GEN5/TASKLIST SA/Tasklist,Chrome 90.0.4430.93,,,2021-05-09 08:43:24,2021-05-09 08:43:50,26.210s,FAILED
"callTestCase(findTestCase(""PAGE/GEN5/LOGIN/Login""), [""username"":""DOC"", ""password"":""ITG@nt1P455QC"", ""isSyariah"":false], STOP_ON_FAILURE)",Chrome 90.0.4430.93,,,2021-05-09 08:43:26,2021-05-09 08:43:50,24.320s,FAILED
,,,,,,,
Test Cases/SCENARIO/OTOSALES/APPROVAL/Approval TELE,Chrome 90.0.4430.93,,,2021-05-09 08:43:50,2021-05-09 08:44:09,18.845s,ERROR
"QueryAABHead = ""SELECT TOP 1* FROM dbo.AABHead WHERE param = 'NIP'""",Chrome 90.0.4430.93,,,2021-05-09 08:43:53,2021-05-09 08:43:53,0.007s,PASSED
"Login = UI.getValueDatabase(""172.16.94.48"", ""AABMobile"", QueryAABHead, ""Value"")",Chrome 90.0.4430.93,,,2021-05-09 08:43:53,2021-05-09 08:44:09,16.236s,PASSED
