Suite/Test/Step Name,Browser,Description,Tag,Start time,End time,Duration,Status
TELESALES-GO-WIC-Muncul Link Payment-CCIP,Chrome 87.0.4280.66,,,2020-11-25 12:36:59,2020-11-25 13:23:24,46m - 25.161s,INCOMPLETE
,,,,,,,
"Test Cases/SCENARIO/OTOSALES/Collaboration/NEW ORDER/LINK PAYMENT/TELESALES-GO-WIC-Muncul Link Payment-CCIP/ORD-IP-NONGODIG GO,COMP,M200,FULLCVR,COM",Chrome 87.0.4280.66,,,2020-11-25 12:37:01,2020-11-25 12:48:26,11m - 25.215s,PASSED
"callTestCase(findTestCase(""SCENARIO/OTOSALES/LOGIN/Login Telesales""), [:], STOP_ON_FAILURE)",Chrome 87.0.4280.66,,,2020-11-25 12:37:03,2020-11-25 12:38:02,58.877s,PASSED
"callTestCase(findTestCase(""PAGE/OTOSALES/LOGIN/Side Menu-Switch""), [""menu"":""Input Prospect""], STOP_ON_FAILURE)",Chrome 87.0.4280.66,,,2020-11-25 12:38:02,2020-11-25 12:38:11,9.496s,PASSED
"callTestCase(findTestCase(""PAGE/OTOSALES/NEW/INPUT PROSPECT/1.Prospect Info""), [""MV"":""MV NON GODIG"", ""isCompany"":true, ""prospectName"":""Automate Customer Non Godig"", ""phone1"":""082127670262"", ""phone2"":""081290154328"", ... ], STOP_ON_FAILURE)",Chrome 87.0.4280.66,,,2020-11-25 12:38:11,2020-11-25 12:38:39,27.235s,PASSED
"callTestCase(findTestCase(""PAGE/OTOSALES/NEW/INPUT PROSPECT/2.Vehicle Info""), [""VehicleName"":""XPANDER 2018 ULTIMATE"", ""Usage"":""PRIBADI"", ""Region"":""Wilayah 2""], STOP_ON_FAILURE)",Chrome 87.0.4280.66,,,2020-11-25 12:38:39,2020-11-25 12:39:18,38.908s,PASSED
"callTestCase(findTestCase(""PAGE/OTOSALES/NEW/INPUT PROSPECT/3.Cover""), [""ProductType"":""Garda Oto"", ""ProductCode"":""GWU50"", ""Coverage"":""Comprehensive 1 Year"", ""TJH"":""25,000,000"", ""Terrorism"":true, ... ], STOP_ON_FAILURE)",Chrome 87.0.4280.66,,,2020-11-25 12:39:18,2020-11-25 12:40:42,1m - 24.491s,PASSED
"callTestCase(findTestCase(""PAGE/OTOSALES/LOGIN/Side Menu-Switch""), [""menu"":""Task List""], STOP_ON_FAILURE)",Chrome 87.0.4280.66,,,2020-11-25 12:40:42,2020-11-25 12:40:49,7.437s,PASSED
"callTestCase(findTestCase(""PAGE/OTOSALES/NEW/TASKLIST/1.Home""), [""Chassis"":ChassisNo, ""CustName"":ProspectName], STOP_ON_FAILURE)",Chrome 87.0.4280.66,,,2020-11-25 12:40:49,2020-11-25 12:41:13,23.788s,PASSED
"callTestCase(findTestCase(""PAGE/OTOSALES/NEW/TASKLIST/2.Tasklist""), [""birthDate"":""15/10/1989"", ""NomorNPWP"":""371829374123456"", ""JenisKelamin"":""Laki-Laki"", ""Alamat"":""Jalan Pelan - Pelan"", ""KodePos"":""55141"", ... ], STOP_ON_FAILURE)",Chrome 87.0.4280.66,,,2020-11-25 12:41:13,2020-11-25 12:45:13,4m - 0.260s,PASSED
"callTestCase(findTestCase(""PAGE/OTOSALES/NEW/TASKLIST/3.FollowUp""), [""Reason"":""Send to SA"", ""Notes"":""Contacted"", ""Receiver"":""Sir Cok Kotelawala"", ""Remarks"":""Created by Katalon Studio"", ""ProspectName"":ProspectName], STOP_ON_FAILURE)",Chrome 87.0.4280.66,,,2020-11-25 12:45:13,2020-11-25 12:48:26,3m - 12.832s,PASSED
,,,,,,,
Test Cases/SCENARIO/GEN5/TASKLIST SA/Tasklist,Chrome 87.0.4280.66,,,2020-11-25 12:48:26,2020-11-25 12:57:20,8m - 53.884s,PASSED
"callTestCase(findTestCase(""PAGE/GEN5/LOGIN/Login""), [""username"":""DOC"", ""password"":""ITG@nt1P455QC"", ""isSyariah"":false], STOP_ON_FAILURE)",Chrome 87.0.4280.66,,,2020-11-25 12:48:28,2020-11-25 12:48:56,28.589s,PASSED
"callTestCase(findTestCase(""PAGE/GEN5/HOME/Side Menu""), [""SideMenu"":""Task List SA""], STOP_ON_FAILURE)",Chrome 87.0.4280.66,,,2020-11-25 12:48:56,2020-11-25 12:49:17,21.274s,PASSED
"callTestCase(findTestCase(""PAGE/GEN5/TASKLIST SA/Dashboard""), [""SearchBy"":""Order No"", ""Parameter"":OtosalesOrderNo], STOP_ON_FAILURE)",Chrome 87.0.4280.66,,,2020-11-25 12:49:17,2020-11-25 12:50:35,1m - 17.302s,PASSED
"callTestCase(findTestCase(""PAGE/GEN5/TASKLIST SA/Tasklist SA""), [""changePolicyHolder"":false, ""SearchParam"":""Name"", ""PolicyHolderName"":""Sir Cok Kotelawala"", ""NameOnPolicy"":""Default"", ""EmailDelivery"":""Customer"", ... ], STOP_ON_FAILURE)",Chrome 87.0.4280.66,,,2020-11-25 12:50:35,2020-11-25 12:57:20,6m - 45.472s,PASSED
,,,,,,,
Test Cases/SCENARIO/OTOSALES/APPROVAL/Approval TELE,Chrome 87.0.4280.66,,,2020-11-25 12:57:20,2020-11-25 13:12:34,15m - 13.485s,PASSED
"QueryAABHead = ""SELECT TOP 1* FROM dbo.AABHead WHERE param = 'NIP'""",Chrome 87.0.4280.66,,,2020-11-25 12:57:21,2020-11-25 12:57:21,0.001s,PASSED
"Login = UI.getValueDatabase(""172.16.94.48"", ""AABMobile"", QueryAABHead, ""Value"")",Chrome 87.0.4280.66,,,2020-11-25 12:57:21,2020-11-25 12:57:21,0.382s,PASSED
"Approve = ""SELECT TOP 1* FROM mst_order_mobile_approval where Order_no = '"" + OtosalesOrderNo + ""' and ApprovalStatus = '0' order by ApprovalType ASC""",Chrome 87.0.4280.66,,,2020-11-25 12:57:21,2020-11-25 12:57:21,0.002s,PASSED
"approvalType = UI.getValueDatabase(""172.16.94.74"", ""AAB"", Approve, ""ApprovalType"")",Chrome 87.0.4280.66,,,2020-11-25 12:57:21,2020-11-25 12:57:21,0.134s,PASSED
"while (approvalType != ""null"")",Chrome 87.0.4280.66,,,2020-11-25 12:57:21,2020-11-25 13:04:21,6m - 59.756s,PASSED
delay(2),Chrome 87.0.4280.66,,,2020-11-25 13:04:21,2020-11-25 13:04:23,2.007s,PASSED
general.scheduler.Otosales_Approval_Gen5(),Chrome 87.0.4280.66,,,2020-11-25 13:04:23,2020-11-25 13:05:58,1m - 34.426s,PASSED
delay(2),Chrome 87.0.4280.66,,,2020-11-25 13:05:58,2020-11-25 13:06:00,2.006s,PASSED
general.scheduler.Otosales_Approval_New(),Chrome 87.0.4280.66,,,2020-11-25 13:06:00,2020-11-25 13:08:41,2m - 41.455s,PASSED
delay(2),Chrome 87.0.4280.66,,,2020-11-25 13:08:41,2020-11-25 13:08:43,2.030s,PASSED
general.scheduler.Otosales_Approval_Next_Limit(),Chrome 87.0.4280.66,,,2020-11-25 13:08:43,2020-11-25 13:11:26,2m - 43.175s,PASSED
delay(2),Chrome 87.0.4280.66,,,2020-11-25 13:11:26,2020-11-25 13:11:28,2.009s,PASSED
general.scheduler.Otosales_MonitorOrder(),Chrome 87.0.4280.66,,,2020-11-25 13:11:28,2020-11-25 13:12:32,1m - 3.741s,PASSED
closeBrowser(),Chrome 87.0.4280.66,,,2020-11-25 13:12:32,2020-11-25 13:12:34,1.623s,PASSED
,,,,,,,
"Test Cases/SCENARIO/OTOSALES/Collaboration/NEW ORDER/LINK PAYMENT/TELESALES-GO-WIC-Muncul Link Payment-CCIP/POL-IP-NONGODIG GO,COMP,M200,FULLCVR,COM",Chrome 87.0.4280.66,,,2020-11-25 13:12:34,2020-11-25 13:16:10,3m - 35.951s,FAILED
"callTestCase(findTestCase(""SCENARIO/OTOSALES/LOGIN/Login Telesales""), [:], STOP_ON_FAILURE)",Chrome 87.0.4280.66,,,2020-11-25 13:12:35,2020-11-25 13:14:12,1m - 37.524s,PASSED
"callTestCase(findTestCase(""PAGE/OTOSALES/LOGIN/Side Menu-Switch""), [""menu"":""Task List""], STOP_ON_FAILURE)",Chrome 87.0.4280.66,,,2020-11-25 13:14:12,2020-11-25 13:14:27,14.752s,PASSED
"callTestCase(findTestCase(""PAGE/OTOSALES/NEW/TASKLIST/1.Home""), [""Chassis"":ChassisNo, ""CustName"":ProspectName], STOP_ON_FAILURE)",Chrome 87.0.4280.66,,,2020-11-25 13:14:27,2020-11-25 13:16:10,1m - 42.448s,FAILED
,,,,,,,
Test Cases/SCENARIO/OTOSALES/APPROVAL/Approval TELE,Chrome 87.0.4280.66,,,2020-11-25 13:16:10,2020-11-25 13:23:24,7m - 14.537s,PASSED
"QueryAABHead = ""SELECT TOP 1* FROM dbo.AABHead WHERE param = 'NIP'""",Chrome 87.0.4280.66,,,2020-11-25 13:16:10,2020-11-25 13:16:10,0.001s,PASSED
"Login = UI.getValueDatabase(""172.16.94.48"", ""AABMobile"", QueryAABHead, ""Value"")",Chrome 87.0.4280.66,,,2020-11-25 13:16:10,2020-11-25 13:16:10,0.186s,PASSED
"Approve = ""SELECT TOP 1* FROM mst_order_mobile_approval where Order_no = '"" + OtosalesOrderNo + ""' and ApprovalStatus = '0' order by ApprovalType ASC""",Chrome 87.0.4280.66,,,2020-11-25 13:16:10,2020-11-25 13:16:10,0.001s,PASSED
"approvalType = UI.getValueDatabase(""172.16.94.74"", ""AAB"", Approve, ""ApprovalType"")",Chrome 87.0.4280.66,,,2020-11-25 13:16:10,2020-11-25 13:16:10,0.250s,PASSED
"while (approvalType != ""null"")",Chrome 87.0.4280.66,,,2020-11-25 13:16:10,2020-11-25 13:16:10,0.001s,PASSED
delay(2),Chrome 87.0.4280.66,,,2020-11-25 13:16:10,2020-11-25 13:16:12,2.007s,PASSED
general.scheduler.Otosales_Approval_Gen5(),Chrome 87.0.4280.66,,,2020-11-25 13:16:12,2020-11-25 13:18:23,2m - 10.902s,PASSED
delay(2),Chrome 87.0.4280.66,,,2020-11-25 13:18:23,2020-11-25 13:18:25,2.005s,PASSED
general.scheduler.Otosales_Approval_New(),Chrome 87.0.4280.66,,,2020-11-25 13:18:25,2020-11-25 13:20:54,2m - 28.768s,PASSED
delay(2),Chrome 87.0.4280.66,,,2020-11-25 13:20:54,2020-11-25 13:20:56,2.020s,PASSED
general.scheduler.Otosales_Approval_Next_Limit(),Chrome 87.0.4280.66,,,2020-11-25 13:20:56,2020-11-25 13:22:36,1m - 39.844s,PASSED
delay(2),Chrome 87.0.4280.66,,,2020-11-25 13:22:36,2020-11-25 13:22:38,2.007s,PASSED
general.scheduler.Otosales_MonitorOrder(),Chrome 87.0.4280.66,,,2020-11-25 13:22:38,2020-11-25 13:23:22,44.517s,PASSED
closeBrowser(),Chrome 87.0.4280.66,,,2020-11-25 13:23:22,2020-11-25 13:23:24,1.983s,PASSED
