Suite/Test/Step Name,Browser,Description,Tag,Start time,End time,Duration,Status
"INPROSPECT-NONGODIG SYARIAH,COMP,M200,FULLCVR,COMPANY,KOMISI,NOAPPADJ - AO",Chrome 87.0.4280.66,,,2020-11-25 20:02:28,2020-11-25 20:33:43,31m - 15.472s,INCOMPLETE
,,,,,,,
"Test Cases/SCENARIO/OTOSALES/Collaboration/NEW ORDER/MVNONGODIG/SINGLE YEAR/Create Polis/INPROSPECT-NONGODIG SYARIAH,COMP,M200,FULLCVR,COMPANY,KOMISI,NOAPPADJ - AO",Chrome 87.0.4280.66,,,2020-11-25 20:02:29,2020-11-25 20:16:14,13m - 44.371s,PASSED
"callTestCase(findTestCase(""SCENARIO/OTOSALES/LOGIN/Login AO""), [:], STOP_ON_FAILURE)",Chrome 87.0.4280.66,,,2020-11-25 20:02:31,2020-11-25 20:03:22,50.865s,PASSED
"callTestCase(findTestCase(""PAGE/OTOSALES/LOGIN/Side Menu-Switch""), [""menu"":""Input Prospect""], STOP_ON_FAILURE)",Chrome 87.0.4280.66,,,2020-11-25 20:03:22,2020-11-25 20:03:31,8.262s,PASSED
"callTestCase(findTestCase(""PAGE/OTOSALES/NEW/INPUT PROSPECT/1.Prospect Info""), [""MV"":""MV NON GODIG"", ""isCompany"":true, ""prospectName"":""Automate Customer Non Godig"", ""phone1"":""082127670262"", ""phone2"":""081290154328"", ... ], STOP_ON_FAILURE)",Chrome 87.0.4280.66,,,2020-11-25 20:03:31,2020-11-25 20:04:05,34.466s,PASSED
"callTestCase(findTestCase(""PAGE/OTOSALES/NEW/INPUT PROSPECT/2.Vehicle Info""), [""VehicleName"":""XPANDER 2018 ULTIMATE"", ""Usage"":""PRIBADI"", ""Region"":""Wilayah 2""], STOP_ON_FAILURE)",Chrome 87.0.4280.66,,,2020-11-25 20:04:05,2020-11-25 20:04:34,28.454s,PASSED
"callTestCase(findTestCase(""PAGE/OTOSALES/NEW/INPUT PROSPECT/3.Cover""), [""ProductType"":""Garda Oto Syariah"", ""ProductCode"":""GDU0S"", ""Coverage"":""Comprehensive 1 Year"", ""TJH"":""25,000,000"", ""Terrorism"":true, ... ], STOP_ON_FAILURE)",Chrome 87.0.4280.66,,,2020-11-25 20:04:34,2020-11-25 20:05:45,1m - 11.678s,PASSED
"callTestCase(findTestCase(""PAGE/OTOSALES/LOGIN/Side Menu-Switch""), [""menu"":""Task List""], STOP_ON_FAILURE)",Chrome 87.0.4280.66,,,2020-11-25 20:05:45,2020-11-25 20:05:53,7.763s,PASSED
"callTestCase(findTestCase(""PAGE/OTOSALES/NEW/TASKLIST/1.Home""), [""Chassis"":ChassisNo, ""CustName"":ProspectName], STOP_ON_FAILURE)",Chrome 87.0.4280.66,,,2020-11-25 20:05:53,2020-11-25 20:06:09,16.197s,PASSED
"callTestCase(findTestCase(""PAGE/OTOSALES/NEW/TASKLIST/2.Tasklist""), [""birthDate"":""15/10/1989"", ""NomorNPWP"":""371829374123456"", ""JenisKelamin"":""Laki-Laki"", ""Alamat"":""Jalan Pelan - Pelan"", ""KodePos"":""55141"", ... ], STOP_ON_FAILURE)",Chrome 87.0.4280.66,,,2020-11-25 20:06:09,2020-11-25 20:10:29,4m - 19.943s,PASSED
"callTestCase(findTestCase(""PAGE/OTOSALES/NEW/TASKLIST/3.FollowUp""), [""Reason"":""Send to SA"", ""Notes"":""Contacted"", ""Receiver"":""Sir Cok Kotelawala"", ""Remarks"":""Created by Katalon Studio"", ""ProspectName"":ProspectName], STOP_ON_FAILURE)",Chrome 87.0.4280.66,,,2020-11-25 20:10:29,2020-11-25 20:16:14,5m - 44.666s,PASSED
,,,,,,,
Test Cases/SCENARIO/GEN5/TASKLIST SA/Tasklist Syariah,Chrome 87.0.4280.66,,,2020-11-25 20:16:14,2020-11-25 20:25:55,9m - 41.683s,PASSED
"callTestCase(findTestCase(""PAGE/GEN5/LOGIN/Login""), [""username"":""DOC"", ""password"":""ITG@nt1P455QC"", ""isSyariah"":true], STOP_ON_FAILURE)",Chrome 87.0.4280.66,,,2020-11-25 20:16:15,2020-11-25 20:16:44,28.416s,PASSED
"callTestCase(findTestCase(""PAGE/GEN5/HOME/Side Menu""), [""SideMenu"":""Task List SA""], STOP_ON_FAILURE)",Chrome 87.0.4280.66,,,2020-11-25 20:16:44,2020-11-25 20:17:04,20.040s,PASSED
"callTestCase(findTestCase(""PAGE/GEN5/TASKLIST SA/Dashboard""), [""SearchBy"":""Order No"", ""Parameter"":OtosalesOrderNo], STOP_ON_FAILURE)",Chrome 87.0.4280.66,,,2020-11-25 20:17:04,2020-11-25 20:18:18,1m - 14.299s,PASSED
"callTestCase(findTestCase(""PAGE/GEN5/TASKLIST SA/Tasklist SA""), [""changePolicyHolder"":false, ""SearchParam"":""Name"", ""PolicyHolderName"":""Sir Cok Kotelawala"", ""NameOnPolicy"":""Default"", ""EmailDelivery"":""Customer"", ... ], STOP_ON_FAILURE)",Chrome 87.0.4280.66,,,2020-11-25 20:18:18,2020-11-25 20:25:55,7m - 37.330s,PASSED
,,,,,,,
Test Cases/SCENARIO/OTOSALES/APPROVAL/Approval AO,Chrome 87.0.4280.66,,,2020-11-25 20:25:55,2020-11-25 20:33:43,7m - 47.580s,PASSED
"QuerySalesOfficer = ""SELECT TOP 1* FROM dbo.SalesOfficer WHERE SalesOfficerID = '"" + OtosalesLogin + ""'""",Chrome 87.0.4280.66,,,2020-11-25 20:25:56,2020-11-25 20:25:56,0.003s,PASSED
"BranchCode = UI.getValueDatabase(""172.16.94.48"", ""AABMobile"", QuerySalesOfficer, ""BranchCode"")",Chrome 87.0.4280.66,,,2020-11-25 20:25:56,2020-11-25 20:25:57,1.062s,PASSED
"QueryAABHead = ""SELECT TOP 1* FROM dbo.AABHead WHERE param = '"" + BranchCode + ""' and RowStatus = '1'""",Chrome 87.0.4280.66,,,2020-11-25 20:25:57,2020-11-25 20:25:57,0.002s,PASSED
"Login = UI.getValueDatabase(""172.16.94.48"", ""AABMobile"", QueryAABHead, ""Value"")",Chrome 87.0.4280.66,,,2020-11-25 20:25:57,2020-11-25 20:25:57,0.143s,PASSED
Userlogin = OtosalesLogin,Chrome 87.0.4280.66,,,2020-11-25 20:25:57,2020-11-25 20:25:57,0.002s,PASSED
"Approve = ""SELECT TOP 1* FROM mst_order_mobile_approval where Order_no = '"" + OtosalesOrderNo + ""' and ApprovalStatus = '0' order by ApprovalType ASC""",Chrome 87.0.4280.66,,,2020-11-25 20:25:57,2020-11-25 20:25:57,0.002s,PASSED
"approvalType = UI.getValueDatabase(""172.16.94.74"", ""AAB"", Approve, ""ApprovalType"")",Chrome 87.0.4280.66,,,2020-11-25 20:25:57,2020-11-25 20:25:58,0.685s,PASSED
"while (approvalType != ""null"")",Chrome 87.0.4280.66,,,2020-11-25 20:25:58,2020-11-25 20:25:58,0.002s,PASSED
delay(2),Chrome 87.0.4280.66,,,2020-11-25 20:25:58,2020-11-25 20:26:00,2.006s,PASSED
general.scheduler.Otosales_Approval_Gen5(),Chrome 87.0.4280.66,,,2020-11-25 20:26:00,2020-11-25 20:27:57,1m - 57.220s,PASSED
delay(2),Chrome 87.0.4280.66,,,2020-11-25 20:27:57,2020-11-25 20:27:59,2.006s,PASSED
general.scheduler.Otosales_Approval_New(),Chrome 87.0.4280.66,,,2020-11-25 20:27:59,2020-11-25 20:30:36,2m - 36.673s,PASSED
delay(2),Chrome 87.0.4280.66,,,2020-11-25 20:30:36,2020-11-25 20:30:38,2.008s,PASSED
general.scheduler.Otosales_Approval_Next_Limit(),Chrome 87.0.4280.66,,,2020-11-25 20:30:38,2020-11-25 20:32:39,2m - 0.895s,PASSED
delay(2),Chrome 87.0.4280.66,,,2020-11-25 20:32:39,2020-11-25 20:32:41,2.008s,PASSED
general.scheduler.Otosales_MonitorOrder(),Chrome 87.0.4280.66,,,2020-11-25 20:32:41,2020-11-25 20:33:43,1m - 2.096s,PASSED
closeBrowser(),Chrome 87.0.4280.66,,,2020-11-25 20:33:43,2020-11-25 20:33:43,0.013s,PASSED
