Suite/Test/Step Name,Browser,Description,Tag,Start time,End time,Duration,Status
"INPROSPECT-NONGODIG TI,COMP,M200,FULLCVR,COMPANY - AO - UMA",Chrome 87.0.4280.88,,,2020-12-15 16:29:56,2020-12-15 16:36:15,6m - 18.972s,INCOMPLETE
,,,,,,,
"Test Cases/SCENARIO/OTOSALES/Collaboration/NEW ORDER/MVNONGODIG/SINGLE YEAR/Create Polis/INPROSPECT-NONGODIG TI,COMP,M200,FULLCVR,COMPANY - AO - UMA",Chrome 87.0.4280.88,,,2020-12-15 16:30:01,2020-12-15 16:31:52,1m - 50.970s,FAILED
"callTestCase(findTestCase(""SCENARIO/OTOSALES/LOGIN/Login CSO Cabang""), [:], STOP_ON_FAILURE)",Chrome 87.0.4280.88,,,2020-12-15 16:30:04,2020-12-15 16:31:52,1m - 47.212s,FAILED
,,,,,,,
Test Cases/SCENARIO/GEN5/TASKLIST SA/Tasklist,Chrome 87.0.4280.88,,,2020-12-15 16:31:52,2020-12-15 16:36:15,4m - 22.813s,FAILED
"callTestCase(findTestCase(""PAGE/GEN5/LOGIN/Login""), [""username"":""DOC"", ""password"":""ITG@nt1P455QC"", ""isSyariah"":false], STOP_ON_FAILURE)",Chrome 87.0.4280.88,,,2020-12-15 16:31:53,2020-12-15 16:32:54,1m - 0.973s,PASSED
"callTestCase(findTestCase(""PAGE/GEN5/HOME/Side Menu""), [""SideMenu"":""Task List SA""], STOP_ON_FAILURE)",Chrome 87.0.4280.88,,,2020-12-15 16:32:54,2020-12-15 16:33:23,28.484s,PASSED
"callTestCase(findTestCase(""PAGE/GEN5/TASKLIST SA/Dashboard""), [""SearchBy"":""Order No"", ""Parameter"":OtosalesOrderNo], STOP_ON_FAILURE)",Chrome 87.0.4280.88,,,2020-12-15 16:33:23,2020-12-15 16:34:33,1m - 10.714s,PASSED
"callTestCase(findTestCase(""PAGE/GEN5/TASKLIST SA/Tasklist SA""), [""changePolicyHolder"":false, ""SearchParam"":""Name"", ""PolicyHolderName"":""Sir Cok Kotelawala"", ""NameOnPolicy"":""Default"", ""EmailDelivery"":""Customer"", ... ], STOP_ON_FAILURE)",Chrome 87.0.4280.88,,,2020-12-15 16:34:33,2020-12-15 16:36:15,1m - 41.178s,FAILED
