Suite/Test/Step Name,Browser,Description,Tag,Start time,End time,Duration,Status
"INPROSPECT-NONGODIG GO,COMP,M200,FULLCVR,PERSONAL - TELERENEWAL",Chrome 90.0.4430.93,,,2021-05-09 08:11:47,2021-05-09 08:13:07,1m - 19.801s,INCOMPLETE
,,,,,,,
"Test Cases/SCENARIO/OTOSALES/Collaboration/NEW ORDER/MVNONGODIG/SINGLE YEAR/Create Polis/INPROSPECT-NONGODIG GO,COMP,M200,FULLCVR,PERSONAL - TELERENEWAL",Chrome 90.0.4430.93,,,2021-05-09 08:11:50,2021-05-09 08:12:23,32.866s,FAILED
"callTestCase(findTestCase(""SCENARIO/OTOSALES/LOGIN/Login Telerenewal""), [:], STOP_ON_FAILURE)",Chrome 90.0.4430.93,,,2021-05-09 08:11:53,2021-05-09 08:12:23,30.243s,FAILED
,,,,,,,
Test Cases/SCENARIO/GEN5/TASKLIST SA/Tasklist,Chrome 90.0.4430.93,,,2021-05-09 08:12:23,2021-05-09 08:12:48,24.671s,FAILED
"callTestCase(findTestCase(""PAGE/GEN5/LOGIN/Login""), [""username"":""DOC"", ""password"":""ITG@nt1P455QC"", ""isSyariah"":false], STOP_ON_FAILURE)",Chrome 90.0.4430.93,,,2021-05-09 08:12:25,2021-05-09 08:12:48,22.796s,FAILED
,,,,,,,
Test Cases/SCENARIO/OTOSALES/APPROVAL/Approval TELE,Chrome 90.0.4430.93,,,2021-05-09 08:12:48,2021-05-09 08:13:07,18.756s,ERROR
"QueryAABHead = ""SELECT TOP 1* FROM dbo.AABHead WHERE param = 'NIP'""",Chrome 90.0.4430.93,,,2021-05-09 08:12:51,2021-05-09 08:12:51,0.005s,PASSED
"Login = UI.getValueDatabase(""172.16.94.48"", ""AABMobile"", QueryAABHead, ""Value"")",Chrome 90.0.4430.93,,,2021-05-09 08:12:51,2021-05-09 08:13:07,16.285s,PASSED
