Suite/Test/Step Name,Browser,Description,Tag,Start time,End time,Duration,Status
"INPROSPECT-NONGODIG GO,COMP,M200,FULLCVR,PERSONAL - TELERENEWAL",Chrome 91.0.4472.77,,,2021-06-08 09:39:20,2021-06-08 09:51:53,12m - 32.848s,INCOMPLETE
,,,,,,,
"Test Cases/SCENARIO/OTOSALES/Collaboration/NEW ORDER/MVNONGODIG/SINGLE YEAR/Create Polis/INPROSPECT-NONGODIG GO,COMP,M200,FULLCVR,PERSONAL - TELERENEWAL",Chrome 91.0.4472.77,,,2021-06-08 09:39:24,2021-06-08 09:43:49,4m - 24.725s,ERROR
"callTestCase(findTestCase(""SCENARIO/OTOSALES/LOGIN/Login Telerenewal""), [:], STOP_ON_FAILURE)",Chrome 91.0.4472.77,,,2021-06-08 09:39:32,2021-06-08 09:41:56,2m - 23.167s,PASSED
"callTestCase(findTestCase(""PAGE/OTOSALES/LOGIN/Side Menu-Switch""), [""menu"":""Input Prospect""], STOP_ON_FAILURE)",Chrome 91.0.4472.77,,,2021-06-08 09:41:56,2021-06-08 09:43:22,1m - 26.317s,PASSED
"callTestCase(findTestCase(""PAGE/OTOSALES/NEW/INPUT PROSPECT/1.Prospect Info""), [""MV"":""MV NON GODIG"", ""isCompany"":false, ""prospectName"":""Test Otosales Telerenewal WIC PER HRM K200 MY"", ""phone1"":""082127670262"", ... ], STOP_ON_FAILURE)",Chrome 91.0.4472.77,,,2021-06-08 09:43:22,2021-06-08 09:43:49,26.976s,FAILED
,,,,,,,
Test Cases/SCENARIO/GEN5/TASKLIST SA/Tasklist,Chrome 91.0.4472.77,,,2021-06-08 09:43:49,2021-06-08 09:51:19,7m - 29.451s,FAILED
"callTestCase(findTestCase(""PAGE/GEN5/LOGIN/Login""), [""username"":""DOC"", ""password"":""ITG@nt1P455QC"", ""isSyariah"":false], STOP_ON_FAILURE)",Chrome 91.0.4472.77,,,2021-06-08 09:43:51,2021-06-08 09:46:33,2m - 42.086s,PASSED
"callTestCase(findTestCase(""PAGE/GEN5/HOME/Side Menu""), [""SideMenu"":""Task List SA""], STOP_ON_FAILURE)",Chrome 91.0.4472.77,,,2021-06-08 09:46:33,2021-06-08 09:48:01,1m - 28.103s,PASSED
"callTestCase(findTestCase(""PAGE/GEN5/TASKLIST SA/Dashboard""), [""SearchBy"":""Order No"", ""Parameter"":OtosalesOrderNo], STOP_ON_FAILURE)",Chrome 91.0.4472.77,,,2021-06-08 09:48:01,2021-06-08 09:51:05,3m - 3.361s,PASSED
"callTestCase(findTestCase(""PAGE/GEN5/TASKLIST SA/Tasklist SA""), [""changePolicyHolder"":false, ""SearchParam"":""Name"", ""PolicyHolderName"":""Sir Cok Kotelawala"", ""NameOnPolicy"":""Default"", ""EmailDelivery"":""Customer"", ... ], STOP_ON_FAILURE)",Chrome 91.0.4472.77,,,2021-06-08 09:51:05,2021-06-08 09:51:19,13.810s,FAILED
,,,,,,,
Test Cases/SCENARIO/OTOSALES/APPROVAL/Approval TELE,Chrome 91.0.4472.77,,,2021-06-08 09:51:19,2021-06-08 09:51:53,34.557s,PASSED
"QueryAABHead = ""SELECT TOP 1* FROM dbo.AABHead WHERE param = 'NIP'""",Chrome 91.0.4472.77,,,2021-06-08 09:51:21,2021-06-08 09:51:21,0.002s,PASSED
"Login = UI.getValueDatabase(""172.16.94.48"", ""AABMobile"", QueryAABHead, ""Value"")",Chrome 91.0.4472.77,,,2021-06-08 09:51:21,2021-06-08 09:51:24,2.579s,PASSED
"Approve = ""SELECT TOP 1* FROM mst_order_mobile_approval where Order_no = '"" + OtosalesOrderNo + ""' and ApprovalStatus = '0' order by ApprovalType ASC""",Chrome 91.0.4472.77,,,2021-06-08 09:51:24,2021-06-08 09:51:24,0.003s,PASSED
"approvalType = UI.getValueDatabase(""172.16.94.74"", ""AAB"", Approve, ""ApprovalType"")",Chrome 91.0.4472.77,,,2021-06-08 09:51:24,2021-06-08 09:51:26,2.412s,PASSED
"QueryMstOrder = ""SELECT * FROM mst_order WHERE Order_No = '"" + OtosalesOrderNo + ""'""",Chrome 91.0.4472.77,,,2021-06-08 09:51:26,2021-06-08 09:51:26,0.002s,PASSED
"OrdStatus = UI.getValueDatabase(""172.16.94.74"", ""AAB"", QueryMstOrder, ""Order_Status"")",Chrome 91.0.4472.77,,,2021-06-08 09:51:26,2021-06-08 09:51:30,3.310s,PASSED
"OrderNo = ""SELECT * FROM dbo.OrderSimulation WHERE PolicyOrderno = '"" + OtosalesOrderNo + ""'""",Chrome 91.0.4472.77,,,2021-06-08 09:51:30,2021-06-08 09:51:30,0.002s,PASSED
"OrderNoLong = UI.getValueDatabase(""172.16.94.48"", ""AABMOBILE"", OrderNo, ""OrderNo"")",Chrome 91.0.4472.77,,,2021-06-08 09:51:30,2021-06-08 09:51:31,1.769s,PASSED
"ApproveLP = ""SELECT * FROM dbo.OrderSimulationApproval where OrderNo = '"" + OrderNoLong + ""' and RowStatus = '1' and ApprovalStatus = '0'""",Chrome 91.0.4472.77,,,2021-06-08 09:51:31,2021-06-08 09:51:31,0.002s,PASSED
"approvalTypeLP = UI.getValueDatabase(""172.16.94.48"", ""AABMOBILE"", ApproveLP, ""ApprovalStatus"")",Chrome 91.0.4472.77,,,2021-06-08 09:51:31,2021-06-08 09:51:33,1.248s,PASSED
println(approvalType),Chrome 91.0.4472.77,,,2021-06-08 09:51:33,2021-06-08 09:51:33,0.016s,PASSED
println(OrdStatus),Chrome 91.0.4472.77,,,2021-06-08 09:51:33,2021-06-08 09:51:33,0.008s,PASSED
"while (approvalType != ""null"" && OrdStatus != ""9"")",Chrome 91.0.4472.77,,,2021-06-08 09:51:33,2021-06-08 09:51:33,0.002s,PASSED
println(approvalTypeLP),Chrome 91.0.4472.77,,,2021-06-08 09:51:33,2021-06-08 09:51:33,0.002s,PASSED
"if (approvalTypeLP == ""0"")",Chrome 91.0.4472.77,,,2021-06-08 09:51:33,2021-06-08 09:51:33,0.002s,PASSED
delay(2),Chrome 91.0.4472.77,,,2021-06-08 09:51:33,2021-06-08 09:51:35,2.017s,PASSED
delay(2),Chrome 91.0.4472.77,,,2021-06-08 09:51:35,2021-06-08 09:51:37,2.014s,PASSED
delay(2),Chrome 91.0.4472.77,,,2021-06-08 09:51:37,2021-06-08 09:51:39,2.014s,PASSED
delay(2),Chrome 91.0.4472.77,,,2021-06-08 09:51:39,2021-06-08 09:51:41,2.070s,PASSED
"QueryOrderStatus = ""select * from mst_order WHERE Order_No = '"" + OtosalesOrderNo + ""'""",Chrome 91.0.4472.77,,,2021-06-08 09:51:41,2021-06-08 09:51:41,0.003s,PASSED
"OrderStatus = UI.getValueDatabase(""172.16.94.74"", ""AAB"", QueryOrderStatus, ""Order_Status"")",Chrome 91.0.4472.77,,,2021-06-08 09:51:41,2021-06-08 09:51:43,2.586s,PASSED
"QueryAABMobile = ""SELECT FollowUpInfo,* FROM followUp WHERE FollowUpNo = (SELECT followUpNo FROM OrderSimulation WHERE PolicyOrderNo = '"" + OtosalesOrderNo + ""')""",Chrome 91.0.4472.77,,,2021-06-08 09:51:43,2021-06-08 09:51:43,0.003s,PASSED
"description = UI.getValueDatabase(""172.16.94.48"", ""AABMobile"", QueryAABMobile, ""FollowUpInfo"")",Chrome 91.0.4472.77,,,2021-06-08 09:51:43,2021-06-08 09:51:48,4.286s,PASSED
"while (description != ""50"")",Chrome 91.0.4472.77,,,2021-06-08 09:51:48,2021-06-08 09:51:48,0.002s,PASSED
println(description),Chrome 91.0.4472.77,,,2021-06-08 09:51:48,2021-06-08 09:51:48,0.004s,PASSED
closeBrowser(),Chrome 91.0.4472.77,,,2021-06-08 09:51:48,2021-06-08 09:51:53,5.519s,PASSED
