Suite/Test/Step Name,Browser,Description,Tag,Start time,End time,Duration,Status
"INPROSPECT-NONGODIG SYARIAH,COMP,M200,FULLCVR,PERSONAL,KOMISI,NOAPPADJ - AO",Chrome 87.0.4280.66,,,2020-11-27 01:14:18,2020-11-27 01:17:32,3m - 13.797s,INCOMPLETE
,,,,,,,
"Test Cases/SCENARIO/OTOSALES/Collaboration/NEW ORDER/MVNONGODIG/SINGLE YEAR/Create Polis/INPROSPECT-NONGODIG SYARIAH,COMP,M200,FULLCVR,PERSONAL,KOMISI,NOAPPADJ - AO",Chrome 87.0.4280.66,,,2020-11-27 01:14:21,2020-11-27 01:15:48,1m - 27.473s,FAILED
"callTestCase(findTestCase(""SCENARIO/OTOSALES/LOGIN/Login AO""), [:], STOP_ON_FAILURE)",Chrome 87.0.4280.66,,,2020-11-27 01:14:23,2020-11-27 01:15:48,1m - 24.978s,FAILED
,,,,,,,
Test Cases/SCENARIO/GEN5/TASKLIST SA/Tasklist Syariah,Chrome 87.0.4280.66,,,2020-11-27 01:15:48,2020-11-27 01:17:09,1m - 20.457s,FAILED
"callTestCase(findTestCase(""PAGE/GEN5/LOGIN/Login""), [""username"":""DOC"", ""password"":""ITG@nt1P455QC"", ""isSyariah"":true], STOP_ON_FAILURE)",Chrome 87.0.4280.66,,,2020-11-27 01:15:50,2020-11-27 01:17:09,1m - 18.977s,FAILED
,,,,,,,
Test Cases/SCENARIO/OTOSALES/APPROVAL/Approval AO,Chrome 87.0.4280.66,,,2020-11-27 01:17:09,2020-11-27 01:17:32,23.437s,ERROR
"QuerySalesOfficer = ""SELECT TOP 1* FROM dbo.SalesOfficer WHERE SalesOfficerID = '"" + OtosalesLogin + ""'""",Chrome 87.0.4280.66,,,2020-11-27 01:17:11,2020-11-27 01:17:16,5.533s,PASSED
"BranchCode = UI.getValueDatabase(""172.16.94.48"", ""AABMobile"", QuerySalesOfficer, ""BranchCode"")",Chrome 87.0.4280.66,,,2020-11-27 01:17:16,2020-11-27 01:17:32,15.644s,PASSED
