Suite/Test/Step Name,Browser,Description,Tag,Start time,End time,Duration,Status
AO - SYARIAH - Tidak muncul Link Payment,Chrome 89.0.4389.114,,,2021-04-06 22:54:59,2021-04-06 23:02:27,7m - 28.419s,INCOMPLETE
,,,,,,,
"Test Cases/SCENARIO/OTOSALES/Collaboration/NEW ORDER/LINK PAYMENT/AO-GO-SYARIAH-Tidak muncul Link Payment/ORD-IP-NONGODIG SYARIAH,COMP,M200,FULLCVR,PER",Chrome 89.0.4389.114,,,2021-04-06 22:55:01,2021-04-06 23:00:01,5m - 0.039s,FAILED
"callTestCase(findTestCase(""SCENARIO/OTOSALES/LOGIN/Login AO""), [:], STOP_ON_FAILURE)",Chrome 89.0.4389.114,,,2021-04-06 22:55:04,2021-04-06 22:55:58,54.115s,PASSED
"callTestCase(findTestCase(""PAGE/OTOSALES/LOGIN/Side Menu-Switch""), [""menu"":""Input Prospect""], STOP_ON_FAILURE)",Chrome 89.0.4389.114,,,2021-04-06 22:55:58,2021-04-06 22:56:07,9.126s,PASSED
"callTestCase(findTestCase(""PAGE/OTOSALES/NEW/INPUT PROSPECT/1.Prospect Info""), [""MV"":""MV NON GODIG"", ""isCompany"":false, ""prospectName"":""Automate Customer Non Godig"", ""phone1"":""082127670262"", ""phone2"":""081290154328"", ... ], STOP_ON_FAILURE)",Chrome 89.0.4389.114,,,2021-04-06 22:56:07,2021-04-06 23:00:01,3m - 53.956s,FAILED
,,,,,,,
Test Cases/SCENARIO/GEN5/TASKLIST SA/Tasklist Syariah,Chrome 89.0.4389.114,,,2021-04-06 23:00:01,2021-04-06 23:00:57,55.358s,FAILED
"callTestCase(findTestCase(""PAGE/GEN5/LOGIN/Login""), [""username"":""DOC"", ""password"":""ITG@nt1P455QC"", ""isSyariah"":true], STOP_ON_FAILURE)",Chrome 89.0.4389.114,,,2021-04-06 23:00:03,2021-04-06 23:00:57,54.198s,FAILED
,,,,,,,
Test Cases/SCENARIO/OTOSALES/APPROVAL/Approval AO,Chrome 89.0.4389.114,,,2021-04-06 23:00:57,2021-04-06 23:01:13,16.316s,ERROR
"QuerySalesOfficer = ""SELECT TOP 1* FROM dbo.SalesOfficer WHERE SalesOfficerID = '"" + OtosalesLogin + ""'""",Chrome 89.0.4389.114,,,2021-04-06 23:00:58,2021-04-06 23:00:58,0.017s,PASSED
"BranchCode = UI.getValueDatabase(""172.16.94.48"", ""AABMobile"", QuerySalesOfficer, ""BranchCode"")",Chrome 89.0.4389.114,,,2021-04-06 23:00:58,2021-04-06 23:01:13,15.012s,PASSED
,,,,,,,
"Test Cases/SCENARIO/OTOSALES/Collaboration/NEW ORDER/LINK PAYMENT/AO-GO-SYARIAH-Tidak muncul Link Payment/POL-IP-NONGODIG SYARIAH,COMP,M200,FULLCVR,PER",Chrome 89.0.4389.114,,,2021-04-06 23:01:13,2021-04-06 23:02:27,1m - 14.364s,FAILED
"callTestCase(findTestCase(""SCENARIO/OTOSALES/LOGIN/Login AO""), [:], STOP_ON_FAILURE)",Chrome 89.0.4389.114,,,2021-04-06 23:01:14,2021-04-06 23:02:27,1m - 13.465s,FAILED
