Suite/Test/Step Name,Browser,Description,Tag,Start time,End time,Duration,Status
"INPROSPECT-NONGODIG SYARIAH,COMP,M200,FULLCVR,COMPANY - AO - UMA",Chrome 90.0.4430.212,,,2021-06-04 10:37:10,2021-06-04 10:41:23,4m - 12.369s,INCOMPLETE
,,,,,,,
"Test Cases/SCENARIO/OTOSALES/Collaboration/NEW ORDER/MVNONGODIG/SINGLE YEAR/Create Polis/INPROSPECT-NONGODIG SYARIAH,COMP,M200,FULLCVR,COMPANY,KOMISI,NOAPPADJ - AO",Chrome 90.0.4430.212,,,2021-06-04 10:37:13,2021-06-04 10:38:55,1m - 42.134s,ERROR
"callTestCase(findTestCase(""SCENARIO/OTOSALES/LOGIN/Login AO""), [:], STOP_ON_FAILURE)",Chrome 90.0.4430.212,,,2021-06-04 10:37:17,2021-06-04 10:38:15,58.118s,PASSED
"callTestCase(findTestCase(""PAGE/OTOSALES/LOGIN/Side Menu-Switch""), [""menu"":""Input Prospect""], STOP_ON_FAILURE)",Chrome 90.0.4430.212,,,2021-06-04 10:38:15,2021-06-04 10:38:29,14.007s,PASSED
"callTestCase(findTestCase(""PAGE/OTOSALES/NEW/INPUT PROSPECT/1.Prospect Info""), [""MV"":""MV NON GODIG"", ""isCompany"":true, ""prospectName"":""Test Otosales AO CD COM Syariah HRM"", ""phone1"":""082127670262"", ""phone2"":""081290154328"", ... ], STOP_ON_FAILURE)",Chrome 90.0.4430.212,,,2021-06-04 10:38:29,2021-06-04 10:38:55,25.911s,FAILED
,,,,,,,
Test Cases/SCENARIO/GEN5/TASKLIST SA/Tasklist Syariah,Chrome 90.0.4430.212,,,2021-06-04 10:38:55,2021-06-04 10:41:06,2m - 11.483s,FAILED
"callTestCase(findTestCase(""PAGE/GEN5/LOGIN/Login""), [""username"":""DOC"", ""password"":""ITG@nt1P455QC"", ""isSyariah"":true], STOP_ON_FAILURE)",Chrome 90.0.4430.212,,,2021-06-04 10:38:56,2021-06-04 10:39:28,31.799s,PASSED
"callTestCase(findTestCase(""PAGE/GEN5/HOME/Side Menu""), [""SideMenu"":""Task List SA""], STOP_ON_FAILURE)",Chrome 90.0.4430.212,,,2021-06-04 10:39:28,2021-06-04 10:39:57,29.707s,PASSED
"callTestCase(findTestCase(""PAGE/GEN5/TASKLIST SA/Dashboard""), [""SearchBy"":""Order No"", ""Parameter"":OtosalesOrderNo], STOP_ON_FAILURE)",Chrome 90.0.4430.212,,,2021-06-04 10:39:57,2021-06-04 10:40:54,56.306s,PASSED
"callTestCase(findTestCase(""PAGE/GEN5/TASKLIST SA/Tasklist SA""), [""changePolicyHolder"":false, ""SearchParam"":""Name"", ""PolicyHolderName"":""Sir Cok Kotelawala"", ""NameOnPolicy"":""Default"", ""EmailDelivery"":""Customer"", ... ], STOP_ON_FAILURE)",Chrome 90.0.4430.212,,,2021-06-04 10:40:54,2021-06-04 10:41:06,12.431s,FAILED
,,,,,,,
Test Cases/SCENARIO/OTOSALES/APPROVAL/Approval AO,Chrome 90.0.4430.212,,,2021-06-04 10:41:06,2021-06-04 10:41:23,16.507s,ERROR
"QuerySalesOfficer = ""SELECT TOP 1* FROM dbo.SalesOfficer WHERE SalesOfficerID = '"" + OtosalesLogin + ""'""",Chrome 90.0.4430.212,,,2021-06-04 10:41:08,2021-06-04 10:41:08,0.002s,PASSED
"BranchCode = UI.getValueDatabase(""172.16.94.48"", ""AABMobile"", QuerySalesOfficer, ""BranchCode"")",Chrome 90.0.4430.212,,,2021-06-04 10:41:08,2021-06-04 10:41:23,15.013s,PASSED
