Suite/Test/Step Name,Browser,Description,Tag,Start time,End time,Duration,Status
"INPROSPECT-NONGODIG GO,COMP,M200,FULLCVR,PERSONAL - AO - UMA",Chrome 87.0.4280.66,,,2020-11-30 20:33:58,2020-11-30 20:38:08,4m - 9.995s,INCOMPLETE
,,,,,,,
"Test Cases/SCENARIO/OTOSALES/Collaboration/NEW ORDER/MVNONGODIG/SINGLE YEAR/Create Polis/INPROSPECT-NONGODIG GO,COMP,M200,FULLCVR,PERSONAL - AO - UMA",Chrome 87.0.4280.66,,,2020-11-30 20:33:59,2020-11-30 20:37:34,3m - 34.504s,FAILED
"callTestCase(findTestCase(""SCENARIO/OTOSALES/LOGIN/Login CSO Cabang""), [:], STOP_ON_FAILURE)",Chrome 87.0.4280.66,,,2020-11-30 20:34:02,2020-11-30 20:34:53,50.859s,PASSED
"callTestCase(findTestCase(""PAGE/OTOSALES/LOGIN/Side Menu-Switch""), [""menu"":""Input Prospect""], STOP_ON_FAILURE)",Chrome 87.0.4280.66,,,2020-11-30 20:34:53,2020-11-30 20:35:00,7.232s,PASSED
"callTestCase(findTestCase(""PAGE/OTOSALES/NEW/INPUT PROSPECT/1.Prospect Info""), [""MV"":""MV NON GODIG"", ""isCompany"":false, ""prospectName"":""TEST OTOSALES AO GO PER"", ""phone1"":""082127670262"", ""phone2"":""081290154328"", ... ], STOP_ON_FAILURE)",Chrome 87.0.4280.66,,,2020-11-30 20:35:00,2020-11-30 20:36:43,1m - 42.739s,PASSED
"callTestCase(findTestCase(""PAGE/OTOSALES/NEW/INPUT PROSPECT/2.Vehicle Info""), [""VehicleName"":""XPANDER 2018 ULTIMATE"", ""Usage"":""PRIBADI"", ""Region"":""Wilayah 2""], STOP_ON_FAILURE)",Chrome 87.0.4280.66,,,2020-11-30 20:36:43,2020-11-30 20:37:08,25.056s,PASSED
"callTestCase(findTestCase(""PAGE/OTOSALES/NEW/INPUT PROSPECT/3.Cover""), [""ProductType"":""Garda Oto"", ""MV"":OrderType, ""ProductCode"":""GWU50"", ""Coverage"":""Comprehensive 1 Year"", ""TJH"":""25,000,000"", ""Terrorism"":true, ... ], STOP_ON_FAILURE)",Chrome 87.0.4280.66,,,2020-11-30 20:37:08,2020-11-30 20:37:34,26.092s,FAILED
,,,,,,,
Test Cases/SCENARIO/GEN5/TASKLIST SA/Tasklist,Chrome 87.0.4280.66,,,2020-11-30 20:37:34,2020-11-30 20:37:51,16.478s,FAILED
"callTestCase(findTestCase(""PAGE/GEN5/LOGIN/Login""), [""username"":""DOC"", ""password"":""ITG@nt1P455QC"", ""isSyariah"":false], STOP_ON_FAILURE)",Chrome 87.0.4280.66,,,2020-11-30 20:37:36,2020-11-30 20:37:50,14.808s,FAILED
,,,,,,,
Test Cases/SCENARIO/OTOSALES/APPROVAL/Approval AO,Chrome 87.0.4280.66,,,2020-11-30 20:37:51,2020-11-30 20:38:08,17.486s,ERROR
"QuerySalesOfficer = ""SELECT TOP 1* FROM dbo.SalesOfficer WHERE SalesOfficerID = '"" + OtosalesLogin + ""'""",Chrome 87.0.4280.66,,,2020-11-30 20:37:53,2020-11-30 20:37:53,0.003s,PASSED
"BranchCode = UI.getValueDatabase(""172.16.94.48"", ""AABMobile"", QuerySalesOfficer, ""BranchCode"")",Chrome 87.0.4280.66,,,2020-11-30 20:37:53,2020-11-30 20:38:08,15.020s,PASSED
