Suite/Test/Step Name,Browser,Description,Tag,Start time,End time,Duration,Status
"INPROSPECT-NONGODIG TI,COMP,M200,FULLCVR,COMPANY - TELERENEWAL",Chrome 91.0.4472.77,,,2021-06-07 21:10:13,2021-06-07 21:20:46,10m - 32.924s,INCOMPLETE
,,,,,,,
"Test Cases/SCENARIO/OTOSALES/Collaboration/NEW ORDER/MVNONGODIG/SINGLE YEAR/Create Polis/INPROSPECT-NONGODIG TI,COMP,M200,FULLCVR,COMPANY,NOAPPADJ - TELERENEWAL",Chrome 91.0.4472.77,,,2021-06-07 21:10:14,2021-06-07 21:17:03,6m - 48.180s,FAILED
"callTestCase(findTestCase(""SCENARIO/OTOSALES/LOGIN/Login Telerenewal""), [:], STOP_ON_FAILURE)",Chrome 91.0.4472.77,,,2021-06-07 21:10:17,2021-06-07 21:12:35,2m - 18.158s,PASSED
"callTestCase(findTestCase(""PAGE/OTOSALES/LOGIN/Side Menu-Switch""), [""menu"":""Input Prospect""], STOP_ON_FAILURE)",Chrome 91.0.4472.77,,,2021-06-07 21:12:35,2021-06-07 21:13:22,46.575s,PASSED
"callTestCase(findTestCase(""PAGE/OTOSALES/NEW/INPUT PROSPECT/1.Prospect Info""), [""MV"":""MV NON GODIG"", ""isCompany"":true, ""prospectName"":""Test Otosales Telerenewal TI COM HRM"", ""phone1"":""082127670262"", ""phone2"":""081290154328"", ... ], STOP_ON_FAILURE)",Chrome 91.0.4472.77,,,2021-06-07 21:13:22,2021-06-07 21:15:10,1m - 47.760s,PASSED
"callTestCase(findTestCase(""PAGE/OTOSALES/NEW/INPUT PROSPECT/2.Vehicle Info""), [""VehicleName"":""XPANDER 2018 ULTIMATE"", ""Usage"":""PRIBADI"", ""Region"":""Wilayah 2""], STOP_ON_FAILURE)",Chrome 91.0.4472.77,,,2021-06-07 21:15:10,2021-06-07 21:17:02,1m - 52.823s,FAILED
,,,,,,,
Test Cases/SCENARIO/GEN5/TASKLIST SA/Tasklist,Chrome 91.0.4472.77,,,2021-06-07 21:17:03,2021-06-07 21:20:46,3m - 43.056s,FAILED
"callTestCase(findTestCase(""PAGE/GEN5/LOGIN/Login""), [""username"":""DOC"", ""password"":""ITG@nt1P455QC"", ""isSyariah"":false], STOP_ON_FAILURE)",Chrome 91.0.4472.77,,,2021-06-07 21:17:05,2021-06-07 21:18:49,1m - 44.007s,PASSED
"callTestCase(findTestCase(""PAGE/GEN5/HOME/Side Menu""), [""SideMenu"":""Task List SA""], STOP_ON_FAILURE)",Chrome 91.0.4472.77,,,2021-06-07 21:18:49,2021-06-07 21:19:22,33.412s,PASSED
"callTestCase(findTestCase(""PAGE/GEN5/TASKLIST SA/Dashboard""), [""SearchBy"":""Order No"", ""Parameter"":OtosalesOrderNo], STOP_ON_FAILURE)",Chrome 91.0.4472.77,,,2021-06-07 21:19:22,2021-06-07 21:20:22,1m - 0.259s,PASSED
"callTestCase(findTestCase(""PAGE/GEN5/TASKLIST SA/Tasklist SA""), [""changePolicyHolder"":false, ""SearchParam"":""Name"", ""PolicyHolderName"":""Sir Cok Kotelawala"", ""NameOnPolicy"":""Default"", ""EmailDelivery"":""Customer"", ... ], STOP_ON_FAILURE)",Chrome 91.0.4472.77,,,2021-06-07 21:20:22,2021-06-07 21:20:46,23.172s,FAILED
