Suite/Test/Step Name,Browser,Description,Tag,Start time,End time,Duration,Status
"INPROSPECT-NONGODIG GO,COMP,M200,FULLCVR,PERSONAL - TELERENEWAL - Edit - Copy",Chrome 91.0.4472.114,,,2021-07-01 00:22:23,2021-07-01 04:41:28,4h - 19m - 4.940s,ERROR
,,,,,,,
"Test Cases/SCENARIO/OTOSALES/Collaboration/NEW ORDER/MVNONGODIG/SINGLE YEAR/Create Polis/INPROSPECT-NONGODIG GO,COMP,M200,FULLCVR,PERSONAL - TELERENEWAL - Edit - Copy",Chrome 91.0.4472.114,,,2021-07-01 00:22:28,2021-07-01 04:41:29,4h - 19m - 1.183s,ERROR
"callTestCase(findTestCase(""SCENARIO/OTOSALES/LOGIN/Login Telerenewal""), [:], STOP_ON_FAILURE)",Chrome 91.0.4472.114,,,2021-07-01 00:22:34,2021-07-01 00:23:57,1m - 23.658s,PASSED
"callTestCase(findTestCase(""PAGE/OTOSALES/LOGIN/Side Menu-Switch""), [""menu"":""Input Prospect""], STOP_ON_FAILURE)",Chrome 91.0.4472.114,,,2021-07-01 00:23:57,2021-07-01 00:24:16,18.892s,PASSED
"callTestCase(findTestCase(""PAGE/OTOSALES/NEW/INPUT PROSPECT/1.Prospect Info""), [""MV"":""MV NON GODIG"", ""isCompany"":false, ""prospectName"":""Test Otosales TELE WIC PER SPRINT 23 HRMi"", ""phone1"":""082127670262"", ... ], STOP_ON_FAILURE)",Chrome 91.0.4472.114,,,2021-07-01 00:24:16,2021-07-01 00:26:27,2m - 11.149s,PASSED
"callTestCase(findTestCase(""PAGE/OTOSALES/NEW/INPUT PROSPECT/2.Vehicle Info""), [""VehicleName"":""SUZUKI CARRY 2015 FUTURA PICK UP 1.5 BOX"", ""Usage"":""KOMERSIAL"", ""Region"":""Wilayah 2""], STOP_ON_FAILURE)",Chrome 91.0.4472.114,,,2021-07-01 00:26:27,2021-07-01 00:26:57,29.550s,PASSED
"callTestCase(findTestCase(""PAGE/OTOSALES/NEW/INPUT PROSPECT/3.Cover""), [""ProductType"":""Garda Oto"", ""MV"":OrderType, ""ProductCode"":""GWU50"", ""Coverage"":""Comprehensive 1 Year"", ""TJH"":""25,000,000"", ""Terrorism"":true, ... ], STOP_ON_FAILURE)",Chrome 91.0.4472.114,,,2021-07-01 00:26:57,2021-07-01 00:28:08,1m - 11.153s,PASSED
"callTestCase(findTestCase(""PAGE/OTOSALES/LOGIN/Side Menu-Switch""), [""menu"":""Task List""], STOP_ON_FAILURE)",Chrome 91.0.4472.114,,,2021-07-01 00:28:08,2021-07-01 00:28:12,3.981s,PASSED
"callTestCase(findTestCase(""PAGE/OTOSALES/NEW/TASKLIST/1.Home""), [""Chassis"":ChassisNo, ""CustName"":ProspectName], STOP_ON_FAILURE)",Chrome 91.0.4472.114,,,2021-07-01 00:28:12,2021-07-01 00:28:31,19.565s,PASSED
"callTestCase(findTestCase(""PAGE/OTOSALES/NEW/TASKLIST/2.Tasklist""), [""birthDate"":""15/10/1989"", ""NomorNPWP"":""371829374123"", ""JenisKelamin"":""Laki-Laki"", ""Alamat"":""Jalan Pelan - Pelan"", ""KodePos"":""55141"", ... ], STOP_ON_FAILURE)",Chrome 91.0.4472.114,,,2021-07-01 00:28:31,2021-07-01 00:31:56,3m - 24.143s,PASSED
"callTestCase(findTestCase(""PAGE/OTOSALES/NEW/TASKLIST/3.FollowUp""), [""Reason"":""Send to SA"", ""Notes"":""Contacted"", ""Receiver"":""Sir Cok Kotelawala"", ""Remarks"":""Created by Katalon Studio"", ""ProspectName"":ProspectName], STOP_ON_FAILURE)",Chrome 91.0.4472.114,,,2021-07-01 00:31:56,2021-07-01 04:41:29,4h - 9m - 32.895s,FAILED
,,,,,,,
Test Cases/SCENARIO/GEN5/TASKLIST SA/Tasklist,Chrome 91.0.4472.114,,,2021-07-01 04:41:29,2021-07-01 07:59:09,3h - 17m - 40.138s,FAILED
file = new java.io.File((com.kms.katalon.core.configuration.RunConfiguration.getProjectDir() + /Data Files/parameterLinkOtosales.txt)),Chrome 91.0.4472.114,,,2021-07-01 04:41:30,2021-07-01 04:41:30,0.002s,PASSED
text = FileUtils.readFileToString(file),Chrome 91.0.4472.114,,,2021-07-01 04:41:30,2021-07-01 04:41:30,0.003s,PASSED
switch (text),Chrome 91.0.4472.114,,,2021-07-01 04:41:30,2021-07-01 07:59:08,3h - 17m - 37.903s,FAILED
,,,,,,,
Test Cases/SCENARIO/OTOSALES/APPROVAL/Approval TELE,Chrome 91.0.4472.114,,,2021-07-01 07:59:11,2021-07-01 07:59:36,24.689s,ERROR
"QueryAABHead = ""SELECT TOP 1* FROM dbo.AABHead WHERE param = 'NIP'""",Chrome 91.0.4472.114,,,2021-07-01 07:59:18,2021-07-01 07:59:18,0.003s,PASSED
"Login = UI.getValueDatabase(""172.16.94.48"", ""AABMobile"", QueryAABHead, ""Value"")",Chrome 91.0.4472.114,,,2021-07-01 07:59:18,2021-07-01 07:59:36,17.284s,PASSED
