Suite/Test/Step Name,Browser,Description,Tag,Start time,End time,Duration,Status
"INPROSPECT-NONGODIG GO,COMP,M200,FULLCVR,PERSONAL - TELERENEWAL",Chrome 88.0.4324.150,,,2021-02-14 23:20:08,2021-02-14 23:38:36,18m - 28.231s,INCOMPLETE
,,,,,,,
"Test Cases/SCENARIO/OTOSALES/Collaboration/NEW ORDER/MVNONGODIG/SINGLE YEAR/Create Polis/INPROSPECT-NONGODIG GO,COMP,M200,FULLCVR,PERSONAL - TELERENEWAL",Chrome 88.0.4324.150,,,2021-02-14 23:20:09,2021-02-14 23:31:21,11m - 11.957s,PASSED
"callTestCase(findTestCase(""SCENARIO/OTOSALES/LOGIN/Login Telerenewal""), [:], STOP_ON_FAILURE)",Chrome 88.0.4324.150,,,2021-02-14 23:20:11,2021-02-14 23:20:56,44.765s,PASSED
"callTestCase(findTestCase(""PAGE/OTOSALES/LOGIN/Side Menu-Switch""), [""menu"":""Input Prospect""], STOP_ON_FAILURE)",Chrome 88.0.4324.150,,,2021-02-14 23:20:56,2021-02-14 23:21:07,10.957s,PASSED
"callTestCase(findTestCase(""PAGE/OTOSALES/NEW/INPUT PROSPECT/1.Prospect Info""), [""MV"":""MV NON GODIG"", ""isCompany"":false, ""prospectName"":""Test Otosales Telerenewal WIC HRM"", ""phone1"":""082127670262"", ""phone2"":""081290154328"", ... ], STOP_ON_FAILURE)",Chrome 88.0.4324.150,,,2021-02-14 23:21:07,2021-02-14 23:22:39,1m - 32.759s,PASSED
"callTestCase(findTestCase(""PAGE/OTOSALES/NEW/INPUT PROSPECT/2.Vehicle Info""), [""VehicleName"":""XPANDER 2018 ULTIMATE"", ""Usage"":""PRIBADI"", ""Region"":""Wilayah 2""], STOP_ON_FAILURE)",Chrome 88.0.4324.150,,,2021-02-14 23:22:39,2021-02-14 23:23:01,21.690s,PASSED
"callTestCase(findTestCase(""PAGE/OTOSALES/NEW/INPUT PROSPECT/3.Cover""), [""ProductType"":""Garda Oto"", ""MV"":OrderType, ""ProductCode"":""GWU50"", ""Coverage"":""TLO 1 Year"", ""TJH"":""25,000,000"", ""Terrorism"":true, ... ], STOP_ON_FAILURE)",Chrome 88.0.4324.150,,,2021-02-14 23:23:01,2021-02-14 23:27:12,4m - 10.921s,PASSED
"callTestCase(findTestCase(""PAGE/OTOSALES/LOGIN/Side Menu-Switch""), [""menu"":""Task List""], STOP_ON_FAILURE)",Chrome 88.0.4324.150,,,2021-02-14 23:27:12,2021-02-14 23:27:17,4.610s,PASSED
"callTestCase(findTestCase(""PAGE/OTOSALES/NEW/TASKLIST/1.Home""), [""Chassis"":ChassisNo, ""CustName"":ProspectName], STOP_ON_FAILURE)",Chrome 88.0.4324.150,,,2021-02-14 23:27:17,2021-02-14 23:27:29,12.777s,PASSED
"callTestCase(findTestCase(""PAGE/OTOSALES/NEW/TASKLIST/2.Tasklist""), [""birthDate"":""15/10/1989"", ""NomorNPWP"":""371829374123"", ""JenisKelamin"":""Laki-Laki"", ""Alamat"":""Jalan Pelan - Pelan"", ""KodePos"":""55141"", ... ], STOP_ON_FAILURE)",Chrome 88.0.4324.150,,,2021-02-14 23:27:29,2021-02-14 23:29:38,2m - 8.408s,PASSED
"callTestCase(findTestCase(""PAGE/OTOSALES/NEW/TASKLIST/3.FollowUp""), [""Reason"":""Send to SA"", ""Notes"":""Contacted"", ""Receiver"":""Sir Cok Kotelawala"", ""Remarks"":""Created by Katalon Studio"", ""ProspectName"":ProspectName], STOP_ON_FAILURE)",Chrome 88.0.4324.150,,,2021-02-14 23:29:38,2021-02-14 23:31:21,1m - 43.165s,PASSED
,,,,,,,
Test Cases/SCENARIO/GEN5/TASKLIST SA/Tasklist,Chrome 88.0.4324.150,,,2021-02-14 23:31:21,2021-02-14 23:37:17,5m - 56.249s,PASSED
"callTestCase(findTestCase(""PAGE/GEN5/LOGIN/Login""), [""username"":""DOC"", ""password"":""ITG@nt1P455QC"", ""isSyariah"":false], STOP_ON_FAILURE)",Chrome 88.0.4324.150,,,2021-02-14 23:31:22,2021-02-14 23:31:40,18.537s,PASSED
"callTestCase(findTestCase(""PAGE/GEN5/HOME/Side Menu""), [""SideMenu"":""Task List SA""], STOP_ON_FAILURE)",Chrome 88.0.4324.150,,,2021-02-14 23:31:40,2021-02-14 23:31:57,16.939s,PASSED
"callTestCase(findTestCase(""PAGE/GEN5/TASKLIST SA/Dashboard""), [""SearchBy"":""Order No"", ""Parameter"":OtosalesOrderNo], STOP_ON_FAILURE)",Chrome 88.0.4324.150,,,2021-02-14 23:31:57,2021-02-14 23:32:48,50.855s,PASSED
"callTestCase(findTestCase(""PAGE/GEN5/TASKLIST SA/Tasklist SA""), [""changePolicyHolder"":false, ""SearchParam"":""Name"", ""PolicyHolderName"":""Sir Cok Kotelawala"", ""NameOnPolicy"":""Default"", ""EmailDelivery"":""Customer"", ... ], STOP_ON_FAILURE)",Chrome 88.0.4324.150,,,2021-02-14 23:32:48,2021-02-14 23:37:17,4m - 29.116s,PASSED
,,,,,,,
Test Cases/SCENARIO/OTOSALES/APPROVAL/Approval TELE,Chrome 88.0.4324.150,,,2021-02-14 23:37:17,2021-02-14 23:38:36,1m - 18.671s,FAILED
"QueryAABHead = ""SELECT TOP 1* FROM dbo.AABHead WHERE param = 'NIP'""",Chrome 88.0.4324.150,,,2021-02-14 23:37:18,2021-02-14 23:37:18,0.002s,PASSED
"Login = UI.getValueDatabase(""172.16.94.48"", ""AABMobile"", QueryAABHead, ""Value"")",Chrome 88.0.4324.150,,,2021-02-14 23:37:18,2021-02-14 23:37:18,0.111s,PASSED
"Approve = ""SELECT TOP 1* FROM mst_order_mobile_approval where Order_no = '"" + OtosalesOrderNo + ""' and ApprovalStatus = '0' order by ApprovalType ASC""",Chrome 88.0.4324.150,,,2021-02-14 23:37:18,2021-02-14 23:37:18,0.001s,PASSED
"approvalType = UI.getValueDatabase(""172.16.94.74"", ""AAB"", Approve, ""ApprovalType"")",Chrome 88.0.4324.150,,,2021-02-14 23:37:18,2021-02-14 23:37:18,0.136s,PASSED
"OrderNo = ""SELECT * FROM dbo.OrderSimulation WHERE PolicyOrderno = '"" + OtosalesOrderNo + ""'""",Chrome 88.0.4324.150,,,2021-02-14 23:37:18,2021-02-14 23:37:18,0.001s,PASSED
"OrderNoLong = UI.getValueDatabase(""172.16.94.48"", ""AABMOBILE"", OrderNo, ""OrderNo"")",Chrome 88.0.4324.150,,,2021-02-14 23:37:18,2021-02-14 23:37:18,0.222s,PASSED
"ApproveLP = ""SELECT * FROM dbo.OrderSimulationApproval where OrderNo = '"" + OrderNoLong + ""' and RowStatus = '1' and ApprovalStatus = '0'""",Chrome 88.0.4324.150,,,2021-02-14 23:37:18,2021-02-14 23:37:18,0.002s,PASSED
"approvalTypeLP = UI.getValueDatabase(""172.16.94.48"", ""AABMOBILE"", ApproveLP, ""ApprovalStatus"")",Chrome 88.0.4324.150,,,2021-02-14 23:37:18,2021-02-14 23:37:19,0.117s,PASSED
"while (approvalType != ""null"")",Chrome 88.0.4324.150,,,2021-02-14 23:37:19,2021-02-14 23:38:36,1m - 17.239s,FAILED
