Suite/Test/Step Name,Browser,Description,Tag,Start time,End time,Duration,Status
"INPROSPECT-NONGODIG GO,COMP,M200,FULLCVR,COMPANY - MGO - Cabang",Chrome 87.0.4280.66,,,2020-11-27 20:35:33,2020-11-27 20:36:36,1m - 3.539s,INCOMPLETE
,,,,,,,
"Test Cases/SCENARIO/OTOSALES/Collaboration/NEW ORDER/MVNONGODIG/SINGLE YEAR/Create Polis/INPROSPECT-NONGODIG GO,COMP,M200,FULLCVR,COMPANY - MGO - Cabang",Chrome 87.0.4280.66,,,2020-11-27 20:35:35,2020-11-27 20:35:57,21.719s,FAILED
"callTestCase(findTestCase(""SCENARIO/OTOSALES/LOGIN/Login MGO Cabang""), [:], STOP_ON_FAILURE)",Chrome 87.0.4280.66,,,2020-11-27 20:35:37,2020-11-27 20:35:57,19.345s,FAILED
,,,,,,,
Test Cases/SCENARIO/GEN5/TASKLIST SA/Tasklist,Chrome 87.0.4280.66,,,2020-11-27 20:35:57,2020-11-27 20:36:13,16.331s,FAILED
"callTestCase(findTestCase(""PAGE/GEN5/LOGIN/Login""), [""username"":""DOC"", ""password"":""ITG@nt1P455QC"", ""isSyariah"":false], STOP_ON_FAILURE)",Chrome 87.0.4280.66,,,2020-11-27 20:35:58,2020-11-27 20:36:13,14.854s,FAILED
,,,,,,,
Test Cases/SCENARIO/OTOSALES/APPROVAL/Approval MGO,Chrome 87.0.4280.66,,,2020-11-27 20:36:13,2020-11-27 20:36:36,23.036s,ERROR
"QuerySalesOfficer = ""SELECT TOP 1* FROM dbo.SalesOfficer WHERE email = '"" + OtosalesLogin + ""'""",Chrome 87.0.4280.66,,,2020-11-27 20:36:15,2020-11-27 20:36:21,5.753s,PASSED
"UserID = UI.getValueDatabase(""172.16.94.48"", ""AABMobile"", QuerySalesOfficer, ""SalesOfficerID"")",Chrome 87.0.4280.66,,,2020-11-27 20:36:21,2020-11-27 20:36:36,15.398s,PASSED
