Suite/Test/Step Name,Browser,Description,Tag,Start time,End time,Duration,Status
"INPROSPECT-NONGODIG GO,COMP,M200,FULLCVR,PERSONAL - TELERENEWAL - Edit",Chrome 91.0.4472.114,,,2021-06-27 22:47:09,2021-06-27 22:48:55,1m - 45.779s,INCOMPLETE
,,,,,,,
"Test Cases/SCENARIO/OTOSALES/Collaboration/NEW ORDER/MVNONGODIG/SINGLE YEAR/Create Polis/INPROSPECT-NONGODIG GO,COMP,M200,FULLCVR,PERSONAL - TELERENEWAL - Edit",Chrome 91.0.4472.114,,,2021-06-27 22:47:11,2021-06-27 22:48:07,55.678s,FAILED
"callTestCase(findTestCase(""SCENARIO/OTOSALES/LOGIN/Login Telerenewal""), [:], STOP_ON_FAILURE)",Chrome 91.0.4472.114,,,2021-06-27 22:47:14,2021-06-27 22:48:07,52.676s,FAILED
,,,,,,,
Test Cases/SCENARIO/GEN5/TASKLIST SA/Tasklist,Chrome 91.0.4472.114,,,2021-06-27 22:48:07,2021-06-27 22:48:37,29.652s,FAILED
file = new java.io.File((com.kms.katalon.core.configuration.RunConfiguration.getProjectDir() + /Data Files/parameterLinkOtosales.txt)),Chrome 91.0.4472.114,,,2021-06-27 22:48:11,2021-06-27 22:48:11,0.004s,PASSED
text = FileUtils.readFileToString(file),Chrome 91.0.4472.114,,,2021-06-27 22:48:11,2021-06-27 22:48:11,0.007s,PASSED
switch (text),Chrome 91.0.4472.114,,,2021-06-27 22:48:11,2021-06-27 22:48:37,25.824s,FAILED
,,,,,,,
Test Cases/SCENARIO/OTOSALES/APPROVAL/Approval TELE,Chrome 91.0.4472.114,,,2021-06-27 22:48:37,2021-06-27 22:48:55,18.370s,ERROR
"QueryAABHead = ""SELECT TOP 1* FROM dbo.AABHead WHERE param = 'NIP'""",Chrome 91.0.4472.114,,,2021-06-27 22:48:39,2021-06-27 22:48:39,0.005s,PASSED
"Login = UI.getValueDatabase(""172.16.94.48"", ""AABMobile"", QueryAABHead, ""Value"")",Chrome 91.0.4472.114,,,2021-06-27 22:48:39,2021-06-27 22:48:55,16.153s,PASSED
