Suite/Test/Step Name,Browser,Description,Tag,Start time,End time,Duration,Status
"INPROSPECT-NONGODIG SYARIAH,COMP,M200,FULLCVR,COMPANY - TELERENEWAL",Chrome 88.0.4324.146,,,2021-02-11 09:06:23,2021-02-11 09:23:23,16m - 59.877s,INCOMPLETE
,,,,,,,
"Test Cases/SCENARIO/OTOSALES/Collaboration/NEW ORDER/MVNONGODIG/SINGLE YEAR/Create Polis/INPROSPECT-NONGODIG SYARIAH,COMP,M200,FULLCVR,COMPANY - TELERENEWAL",Chrome 88.0.4324.146,,,2021-02-11 09:06:27,2021-02-11 09:15:24,8m - 57.826s,PASSED
"callTestCase(findTestCase(""SCENARIO/OTOSALES/LOGIN/Login Telerenewal""), [:], STOP_ON_FAILURE)",Chrome 88.0.4324.146,,,2021-02-11 09:06:29,2021-02-11 09:07:28,59.065s,PASSED
"callTestCase(findTestCase(""PAGE/OTOSALES/LOGIN/Side Menu-Switch""), [""menu"":""Input Prospect""], STOP_ON_FAILURE)",Chrome 88.0.4324.146,,,2021-02-11 09:07:28,2021-02-11 09:07:39,11.093s,PASSED
"callTestCase(findTestCase(""PAGE/OTOSALES/NEW/INPUT PROSPECT/1.Prospect Info""), [""MV"":""MV NON GODIG"", ""isCompany"":true, ""prospectName"":""Test Otosales Telerenewal Syariah HRM"", ""phone1"":""082127670262"", ""phone2"":""081290154328"", ... ], STOP_ON_FAILURE)",Chrome 88.0.4324.146,,,2021-02-11 09:07:39,2021-02-11 09:08:06,26.416s,PASSED
"callTestCase(findTestCase(""PAGE/OTOSALES/NEW/INPUT PROSPECT/2.Vehicle Info""), [""VehicleName"":""XPANDER 2018 ULTIMATE"", ""Usage"":""PRIBADI"", ""Region"":""Wilayah 2""], STOP_ON_FAILURE)",Chrome 88.0.4324.146,,,2021-02-11 09:08:06,2021-02-11 09:08:36,29.749s,PASSED
"callTestCase(findTestCase(""PAGE/OTOSALES/NEW/INPUT PROSPECT/3.Cover""), [""ProductType"":""Garda Oto Syariah"", ""ProductCode"":""GWU0S"", ""Coverage"":""Comprehensive 1 Year"", ""TJH"":""25,000,000"", ""Terrorism"":true, ... ], STOP_ON_FAILURE)",Chrome 88.0.4324.146,,,2021-02-11 09:08:36,2021-02-11 09:09:50,1m - 14.037s,PASSED
"callTestCase(findTestCase(""PAGE/OTOSALES/LOGIN/Side Menu-Switch""), [""menu"":""Task List""], STOP_ON_FAILURE)",Chrome 88.0.4324.146,,,2021-02-11 09:09:50,2021-02-11 09:09:54,4.652s,PASSED
"callTestCase(findTestCase(""PAGE/OTOSALES/NEW/TASKLIST/1.Home""), [""Chassis"":ChassisNo, ""CustName"":ProspectName], STOP_ON_FAILURE)",Chrome 88.0.4324.146,,,2021-02-11 09:09:54,2021-02-11 09:10:10,15.253s,PASSED
"callTestCase(findTestCase(""PAGE/OTOSALES/NEW/TASKLIST/2.Tasklist""), [""birthDate"":""15/10/1989"", ""NomorNPWP"":""371829374123456"", ""JenisKelamin"":""Laki-Laki"", ""Alamat"":""Jalan Pelan - Pelan"", ""KodePos"":""55141"", ... ], STOP_ON_FAILURE)",Chrome 88.0.4324.146,,,2021-02-11 09:10:10,2021-02-11 09:13:36,3m - 26.866s,PASSED
"callTestCase(findTestCase(""PAGE/OTOSALES/NEW/TASKLIST/3.FollowUp""), [""Reason"":""Send to SA"", ""Notes"":""Contacted"", ""Receiver"":""Sir Cok Kotelawala"", ""Remarks"":""Created by Katalon Studio"", ""ProspectName"":ProspectName], STOP_ON_FAILURE)",Chrome 88.0.4324.146,,,2021-02-11 09:13:36,2021-02-11 09:15:24,1m - 47.951s,PASSED
,,,,,,,
Test Cases/SCENARIO/GEN5/TASKLIST SA/Tasklist Syariah,Chrome 88.0.4324.146,,,2021-02-11 09:15:24,2021-02-11 09:20:20,4m - 55.695s,FAILED
"callTestCase(findTestCase(""PAGE/GEN5/LOGIN/Login""), [""username"":""DOC"", ""password"":""ITG@nt1P455QC"", ""isSyariah"":true], STOP_ON_FAILURE)",Chrome 88.0.4324.146,,,2021-02-11 09:15:25,2021-02-11 09:16:13,48.045s,PASSED
"callTestCase(findTestCase(""PAGE/GEN5/HOME/Side Menu""), [""SideMenu"":""Task List SA""], STOP_ON_FAILURE)",Chrome 88.0.4324.146,,,2021-02-11 09:16:13,2021-02-11 09:16:52,39.117s,PASSED
"callTestCase(findTestCase(""PAGE/GEN5/TASKLIST SA/Dashboard""), [""SearchBy"":""Order No"", ""Parameter"":OtosalesOrderNo], STOP_ON_FAILURE)",Chrome 88.0.4324.146,,,2021-02-11 09:16:52,2021-02-11 09:17:49,56.786s,PASSED
"callTestCase(findTestCase(""PAGE/GEN5/TASKLIST SA/Tasklist SA""), [""changePolicyHolder"":false, ""SearchParam"":""Name"", ""PolicyHolderName"":""Sir Cok Kotelawala"", ""NameOnPolicy"":""Default"", ""EmailDelivery"":""Customer"", ... ], STOP_ON_FAILURE)",Chrome 88.0.4324.146,,,2021-02-11 09:17:49,2021-02-11 09:20:20,2m - 30.985s,FAILED
,,,,,,,
Test Cases/SCENARIO/OTOSALES/APPROVAL/Approval TELE,Chrome 88.0.4324.146,,,2021-02-11 09:20:20,2021-02-11 09:23:23,3m - 3.168s,PASSED
"QueryAABHead = ""SELECT TOP 1* FROM dbo.AABHead WHERE param = 'NIP'""",Chrome 88.0.4324.146,,,2021-02-11 09:20:22,2021-02-11 09:20:22,0.003s,PASSED
"Login = UI.getValueDatabase(""172.16.94.48"", ""AABMobile"", QueryAABHead, ""Value"")",Chrome 88.0.4324.146,,,2021-02-11 09:20:22,2021-02-11 09:20:22,0.291s,PASSED
"Approve = ""SELECT TOP 1* FROM mst_order_mobile_approval where Order_no = '"" + OtosalesOrderNo + ""' and ApprovalStatus = '0' order by ApprovalType ASC""",Chrome 88.0.4324.146,,,2021-02-11 09:20:22,2021-02-11 09:20:22,0.002s,PASSED
"approvalType = UI.getValueDatabase(""172.16.94.74"", ""AAB"", Approve, ""ApprovalType"")",Chrome 88.0.4324.146,,,2021-02-11 09:20:22,2021-02-11 09:20:22,0.142s,PASSED
"OrderNo = ""SELECT * FROM dbo.OrderSimulation WHERE PolicyOrderno = '"" + OtosalesOrderNo + ""'""",Chrome 88.0.4324.146,,,2021-02-11 09:20:22,2021-02-11 09:20:22,0.000s,PASSED
"OrderNoLong = UI.getValueDatabase(""172.16.94.48"", ""AABMOBILE"", OrderNo, ""OrderNo"")",Chrome 88.0.4324.146,,,2021-02-11 09:20:22,2021-02-11 09:20:22,0.192s,PASSED
"ApproveLP = ""SELECT * FROM dbo.OrderSimulationApproval where OrderNo = '"" + OrderNoLong + ""' and RowStatus = '1' and ApprovalStatus = '0'""",Chrome 88.0.4324.146,,,2021-02-11 09:20:22,2021-02-11 09:20:22,0.001s,PASSED
"approvalTypeLP = UI.getValueDatabase(""172.16.94.48"", ""AABMOBILE"", ApproveLP, ""ApprovalStatus"")",Chrome 88.0.4324.146,,,2021-02-11 09:20:22,2021-02-11 09:20:23,0.473s,PASSED
"while (approvalType != ""null"")",Chrome 88.0.4324.146,,,2021-02-11 09:20:23,2021-02-11 09:20:23,0.001s,PASSED
println(approvalTypeLP),Chrome 88.0.4324.146,,,2021-02-11 09:20:23,2021-02-11 09:20:23,0.001s,PASSED
"if (approvalTypeLP == ""0"")",Chrome 88.0.4324.146,,,2021-02-11 09:20:23,2021-02-11 09:20:23,0.001s,PASSED
delay(2),Chrome 88.0.4324.146,,,2021-02-11 09:20:23,2021-02-11 09:20:25,2.007s,PASSED
general.scheduler.Otosales_Approval_Gen5(),Chrome 88.0.4324.146,,,2021-02-11 09:20:25,2021-02-11 09:21:10,45.711s,PASSED
delay(2),Chrome 88.0.4324.146,,,2021-02-11 09:21:10,2021-02-11 09:21:12,2.005s,PASSED
general.scheduler.Otosales_Approval_New(),Chrome 88.0.4324.146,,,2021-02-11 09:21:12,2021-02-11 09:22:13,1m - 0.842s,PASSED
delay(2),Chrome 88.0.4324.146,,,2021-02-11 09:22:13,2021-02-11 09:22:15,2.005s,PASSED
general.scheduler.Otosales_Approval_Next_Limit(),Chrome 88.0.4324.146,,,2021-02-11 09:22:15,2021-02-11 09:22:47,31.316s,PASSED
delay(2),Chrome 88.0.4324.146,,,2021-02-11 09:22:47,2021-02-11 09:22:49,2.005s,PASSED
general.scheduler.Otosales_MonitorOrder(),Chrome 88.0.4324.146,,,2021-02-11 09:22:49,2021-02-11 09:23:20,31.321s,PASSED
closeBrowser(),Chrome 88.0.4324.146,,,2021-02-11 09:23:20,2021-02-11 09:23:23,3.454s,PASSED
