Suite/Test/Step Name,Browser,Description,Tag,Start time,End time,Duration,Status
"INPROSPECT-NONGODIG GO,COMP,M200,FULLCVR,PERSONAL - TELERENEWAL",Chrome 90.0.4430.212,,,2021-05-20 00:15:32,2021-05-20 00:37:33,22m - 1.037s,INCOMPLETE
,,,,,,,
"Test Cases/SCENARIO/OTOSALES/Collaboration/NEW ORDER/MVNONGODIG/SINGLE YEAR/Create Polis/INPROSPECT-NONGODIG GO,COMP,M200,FULLCVR,PERSONAL - TELERENEWAL",Chrome 90.0.4430.212,,,2021-05-20 00:15:34,2021-05-20 00:26:34,11m - 0.011s,PASSED
"callTestCase(findTestCase(""SCENARIO/OTOSALES/LOGIN/Login Telerenewal""), [:], STOP_ON_FAILURE)",Chrome 90.0.4430.212,,,2021-05-20 00:15:37,2021-05-20 00:16:35,57.314s,PASSED
"callTestCase(findTestCase(""PAGE/OTOSALES/LOGIN/Side Menu-Switch""), [""menu"":""Input Prospect""], STOP_ON_FAILURE)",Chrome 90.0.4430.212,,,2021-05-20 00:16:35,2021-05-20 00:16:46,11.672s,PASSED
"callTestCase(findTestCase(""PAGE/OTOSALES/NEW/INPUT PROSPECT/1.Prospect Info""), [""MV"":""MV NON GODIG"", ""isCompany"":false, ""prospectName"":""Test Otosales Telerenewal WIC HRM K200 MY"", ""phone1"":""082127670262"", ... ], STOP_ON_FAILURE)",Chrome 90.0.4430.212,,,2021-05-20 00:16:46,2021-05-20 00:18:27,1m - 40.674s,PASSED
"callTestCase(findTestCase(""PAGE/OTOSALES/NEW/INPUT PROSPECT/2.Vehicle Info""), [""VehicleName"":""XPANDER 2018 ULTIMATE"", ""Usage"":""PRIBADI"", ""Region"":""Wilayah 2""], STOP_ON_FAILURE)",Chrome 90.0.4430.212,,,2021-05-20 00:18:27,2021-05-20 00:18:55,27.788s,PASSED
"callTestCase(findTestCase(""PAGE/OTOSALES/NEW/INPUT PROSPECT/3.Cover""), [""ProductType"":""Garda Oto"", ""MV"":OrderType, ""ProductCode"":""GWU50"", ""Coverage"":""Comprehensive 1 Year"", ""TJH"":""25,000,000"", ""Terrorism"":true, ... ], STOP_ON_FAILURE)",Chrome 90.0.4430.212,,,2021-05-20 00:18:55,2021-05-20 00:19:58,1m - 3.225s,PASSED
"callTestCase(findTestCase(""PAGE/OTOSALES/LOGIN/Side Menu-Switch""), [""menu"":""Task List""], STOP_ON_FAILURE)",Chrome 90.0.4430.212,,,2021-05-20 00:19:58,2021-05-20 00:20:02,4.019s,PASSED
"callTestCase(findTestCase(""PAGE/OTOSALES/NEW/TASKLIST/1.Home""), [""Chassis"":ChassisNo, ""CustName"":ProspectName], STOP_ON_FAILURE)",Chrome 90.0.4430.212,,,2021-05-20 00:20:02,2021-05-20 00:20:18,16.184s,PASSED
"callTestCase(findTestCase(""PAGE/OTOSALES/NEW/TASKLIST/2.Tasklist""), [""birthDate"":""15/10/1989"", ""NomorNPWP"":""371829374123"", ""JenisKelamin"":""Laki-Laki"", ""Alamat"":""Jalan Pelan - Pelan"", ""KodePos"":""55141"", ... ], STOP_ON_FAILURE)",Chrome 90.0.4430.212,,,2021-05-20 00:20:18,2021-05-20 00:22:36,2m - 17.474s,PASSED
"callTestCase(findTestCase(""PAGE/OTOSALES/NEW/TASKLIST/3.FollowUp""), [""Reason"":""Send to SA"", ""Notes"":""Contacted"", ""Receiver"":""Sir Cok Kotelawala"", ""Remarks"":""Created by Katalon Studio"", ""ProspectName"":ProspectName], STOP_ON_FAILURE)",Chrome 90.0.4430.212,,,2021-05-20 00:22:36,2021-05-20 00:26:34,3m - 57.853s,PASSED
,,,,,,,
Test Cases/SCENARIO/GEN5/TASKLIST SA/Tasklist,Chrome 90.0.4430.212,,,2021-05-20 00:26:34,2021-05-20 00:31:21,4m - 47.291s,PASSED
"callTestCase(findTestCase(""PAGE/GEN5/LOGIN/Login""), [""username"":""DOC"", ""password"":""ITG@nt1P455QC"", ""isSyariah"":false], STOP_ON_FAILURE)",Chrome 90.0.4430.212,,,2021-05-20 00:26:35,2021-05-20 00:26:53,17.806s,PASSED
"callTestCase(findTestCase(""PAGE/GEN5/HOME/Side Menu""), [""SideMenu"":""Task List SA""], STOP_ON_FAILURE)",Chrome 90.0.4430.212,,,2021-05-20 00:26:53,2021-05-20 00:27:17,24.381s,PASSED
"callTestCase(findTestCase(""PAGE/GEN5/TASKLIST SA/Dashboard""), [""SearchBy"":""Order No"", ""Parameter"":OtosalesOrderNo], STOP_ON_FAILURE)",Chrome 90.0.4430.212,,,2021-05-20 00:27:17,2021-05-20 00:28:06,48.430s,PASSED
"callTestCase(findTestCase(""PAGE/GEN5/TASKLIST SA/Tasklist SA""), [""changePolicyHolder"":false, ""SearchParam"":""Name"", ""PolicyHolderName"":""Sir Cok Kotelawala"", ""NameOnPolicy"":""Default"", ""EmailDelivery"":""Customer"", ... ], STOP_ON_FAILURE)",Chrome 90.0.4430.212,,,2021-05-20 00:28:06,2021-05-20 00:31:21,3m - 15.311s,PASSED
,,,,,,,
Test Cases/SCENARIO/OTOSALES/APPROVAL/Approval TELE,Chrome 90.0.4430.212,,,2021-05-20 00:31:21,2021-05-20 00:37:33,6m - 11.600s,PASSED
"QueryAABHead = ""SELECT TOP 1* FROM dbo.AABHead WHERE param = 'NIP'""",Chrome 90.0.4430.212,,,2021-05-20 00:31:22,2021-05-20 00:31:22,0.003s,PASSED
"Login = UI.getValueDatabase(""172.16.94.48"", ""AABMobile"", QueryAABHead, ""Value"")",Chrome 90.0.4430.212,,,2021-05-20 00:31:22,2021-05-20 00:31:22,0.173s,PASSED
"Approve = ""SELECT TOP 1* FROM mst_order_mobile_approval where Order_no = '"" + OtosalesOrderNo + ""' and ApprovalStatus = '0' order by ApprovalType ASC""",Chrome 90.0.4430.212,,,2021-05-20 00:31:22,2021-05-20 00:31:22,0.001s,PASSED
"approvalType = UI.getValueDatabase(""172.16.94.74"", ""AAB"", Approve, ""ApprovalType"")",Chrome 90.0.4430.212,,,2021-05-20 00:31:22,2021-05-20 00:31:22,0.181s,PASSED
"QueryMstOrder = ""SELECT * FROM mst_order WHERE Order_No = '"" + OtosalesOrderNo + ""'""",Chrome 90.0.4430.212,,,2021-05-20 00:31:22,2021-05-20 00:31:22,0.001s,PASSED
"OrdStatus = UI.getValueDatabase(""172.16.94.74"", ""AAB"", QueryMstOrder, ""Order_Status"")",Chrome 90.0.4430.212,,,2021-05-20 00:31:22,2021-05-20 00:31:22,0.124s,PASSED
"OrderNo = ""SELECT * FROM dbo.OrderSimulation WHERE PolicyOrderno = '"" + OtosalesOrderNo + ""'""",Chrome 90.0.4430.212,,,2021-05-20 00:31:22,2021-05-20 00:31:22,0.003s,PASSED
"OrderNoLong = UI.getValueDatabase(""172.16.94.48"", ""AABMOBILE"", OrderNo, ""OrderNo"")",Chrome 90.0.4430.212,,,2021-05-20 00:31:22,2021-05-20 00:31:23,0.219s,PASSED
"ApproveLP = ""SELECT * FROM dbo.OrderSimulationApproval where OrderNo = '"" + OrderNoLong + ""' and RowStatus = '1' and ApprovalStatus = '0'""",Chrome 90.0.4430.212,,,2021-05-20 00:31:23,2021-05-20 00:31:23,0.001s,PASSED
"approvalTypeLP = UI.getValueDatabase(""172.16.94.48"", ""AABMOBILE"", ApproveLP, ""ApprovalStatus"")",Chrome 90.0.4430.212,,,2021-05-20 00:31:23,2021-05-20 00:31:23,0.170s,PASSED
println(approvalType),Chrome 90.0.4430.212,,,2021-05-20 00:31:23,2021-05-20 00:31:23,0.003s,PASSED
println(OrdStatus),Chrome 90.0.4430.212,,,2021-05-20 00:31:23,2021-05-20 00:31:23,0.001s,PASSED
"while (approvalType != ""null"" && OrdStatus != ""9"")",Chrome 90.0.4430.212,,,2021-05-20 00:31:23,2021-05-20 00:32:19,55.930s,PASSED
println(approvalTypeLP),Chrome 90.0.4430.212,,,2021-05-20 00:32:19,2021-05-20 00:32:19,0.001s,PASSED
"if (approvalTypeLP == ""0"")",Chrome 90.0.4430.212,,,2021-05-20 00:32:19,2021-05-20 00:32:19,0.001s,PASSED
delay(2),Chrome 90.0.4430.212,,,2021-05-20 00:32:19,2021-05-20 00:32:21,2.008s,PASSED
delay(2),Chrome 90.0.4430.212,,,2021-05-20 00:32:21,2021-05-20 00:32:23,2.008s,PASSED
delay(2),Chrome 90.0.4430.212,,,2021-05-20 00:32:23,2021-05-20 00:32:25,2.009s,PASSED
delay(2),Chrome 90.0.4430.212,,,2021-05-20 00:32:25,2021-05-20 00:32:27,2.008s,PASSED
"QueryOrderStatus = ""select * from mst_order WHERE Order_No = '"" + OtosalesOrderNo + ""'""",Chrome 90.0.4430.212,,,2021-05-20 00:32:27,2021-05-20 00:32:27,0.001s,PASSED
"OrderStatus = UI.getValueDatabase(""172.16.94.74"", ""AAB"", QueryOrderStatus, ""Order_Status"")",Chrome 90.0.4430.212,,,2021-05-20 00:32:27,2021-05-20 00:32:28,1.048s,PASSED
"QueryAABMobile = ""SELECT FollowUpInfo,* FROM followUp WHERE FollowUpNo = (SELECT followUpNo FROM OrderSimulation WHERE PolicyOrderNo = '"" + OtosalesOrderNo + ""')""",Chrome 90.0.4430.212,,,2021-05-20 00:32:28,2021-05-20 00:32:28,0.002s,PASSED
"description = UI.getValueDatabase(""172.16.94.48"", ""AABMobile"", QueryAABMobile, ""FollowUpInfo"")",Chrome 90.0.4430.212,,,2021-05-20 00:32:28,2021-05-20 00:32:28,0.243s,PASSED
"while (description != ""50"")",Chrome 90.0.4430.212,,,2021-05-20 00:32:28,2021-05-20 00:37:30,5m - 1.863s,PASSED
println(description),Chrome 90.0.4430.212,,,2021-05-20 00:37:30,2021-05-20 00:37:30,0.002s,PASSED
closeBrowser(),Chrome 90.0.4430.212,,,2021-05-20 00:37:30,2021-05-20 00:37:33,2.616s,PASSED
