Suite/Test/Step Name,Browser,Description,Tag,Start time,End time,Duration,Status
"INPROSPECT-NONGODIG GO SYARIAH,COMP,M200,FULLCVR,COMPANY,NOAPPADJ - MGO",Chrome 91.0.4472.77,,,2021-06-10 01:01:37,2021-06-10 01:06:14,4m - 37.182s,INCOMPLETE
,,,,,,,
"Test Cases/SCENARIO/OTOSALES/Collaboration/NEW ORDER/MVNONGODIG/SINGLE YEAR/Create Polis/INPROSPECT-NONGODIG GO SYARIAH,COMP,M200,FULLCVR,COMPANY,NOAPPADJ - MGO",Chrome 91.0.4472.77,,,2021-06-10 01:01:38,2021-06-10 01:04:10,2m - 31.999s,FAILED
"callTestCase(findTestCase(""SCENARIO/OTOSALES/LOGIN/Login MGO""), [:], STOP_ON_FAILURE)",Chrome 91.0.4472.77,,,2021-06-10 01:01:40,2021-06-10 01:02:25,44.601s,PASSED
"callTestCase(findTestCase(""PAGE/OTOSALES/LOGIN/Side Menu-Switch""), [""menu"":""Input Prospect""], STOP_ON_FAILURE)",Chrome 91.0.4472.77,,,2021-06-10 01:02:25,2021-06-10 01:02:35,10.031s,PASSED
"callTestCase(findTestCase(""PAGE/OTOSALES/NEW/INPUT PROSPECT/1.Prospect Info""), [""MV"":""MV NON GODIG"", ""isCompany"":true, ""prospectName"":""Test Otosales Agency COM Syariah HRM"", ""phone1"":""082127670262"", ""phone2"":""081290154328"", ... ], STOP_ON_FAILURE)",Chrome 91.0.4472.77,,,2021-06-10 01:02:35,2021-06-10 01:03:00,25.128s,PASSED
"callTestCase(findTestCase(""PAGE/OTOSALES/NEW/INPUT PROSPECT/2.Vehicle Info""), [""VehicleName"":""XPANDER 2018 ULTIMATE"", ""Usage"":""PRIBADI"", ""Region"":""Wilayah 2""], STOP_ON_FAILURE)",Chrome 91.0.4472.77,,,2021-06-10 01:03:00,2021-06-10 01:03:26,25.764s,PASSED
"callTestCase(findTestCase(""PAGE/OTOSALES/NEW/INPUT PROSPECT/3.Cover""), [""ProductType"":""Garda Oto Syariah"", ""ProductCode"":""GAU1S"", ""Coverage"":""Comprehensive 1 Year"", ""TJH"":""25,000,000"", ""Terrorism"":true, ... ], STOP_ON_FAILURE)",Chrome 91.0.4472.77,,,2021-06-10 01:03:26,2021-06-10 01:04:10,44.540s,FAILED
,,,,,,,
Test Cases/SCENARIO/GEN5/TASKLIST SA/Tasklist Syariah,Chrome 91.0.4472.77,,,2021-06-10 01:04:10,2021-06-10 01:06:01,1m - 50.159s,FAILED
"callTestCase(findTestCase(""PAGE/GEN5/LOGIN/Login""), [""username"":""DOC"", ""password"":""ITG@nt1P455QC"", ""isSyariah"":true], STOP_ON_FAILURE)",Chrome 91.0.4472.77,,,2021-06-10 01:04:11,2021-06-10 01:04:39,28.249s,PASSED
"callTestCase(findTestCase(""PAGE/GEN5/HOME/Side Menu""), [""SideMenu"":""Task List SA""], STOP_ON_FAILURE)",Chrome 91.0.4472.77,,,2021-06-10 01:04:39,2021-06-10 01:05:04,24.887s,PASSED
"callTestCase(findTestCase(""PAGE/GEN5/TASKLIST SA/Dashboard""), [""SearchBy"":""Order No"", ""Parameter"":OtosalesOrderNo], STOP_ON_FAILURE)",Chrome 91.0.4472.77,,,2021-06-10 01:05:04,2021-06-10 01:05:50,45.772s,PASSED
"callTestCase(findTestCase(""PAGE/GEN5/TASKLIST SA/Tasklist SA""), [""changePolicyHolder"":false, ""SearchParam"":""Name"", ""PolicyHolderName"":""Sir Cok Kotelawala"", ""NameOnPolicy"":""Default"", ""EmailDelivery"":""Customer"", ... ], STOP_ON_FAILURE)",Chrome 91.0.4472.77,,,2021-06-10 01:05:50,2021-06-10 01:06:01,10.494s,FAILED
,,,,,,,
Test Cases/SCENARIO/OTOSALES/APPROVAL/Approval MGO,Chrome 91.0.4472.77,,,2021-06-10 01:06:01,2021-06-10 01:06:14,13.497s,PASSED
"QuerySalesOfficer = ""SELECT TOP 1* FROM dbo.SalesOfficer WHERE email = '"" + OtosalesLogin + ""'""",Chrome 91.0.4472.77,,,2021-06-10 01:06:01,2021-06-10 01:06:01,0.005s,PASSED
"UserID = UI.getValueDatabase(""172.16.94.48"", ""AABMobile"", QuerySalesOfficer, ""SalesOfficerID"")",Chrome 91.0.4472.77,,,2021-06-10 01:06:01,2021-06-10 01:06:02,0.189s,PASSED
"QueryAABHead = ""SELECT TOP 1* FROM dbo.AABHead WHERE param = '"" + UserID + ""' and RowStatus = '1' and Value = 'SRW'""",Chrome 91.0.4472.77,,,2021-06-10 01:06:02,2021-06-10 01:06:02,0.002s,PASSED
"Login = UI.getValueDatabase(""172.16.94.48"", ""AABMobile"", QueryAABHead, ""Value"")",Chrome 91.0.4472.77,,,2021-06-10 01:06:02,2021-06-10 01:06:02,0.480s,PASSED
"Approve = ""SELECT TOP 1* FROM mst_order_mobile_approval where Order_no = '"" + OtosalesOrderNo + ""' and ApprovalStatus = '0' order by ApprovalType ASC""",Chrome 91.0.4472.77,,,2021-06-10 01:06:02,2021-06-10 01:06:02,0.002s,PASSED
"approvalType = UI.getValueDatabase(""172.16.94.74"", ""AAB"", Approve, ""ApprovalType"")",Chrome 91.0.4472.77,,,2021-06-10 01:06:02,2021-06-10 01:06:02,0.302s,PASSED
"QueryMstOrder = ""SELECT * FROM mst_order WHERE Order_No = '"" + OtosalesOrderNo + ""'""",Chrome 91.0.4472.77,,,2021-06-10 01:06:02,2021-06-10 01:06:02,0.002s,PASSED
"OrdStatus = UI.getValueDatabase(""172.16.94.74"", ""AAB"", QueryMstOrder, ""Order_Status"")",Chrome 91.0.4472.77,,,2021-06-10 01:06:02,2021-06-10 01:06:03,0.334s,PASSED
"OrderNo = ""SELECT * FROM dbo.OrderSimulation WHERE PolicyOrderno = '"" + OtosalesOrderNo + ""'""",Chrome 91.0.4472.77,,,2021-06-10 01:06:03,2021-06-10 01:06:03,0.002s,PASSED
"OrderNoLong = UI.getValueDatabase(""172.16.94.48"", ""AABMOBILE"", OrderNo, ""OrderNo"")",Chrome 91.0.4472.77,,,2021-06-10 01:06:03,2021-06-10 01:06:03,0.296s,PASSED
"ApproveLP = ""SELECT * FROM dbo.OrderSimulationApproval where OrderNo = '"" + OrderNoLong + ""' and RowStatus = '1' and ApprovalStatus = '0'""",Chrome 91.0.4472.77,,,2021-06-10 01:06:03,2021-06-10 01:06:03,0.001s,PASSED
"approvalTypeLP = UI.getValueDatabase(""172.16.94.48"", ""AABMOBILE"", ApproveLP, ""ApprovalStatus"")",Chrome 91.0.4472.77,,,2021-06-10 01:06:03,2021-06-10 01:06:04,0.543s,PASSED
"while (approvalType != ""null"" && OrdStatus != ""9"")",Chrome 91.0.4472.77,,,2021-06-10 01:06:04,2021-06-10 01:06:04,0.002s,PASSED
println(approvalTypeLP),Chrome 91.0.4472.77,,,2021-06-10 01:06:04,2021-06-10 01:06:04,0.008s,PASSED
"if (approvalTypeLP == ""0"")",Chrome 91.0.4472.77,,,2021-06-10 01:06:04,2021-06-10 01:06:04,0.001s,PASSED
delay(2),Chrome 91.0.4472.77,,,2021-06-10 01:06:04,2021-06-10 01:06:06,2.010s,PASSED
delay(2),Chrome 91.0.4472.77,,,2021-06-10 01:06:06,2021-06-10 01:06:08,2.008s,PASSED
delay(2),Chrome 91.0.4472.77,,,2021-06-10 01:06:08,2021-06-10 01:06:10,2.009s,PASSED
delay(2),Chrome 91.0.4472.77,,,2021-06-10 01:06:10,2021-06-10 01:06:12,2.008s,PASSED
"QueryOrderStatus = ""select * from mst_order WHERE Order_No = '"" + OtosalesOrderNo + ""'""",Chrome 91.0.4472.77,,,2021-06-10 01:06:12,2021-06-10 01:06:12,0.001s,PASSED
"OrderStatus = UI.getValueDatabase(""172.16.94.74"", ""AAB"", QueryOrderStatus, ""Order_Status"")",Chrome 91.0.4472.77,,,2021-06-10 01:06:12,2021-06-10 01:06:12,0.238s,PASSED
"QueryAABMobile = ""SELECT FollowUpInfo,* FROM followUp WHERE FollowUpNo = (SELECT followUpNo FROM OrderSimulation WHERE PolicyOrderNo = '"" + OtosalesOrderNo + ""')""",Chrome 91.0.4472.77,,,2021-06-10 01:06:12,2021-06-10 01:06:12,0.003s,PASSED
"description = UI.getValueDatabase(""172.16.94.48"", ""AABMobile"", QueryAABMobile, ""FollowUpInfo"")",Chrome 91.0.4472.77,,,2021-06-10 01:06:12,2021-06-10 01:06:13,0.700s,PASSED
"while (description != ""50"")",Chrome 91.0.4472.77,,,2021-06-10 01:06:13,2021-06-10 01:06:13,0.002s,PASSED
println(description),Chrome 91.0.4472.77,,,2021-06-10 01:06:13,2021-06-10 01:06:13,0.003s,PASSED
closeBrowser(),Chrome 91.0.4472.77,,,2021-06-10 01:06:13,2021-06-10 01:06:14,1.549s,PASSED
