Suite/Test/Step Name,Browser,Description,Tag,Start time,End time,Duration,Status
"INPROSPECT-NONGODIG GO,COMP,M200,FULLCVR,COMPANY - TELERENEWAL - Edit",Chrome 91.0.4472.114,,,2021-06-27 22:52:32,2021-06-27 22:53:49,1m - 16.714s,INCOMPLETE
,,,,,,,
"Test Cases/SCENARIO/OTOSALES/Collaboration/NEW ORDER/MVNONGODIG/SINGLE YEAR/Create Polis/INPROSPECT-NONGODIG GO,COMP,M200,FULLCVR,COMPANY - TELERENEWAL - Edit",Chrome 91.0.4472.114,,,2021-06-27 22:52:34,2021-06-27 22:53:12,37.510s,FAILED
"callTestCase(findTestCase(""SCENARIO/OTOSALES/LOGIN/Login Telerenewal""), [:], STOP_ON_FAILURE)",Chrome 91.0.4472.114,,,2021-06-27 22:52:37,2021-06-27 22:53:12,34.772s,FAILED
,,,,,,,
Test Cases/SCENARIO/GEN5/TASKLIST SA/Tasklist,Chrome 91.0.4472.114,,,2021-06-27 22:53:12,2021-06-27 22:53:31,18.799s,FAILED
file = new java.io.File((com.kms.katalon.core.configuration.RunConfiguration.getProjectDir() + /Data Files/parameterLinkOtosales.txt)),Chrome 91.0.4472.114,,,2021-06-27 22:53:14,2021-06-27 22:53:14,0.005s,PASSED
text = FileUtils.readFileToString(file),Chrome 91.0.4472.114,,,2021-06-27 22:53:14,2021-06-27 22:53:14,0.065s,PASSED
switch (text),Chrome 91.0.4472.114,,,2021-06-27 22:53:14,2021-06-27 22:53:31,16.525s,FAILED
,,,,,,,
Test Cases/SCENARIO/OTOSALES/APPROVAL/Approval TELE,Chrome 91.0.4472.114,,,2021-06-27 22:53:31,2021-06-27 22:53:49,18.141s,ERROR
"QueryAABHead = ""SELECT TOP 1* FROM dbo.AABHead WHERE param = 'NIP'""",Chrome 91.0.4472.114,,,2021-06-27 22:53:33,2021-06-27 22:53:33,0.009s,PASSED
"Login = UI.getValueDatabase(""172.16.94.48"", ""AABMobile"", QueryAABHead, ""Value"")",Chrome 91.0.4472.114,,,2021-06-27 22:53:33,2021-06-27 22:53:49,15.700s,PASSED
