Suite/Test/Step Name,Browser,Description,Tag,Start time,End time,Duration,Status
"INPROSPECT-NONGODIG TI,COMP,M200,FULLCVR,COMPANY - AO - UMA",Chrome 87.0.4280.141,,,2021-01-22 23:23:18,2021-01-22 23:32:22,9m - 4.349s,INCOMPLETE
,,,,,,,
"Test Cases/SCENARIO/OTOSALES/Collaboration/NEW ORDER/MVNONGODIG/SINGLE YEAR/Create Polis/INPROSPECT-NONGODIG TI,COMP,M200,FULLCVR,COMPANY - AO - UMA",Chrome 87.0.4280.141,,,2021-01-22 23:23:21,2021-01-22 23:29:40,6m - 18.899s,FAILED
"callTestCase(findTestCase(""SCENARIO/OTOSALES/LOGIN/Login CSO Cabang""), [:], STOP_ON_FAILURE)",Chrome 87.0.4280.141,,,2021-01-22 23:23:24,2021-01-22 23:24:24,1m - 0.169s,PASSED
"callTestCase(findTestCase(""PAGE/OTOSALES/LOGIN/Side Menu-Switch""), [""menu"":""Input Prospect""], STOP_ON_FAILURE)",Chrome 87.0.4280.141,,,2021-01-22 23:24:24,2021-01-22 23:24:32,7.557s,PASSED
"callTestCase(findTestCase(""PAGE/OTOSALES/NEW/INPUT PROSPECT/1.Prospect Info""), [""MV"":""MV NON GODIG"", ""isCompany"":true, ""prospectName"":""TEST OTOSALES AO TI COMP"", ""phone1"":""082127670262"", ""phone2"":""081290154328"", ... ], STOP_ON_FAILURE)",Chrome 87.0.4280.141,,,2021-01-22 23:24:32,2021-01-22 23:25:05,32.763s,PASSED
"callTestCase(findTestCase(""PAGE/OTOSALES/NEW/INPUT PROSPECT/2.Vehicle Info""), [""VehicleName"":""XPANDER 2018 ULTIMATE"", ""Usage"":""PRIBADI"", ""Region"":""Wilayah 2""], STOP_ON_FAILURE)",Chrome 87.0.4280.141,,,2021-01-22 23:25:05,2021-01-22 23:25:34,29.242s,PASSED
"callTestCase(findTestCase(""PAGE/OTOSALES/NEW/INPUT PROSPECT/3.Cover""), [""ProductType"":""Toyota Insurance"", ""ProductCode"":""TDDF1"", ""Coverage"":""Comprehensive 1 Year"", ""TJH"":""25,000,000"", ""Terrorism"":true, ... ], STOP_ON_FAILURE)",Chrome 87.0.4280.141,,,2021-01-22 23:25:34,2021-01-22 23:26:42,1m - 8.520s,PASSED
"callTestCase(findTestCase(""PAGE/OTOSALES/LOGIN/Side Menu-Switch""), [""menu"":""Task List""], STOP_ON_FAILURE)",Chrome 87.0.4280.141,,,2021-01-22 23:26:42,2021-01-22 23:26:46,4.090s,PASSED
"callTestCase(findTestCase(""PAGE/OTOSALES/NEW/TASKLIST/1.Home""), [""Chassis"":ChassisNo, ""CustName"":ProspectName], STOP_ON_FAILURE)",Chrome 87.0.4280.141,,,2021-01-22 23:26:46,2021-01-22 23:29:40,2m - 53.447s,FAILED
,,,,,,,
Test Cases/SCENARIO/GEN5/TASKLIST SA/Tasklist,Chrome 87.0.4280.141,,,2021-01-22 23:29:40,2021-01-22 23:32:22,2m - 42.481s,FAILED
"callTestCase(findTestCase(""PAGE/GEN5/LOGIN/Login""), [""username"":""DOC"", ""password"":""ITG@nt1P455QC"", ""isSyariah"":false], STOP_ON_FAILURE)",Chrome 87.0.4280.141,,,2021-01-22 23:29:40,2021-01-22 23:30:02,21.918s,PASSED
"callTestCase(findTestCase(""PAGE/GEN5/HOME/Side Menu""), [""SideMenu"":""Task List SA""], STOP_ON_FAILURE)",Chrome 87.0.4280.141,,,2021-01-22 23:30:02,2021-01-22 23:30:21,18.098s,PASSED
"callTestCase(findTestCase(""PAGE/GEN5/TASKLIST SA/Dashboard""), [""SearchBy"":""Order No"", ""Parameter"":OtosalesOrderNo], STOP_ON_FAILURE)",Chrome 87.0.4280.141,,,2021-01-22 23:30:21,2021-01-22 23:31:23,1m - 2.181s,PASSED
"callTestCase(findTestCase(""PAGE/GEN5/TASKLIST SA/Tasklist SA""), [""changePolicyHolder"":false, ""SearchParam"":""Name"", ""PolicyHolderName"":""Sir Cok Kotelawala"", ""NameOnPolicy"":""Default"", ""EmailDelivery"":""Customer"", ... ], STOP_ON_FAILURE)",Chrome 87.0.4280.141,,,2021-01-22 23:31:23,2021-01-22 23:32:22,59.698s,FAILED
