Suite/Test/Step Name,Browser,Description,Tag,Start time,End time,Duration,Status
"INPROSPECT-NONGODIG SYARIAH,COMP,M200,FULLCVR,COMPANY - TELERENEWAL",Chrome 88.0.4324.150,,,2021-02-14 14:54:29,2021-02-14 15:08:43,14m - 13.809s,INCOMPLETE
,,,,,,,
"Test Cases/SCENARIO/OTOSALES/Collaboration/NEW ORDER/MVNONGODIG/SINGLE YEAR/Create Polis/INPROSPECT-NONGODIG SYARIAH,COMP,M200,FULLCVR,COMPANY - TELERENEWAL",Chrome 88.0.4324.150,,,2021-02-14 14:54:31,2021-02-14 15:02:09,7m - 38.417s,PASSED
"callTestCase(findTestCase(""SCENARIO/OTOSALES/LOGIN/Login Telerenewal""), [:], STOP_ON_FAILURE)",Chrome 88.0.4324.150,,,2021-02-14 14:54:33,2021-02-14 14:55:19,45.388s,PASSED
"callTestCase(findTestCase(""PAGE/OTOSALES/LOGIN/Side Menu-Switch""), [""menu"":""Input Prospect""], STOP_ON_FAILURE)",Chrome 88.0.4324.150,,,2021-02-14 14:55:19,2021-02-14 14:55:28,8.764s,PASSED
"callTestCase(findTestCase(""PAGE/OTOSALES/NEW/INPUT PROSPECT/1.Prospect Info""), [""MV"":""MV NON GODIG"", ""isCompany"":true, ""prospectName"":""Test Otosales Telerenewal Syariah HRM"", ""phone1"":""082127670262"", ""phone2"":""081290154328"", ... ], STOP_ON_FAILURE)",Chrome 88.0.4324.150,,,2021-02-14 14:55:28,2021-02-14 14:55:48,20.646s,PASSED
"callTestCase(findTestCase(""PAGE/OTOSALES/NEW/INPUT PROSPECT/2.Vehicle Info""), [""VehicleName"":""XPANDER 2018 ULTIMATE"", ""Usage"":""PRIBADI"", ""Region"":""Wilayah 2""], STOP_ON_FAILURE)",Chrome 88.0.4324.150,,,2021-02-14 14:55:48,2021-02-14 14:56:12,23.816s,PASSED
"callTestCase(findTestCase(""PAGE/OTOSALES/NEW/INPUT PROSPECT/3.Cover""), [""ProductType"":""Garda Oto Syariah"", ""ProductCode"":""GWU0S"", ""Coverage"":""Comprehensive 1 Year"", ""TJH"":""25,000,000"", ""Terrorism"":true, ... ], STOP_ON_FAILURE)",Chrome 88.0.4324.150,,,2021-02-14 14:56:12,2021-02-14 14:57:06,53.987s,PASSED
"callTestCase(findTestCase(""PAGE/OTOSALES/LOGIN/Side Menu-Switch""), [""menu"":""Task List""], STOP_ON_FAILURE)",Chrome 88.0.4324.150,,,2021-02-14 14:57:06,2021-02-14 14:57:10,3.802s,PASSED
"callTestCase(findTestCase(""PAGE/OTOSALES/NEW/TASKLIST/1.Home""), [""Chassis"":ChassisNo, ""CustName"":ProspectName], STOP_ON_FAILURE)",Chrome 88.0.4324.150,,,2021-02-14 14:57:10,2021-02-14 14:57:23,12.962s,PASSED
"callTestCase(findTestCase(""PAGE/OTOSALES/NEW/TASKLIST/2.Tasklist""), [""birthDate"":""15/10/1989"", ""NomorNPWP"":""371829374123456"", ""JenisKelamin"":""Laki-Laki"", ""Alamat"":""Jalan Pelan - Pelan"", ""KodePos"":""55141"", ... ], STOP_ON_FAILURE)",Chrome 88.0.4324.150,,,2021-02-14 14:57:23,2021-02-14 15:00:33,3m - 10.389s,PASSED
"callTestCase(findTestCase(""PAGE/OTOSALES/NEW/TASKLIST/3.FollowUp""), [""Reason"":""Send to SA"", ""Notes"":""Contacted"", ""Receiver"":""Sir Cok Kotelawala"", ""Remarks"":""Created by Katalon Studio"", ""ProspectName"":ProspectName], STOP_ON_FAILURE)",Chrome 88.0.4324.150,,,2021-02-14 15:00:33,2021-02-14 15:02:09,1m - 35.923s,PASSED
,,,,,,,
Test Cases/SCENARIO/GEN5/TASKLIST SA/Tasklist Syariah,Chrome 88.0.4324.150,,,2021-02-14 15:02:09,2021-02-14 15:07:22,5m - 12.501s,PASSED
"callTestCase(findTestCase(""PAGE/GEN5/LOGIN/Login""), [""username"":""DOC"", ""password"":""ITG@nt1P455QC"", ""isSyariah"":true], STOP_ON_FAILURE)",Chrome 88.0.4324.150,,,2021-02-14 15:02:10,2021-02-14 15:02:31,21.191s,PASSED
"callTestCase(findTestCase(""PAGE/GEN5/HOME/Side Menu""), [""SideMenu"":""Task List SA""], STOP_ON_FAILURE)",Chrome 88.0.4324.150,,,2021-02-14 15:02:31,2021-02-14 15:02:48,16.638s,PASSED
"callTestCase(findTestCase(""PAGE/GEN5/TASKLIST SA/Dashboard""), [""SearchBy"":""Order No"", ""Parameter"":OtosalesOrderNo], STOP_ON_FAILURE)",Chrome 88.0.4324.150,,,2021-02-14 15:02:48,2021-02-14 15:03:42,54.686s,PASSED
"callTestCase(findTestCase(""PAGE/GEN5/TASKLIST SA/Tasklist SA""), [""changePolicyHolder"":false, ""SearchParam"":""Name"", ""PolicyHolderName"":""Sir Cok Kotelawala"", ""NameOnPolicy"":""Default"", ""EmailDelivery"":""Customer"", ... ], STOP_ON_FAILURE)",Chrome 88.0.4324.150,,,2021-02-14 15:03:42,2021-02-14 15:07:22,3m - 39.309s,PASSED
,,,,,,,
Test Cases/SCENARIO/OTOSALES/APPROVAL/Approval TELE,Chrome 88.0.4324.150,,,2021-02-14 15:07:22,2021-02-14 15:08:43,1m - 21.418s,FAILED
"QueryAABHead = ""SELECT TOP 1* FROM dbo.AABHead WHERE param = 'NIP'""",Chrome 88.0.4324.150,,,2021-02-14 15:07:22,2021-02-14 15:07:22,0.002s,PASSED
"Login = UI.getValueDatabase(""172.16.94.48"", ""AABMobile"", QueryAABHead, ""Value"")",Chrome 88.0.4324.150,,,2021-02-14 15:07:22,2021-02-14 15:07:23,0.104s,PASSED
"Approve = ""SELECT TOP 1* FROM mst_order_mobile_approval where Order_no = '"" + OtosalesOrderNo + ""' and ApprovalStatus = '0' order by ApprovalType ASC""",Chrome 88.0.4324.150,,,2021-02-14 15:07:23,2021-02-14 15:07:23,0.002s,PASSED
"approvalType = UI.getValueDatabase(""172.16.94.74"", ""AAB"", Approve, ""ApprovalType"")",Chrome 88.0.4324.150,,,2021-02-14 15:07:23,2021-02-14 15:07:23,0.100s,PASSED
"OrderNo = ""SELECT * FROM dbo.OrderSimulation WHERE PolicyOrderno = '"" + OtosalesOrderNo + ""'""",Chrome 88.0.4324.150,,,2021-02-14 15:07:23,2021-02-14 15:07:23,0.002s,PASSED
"OrderNoLong = UI.getValueDatabase(""172.16.94.48"", ""AABMOBILE"", OrderNo, ""OrderNo"")",Chrome 88.0.4324.150,,,2021-02-14 15:07:23,2021-02-14 15:07:23,0.390s,PASSED
"ApproveLP = ""SELECT * FROM dbo.OrderSimulationApproval where OrderNo = '"" + OrderNoLong + ""' and RowStatus = '1' and ApprovalStatus = '0'""",Chrome 88.0.4324.150,,,2021-02-14 15:07:23,2021-02-14 15:07:23,0.002s,PASSED
"approvalTypeLP = UI.getValueDatabase(""172.16.94.48"", ""AABMOBILE"", ApproveLP, ""ApprovalStatus"")",Chrome 88.0.4324.150,,,2021-02-14 15:07:23,2021-02-14 15:07:23,0.300s,PASSED
"while (approvalType != ""null"")",Chrome 88.0.4324.150,,,2021-02-14 15:07:23,2021-02-14 15:08:43,1m - 19.729s,FAILED
