Suite/Test/Step Name,Browser,Description,Tag,Start time,End time,Duration,Status
"INPROSPECT-NONGODIG SYARIAH,COMP,M200,FULLCVR,COMPANY - TELERENEWAL",Chrome 90.0.4430.212,,,2021-06-04 20:19:16,2021-06-04 20:35:29,16m - 12.831s,INCOMPLETE
,,,,,,,
"Test Cases/SCENARIO/OTOSALES/Collaboration/NEW ORDER/MVNONGODIG/SINGLE YEAR/Create Polis/INPROSPECT-NONGODIG SYARIAH,COMP,M200,FULLCVR,COMPANY - TELERENEWAL",Chrome 90.0.4430.212,,,2021-06-04 20:19:19,2021-06-04 20:28:58,9m - 38.543s,PASSED
"callTestCase(findTestCase(""SCENARIO/OTOSALES/LOGIN/Login Telerenewal""), [:], STOP_ON_FAILURE)",Chrome 90.0.4430.212,,,2021-06-04 20:19:22,2021-06-04 20:20:22,59.987s,PASSED
"callTestCase(findTestCase(""PAGE/OTOSALES/LOGIN/Side Menu-Switch""), [""menu"":""Input Prospect""], STOP_ON_FAILURE)",Chrome 90.0.4430.212,,,2021-06-04 20:20:22,2021-06-04 20:20:39,17.364s,PASSED
"callTestCase(findTestCase(""PAGE/OTOSALES/NEW/INPUT PROSPECT/1.Prospect Info""), [""MV"":""MV NON GODIG"", ""isCompany"":true, ""prospectName"":""Test Otosales TELE COM Syariah HRM"", ""phone1"":""082127670262"", ""phone2"":""081290154328"", ... ], STOP_ON_FAILURE)",Chrome 90.0.4430.212,,,2021-06-04 20:20:39,2021-06-04 20:21:08,28.870s,PASSED
"callTestCase(findTestCase(""PAGE/OTOSALES/NEW/INPUT PROSPECT/2.Vehicle Info""), [""VehicleName"":""XPANDER 2018 ULTIMATE"", ""Usage"":""PRIBADI"", ""Region"":""Wilayah 2""], STOP_ON_FAILURE)",Chrome 90.0.4430.212,,,2021-06-04 20:21:08,2021-06-04 20:21:41,33.239s,PASSED
"callTestCase(findTestCase(""PAGE/OTOSALES/NEW/INPUT PROSPECT/3.Cover""), [""ProductType"":""Garda Oto Syariah"", ""ProductCode"":""GWU0S"", ""Coverage"":""Comprehensive 1 Year"", ""TJH"":""25,000,000"", ""Terrorism"":true, ... ], STOP_ON_FAILURE)",Chrome 90.0.4430.212,,,2021-06-04 20:21:41,2021-06-04 20:23:00,1m - 18.704s,PASSED
"callTestCase(findTestCase(""PAGE/OTOSALES/LOGIN/Side Menu-Switch""), [""menu"":""Task List""], STOP_ON_FAILURE)",Chrome 90.0.4430.212,,,2021-06-04 20:23:00,2021-06-04 20:23:06,6.349s,PASSED
"callTestCase(findTestCase(""PAGE/OTOSALES/NEW/TASKLIST/1.Home""), [""Chassis"":ChassisNo, ""CustName"":ProspectName], STOP_ON_FAILURE)",Chrome 90.0.4430.212,,,2021-06-04 20:23:06,2021-06-04 20:23:25,18.787s,PASSED
"callTestCase(findTestCase(""PAGE/OTOSALES/NEW/TASKLIST/2.Tasklist""), [""birthDate"":""15/10/1989"", ""NomorNPWP"":""371829374123456"", ""JenisKelamin"":""Laki-Laki"", ""Alamat"":""Jalan Pelan - Pelan"", ""KodePos"":""55141"", ... ], STOP_ON_FAILURE)",Chrome 90.0.4430.212,,,2021-06-04 20:23:25,2021-06-04 20:27:38,4m - 13.164s,PASSED
"callTestCase(findTestCase(""PAGE/OTOSALES/NEW/TASKLIST/3.FollowUp""), [""Reason"":""Send to SA"", ""Notes"":""Contacted"", ""Receiver"":""Sir Cok Kotelawala"", ""Remarks"":""Created by Katalon Studio"", ""ProspectName"":ProspectName], STOP_ON_FAILURE)",Chrome 90.0.4430.212,,,2021-06-04 20:27:38,2021-06-04 20:28:58,1m - 19.995s,PASSED
,,,,,,,
Test Cases/SCENARIO/GEN5/TASKLIST SA/Tasklist Syariah,Chrome 90.0.4430.212,,,2021-06-04 20:28:58,2021-06-04 20:33:57,4m - 58.728s,PASSED
"callTestCase(findTestCase(""PAGE/GEN5/LOGIN/Login""), [""username"":""DOC"", ""password"":""ITG@nt1P455QC"", ""isSyariah"":true], STOP_ON_FAILURE)",Chrome 90.0.4430.212,,,2021-06-04 20:28:59,2021-06-04 20:29:27,28.069s,PASSED
"callTestCase(findTestCase(""PAGE/GEN5/HOME/Side Menu""), [""SideMenu"":""Task List SA""], STOP_ON_FAILURE)",Chrome 90.0.4430.212,,,2021-06-04 20:29:27,2021-06-04 20:29:58,31.559s,PASSED
"callTestCase(findTestCase(""PAGE/GEN5/TASKLIST SA/Dashboard""), [""SearchBy"":""Order No"", ""Parameter"":OtosalesOrderNo], STOP_ON_FAILURE)",Chrome 90.0.4430.212,,,2021-06-04 20:29:58,2021-06-04 20:30:53,54.597s,PASSED
"callTestCase(findTestCase(""PAGE/GEN5/TASKLIST SA/Tasklist SA""), [""changePolicyHolder"":false, ""SearchParam"":""Name"", ""PolicyHolderName"":""Sir Cok Kotelawala"", ""NameOnPolicy"":""Default"", ""EmailDelivery"":""Customer"", ... ], STOP_ON_FAILURE)",Chrome 90.0.4430.212,,,2021-06-04 20:30:53,2021-06-04 20:33:57,3m - 3.915s,PASSED
,,,,,,,
Test Cases/SCENARIO/OTOSALES/APPROVAL/Approval TELE,Chrome 90.0.4430.212,,,2021-06-04 20:33:57,2021-06-04 20:35:29,1m - 32.257s,PASSED
"QueryAABHead = ""SELECT TOP 1* FROM dbo.AABHead WHERE param = 'NIP'""",Chrome 90.0.4430.212,,,2021-06-04 20:33:58,2021-06-04 20:33:58,0.002s,PASSED
"Login = UI.getValueDatabase(""172.16.94.48"", ""AABMobile"", QueryAABHead, ""Value"")",Chrome 90.0.4430.212,,,2021-06-04 20:33:58,2021-06-04 20:33:58,0.581s,PASSED
"Approve = ""SELECT TOP 1* FROM mst_order_mobile_approval where Order_no = '"" + OtosalesOrderNo + ""' and ApprovalStatus = '0' order by ApprovalType ASC""",Chrome 90.0.4430.212,,,2021-06-04 20:33:58,2021-06-04 20:33:58,0.002s,PASSED
"approvalType = UI.getValueDatabase(""172.16.94.74"", ""AAB"", Approve, ""ApprovalType"")",Chrome 90.0.4430.212,,,2021-06-04 20:33:58,2021-06-04 20:33:59,0.236s,PASSED
"QueryMstOrder = ""SELECT * FROM mst_order WHERE Order_No = '"" + OtosalesOrderNo + ""'""",Chrome 90.0.4430.212,,,2021-06-04 20:33:59,2021-06-04 20:33:59,0.002s,PASSED
"OrdStatus = UI.getValueDatabase(""172.16.94.74"", ""AAB"", QueryMstOrder, ""Order_Status"")",Chrome 90.0.4430.212,,,2021-06-04 20:33:59,2021-06-04 20:33:59,0.252s,PASSED
"OrderNo = ""SELECT * FROM dbo.OrderSimulation WHERE PolicyOrderno = '"" + OtosalesOrderNo + ""'""",Chrome 90.0.4430.212,,,2021-06-04 20:33:59,2021-06-04 20:33:59,0.002s,PASSED
"OrderNoLong = UI.getValueDatabase(""172.16.94.48"", ""AABMOBILE"", OrderNo, ""OrderNo"")",Chrome 90.0.4430.212,,,2021-06-04 20:33:59,2021-06-04 20:34:00,0.860s,PASSED
"ApproveLP = ""SELECT * FROM dbo.OrderSimulationApproval where OrderNo = '"" + OrderNoLong + ""' and RowStatus = '1' and ApprovalStatus = '0'""",Chrome 90.0.4430.212,,,2021-06-04 20:34:00,2021-06-04 20:34:00,0.001s,PASSED
"approvalTypeLP = UI.getValueDatabase(""172.16.94.48"", ""AABMOBILE"", ApproveLP, ""ApprovalStatus"")",Chrome 90.0.4430.212,,,2021-06-04 20:34:00,2021-06-04 20:34:00,0.571s,PASSED
println(approvalType),Chrome 90.0.4430.212,,,2021-06-04 20:34:00,2021-06-04 20:34:00,0.001s,PASSED
println(OrdStatus),Chrome 90.0.4430.212,,,2021-06-04 20:34:00,2021-06-04 20:34:00,0.001s,PASSED
"while (approvalType != ""null"" && OrdStatus != ""9"")",Chrome 90.0.4430.212,,,2021-06-04 20:34:00,2021-06-04 20:35:04,1m - 3.201s,PASSED
println(approvalTypeLP),Chrome 90.0.4430.212,,,2021-06-04 20:35:04,2021-06-04 20:35:04,0.001s,PASSED
"if (approvalTypeLP == ""0"")",Chrome 90.0.4430.212,,,2021-06-04 20:35:04,2021-06-04 20:35:04,0.001s,PASSED
delay(2),Chrome 90.0.4430.212,,,2021-06-04 20:35:04,2021-06-04 20:35:06,2.006s,PASSED
delay(2),Chrome 90.0.4430.212,,,2021-06-04 20:35:06,2021-06-04 20:35:08,2.007s,PASSED
delay(2),Chrome 90.0.4430.212,,,2021-06-04 20:35:08,2021-06-04 20:35:10,2.010s,PASSED
delay(2),Chrome 90.0.4430.212,,,2021-06-04 20:35:10,2021-06-04 20:35:12,2.007s,PASSED
"QueryOrderStatus = ""select * from mst_order WHERE Order_No = '"" + OtosalesOrderNo + ""'""",Chrome 90.0.4430.212,,,2021-06-04 20:35:12,2021-06-04 20:35:12,0.002s,PASSED
"OrderStatus = UI.getValueDatabase(""172.16.94.74"", ""AAB"", QueryOrderStatus, ""Order_Status"")",Chrome 90.0.4430.212,,,2021-06-04 20:35:12,2021-06-04 20:35:12,0.253s,PASSED
"QueryAABMobile = ""SELECT FollowUpInfo,* FROM followUp WHERE FollowUpNo = (SELECT followUpNo FROM OrderSimulation WHERE PolicyOrderNo = '"" + OtosalesOrderNo + ""')""",Chrome 90.0.4430.212,,,2021-06-04 20:35:12,2021-06-04 20:35:12,0.001s,PASSED
"description = UI.getValueDatabase(""172.16.94.48"", ""AABMobile"", QueryAABMobile, ""FollowUpInfo"")",Chrome 90.0.4430.212,,,2021-06-04 20:35:12,2021-06-04 20:35:13,0.720s,PASSED
"while (description != ""50"")",Chrome 90.0.4430.212,,,2021-06-04 20:35:13,2021-06-04 20:35:27,14.000s,PASSED
println(description),Chrome 90.0.4430.212,,,2021-06-04 20:35:27,2021-06-04 20:35:27,0.001s,PASSED
closeBrowser(),Chrome 90.0.4430.212,,,2021-06-04 20:35:27,2021-06-04 20:35:29,2.443s,PASSED
