Suite/Test/Step Name,Browser,Description,Tag,Start time,End time,Duration,Status
"INPROSPECT-NONGODIG GO,COMP,M200,FULLCVR,PERSONAL KOMISI - AO",Chrome 88.0.4324.146,,,2021-02-10 01:53:34,2021-02-10 05:34:03,3h - 40m - 29.098s,ERROR
,,,,,,,
"Test Cases/SCENARIO/OTOSALES/Collaboration/NEW ORDER/MVNONGODIG/SINGLE YEAR/Create Polis/INPROSPECT-NONGODIG GO,COMP,M200,FULLCVR,COMPANY,KOMISI,NOAPPADJ - AO",Chrome 88.0.4324.146,,,2021-02-10 01:53:35,2021-02-10 05:34:03,3h - 40m - 27.949s,ERROR
"callTestCase(findTestCase(""SCENARIO/OTOSALES/LOGIN/Login AO""), [:], STOP_ON_FAILURE)",Chrome 88.0.4324.146,,,2021-02-10 01:53:37,2021-02-10 01:54:24,46.984s,PASSED
"callTestCase(findTestCase(""PAGE/OTOSALES/LOGIN/Side Menu-Switch""), [""menu"":""Input Prospect""], STOP_ON_FAILURE)",Chrome 88.0.4324.146,,,2021-02-10 01:54:24,2021-02-10 01:54:37,12.659s,PASSED
"callTestCase(findTestCase(""PAGE/OTOSALES/NEW/INPUT PROSPECT/1.Prospect Info""), [""MV"":""MV NON GODIG"", ""isCompany"":true, ""prospectName"":""Test Otosales AO CDealer HRM"", ""phone1"":""082127670262"", ""phone2"":""081290154328"", ... ], STOP_ON_FAILURE)",Chrome 88.0.4324.146,,,2021-02-10 01:54:37,2021-02-10 01:55:07,30.304s,PASSED
"callTestCase(findTestCase(""PAGE/OTOSALES/NEW/INPUT PROSPECT/2.Vehicle Info""), [""VehicleName"":""XPANDER 2018 ULTIMATE"", ""Usage"":""KOMERSIAL"", ""Region"":""Wilayah 2""], STOP_ON_FAILURE)",Chrome 88.0.4324.146,,,2021-02-10 01:55:07,2021-02-10 01:55:36,28.885s,PASSED
"callTestCase(findTestCase(""PAGE/OTOSALES/NEW/INPUT PROSPECT/3.Cover""), [""ProductType"":""Garda Oto"", ""ProductCode"":""GDU52"", ""Coverage"":""Comprehensive 1 Year"", ""TJH"":""25,000,000"", ""Terrorism"":true, ... ], STOP_ON_FAILURE)",Chrome 88.0.4324.146,,,2021-02-10 01:55:36,2021-02-10 01:56:39,1m - 3.575s,PASSED
"callTestCase(findTestCase(""PAGE/OTOSALES/LOGIN/Side Menu-Switch""), [""menu"":""Task List""], STOP_ON_FAILURE)",Chrome 88.0.4324.146,,,2021-02-10 01:56:39,2021-02-10 01:56:43,3.522s,PASSED
"callTestCase(findTestCase(""PAGE/OTOSALES/NEW/TASKLIST/1.Home""), [""Chassis"":ChassisNo, ""CustName"":ProspectName], STOP_ON_FAILURE)",Chrome 88.0.4324.146,,,2021-02-10 01:56:43,2021-02-10 01:56:57,14.510s,PASSED
"callTestCase(findTestCase(""PAGE/OTOSALES/NEW/TASKLIST/2.Tasklist""), [""birthDate"":""15/10/1989"", ""NomorNPWP"":""371829374123456"", ""JenisKelamin"":""Laki-Laki"", ""Alamat"":""Jalan Pelan - Pelan"", ""KodePos"":""55141"", ... ], STOP_ON_FAILURE)",Chrome 88.0.4324.146,,,2021-02-10 01:56:57,2021-02-10 02:00:40,3m - 42.928s,PASSED
"callTestCase(findTestCase(""PAGE/OTOSALES/NEW/TASKLIST/3.FollowUp""), [""Reason"":""Send to SA"", ""Notes"":""Contacted"", ""Receiver"":""Sir Cok Kotelawala"", ""Remarks"":""Created by Katalon Studio"", ""ProspectName"":ProspectName], STOP_ON_FAILURE)",Chrome 88.0.4324.146,,,2021-02-10 02:00:40,2021-02-10 05:34:03,3h - 33m - 22.555s,FAILED
,,,,,,,
Test Cases/SCENARIO/GEN5/TASKLIST SA/Tasklist,Chrome 88.0.4324.146,,,2021-02-10 05:34:03,2021-02-10 08:43:31,3h - 9m - 27.650s,FAILED
"callTestCase(findTestCase(""PAGE/GEN5/LOGIN/Login""), [""username"":""DOC"", ""password"":""ITG@nt1P455QC"", ""isSyariah"":false], STOP_ON_FAILURE)",Chrome 88.0.4324.146,,,2021-02-10 05:34:04,2021-02-10 08:43:31,3h - 9m - 26.586s,FAILED
,,,,,,,
Test Cases/SCENARIO/OTOSALES/APPROVAL/Approval AO,Chrome 88.0.4324.146,,,2021-02-10 08:43:31,2021-02-10 08:43:51,19.894s,ERROR
"QuerySalesOfficer = ""SELECT TOP 1* FROM dbo.SalesOfficer WHERE SalesOfficerID = '"" + OtosalesLogin + ""'""",Chrome 88.0.4324.146,,,2021-02-10 08:43:35,2021-02-10 08:43:36,0.852s,PASSED
"BranchCode = UI.getValueDatabase(""172.16.94.48"", ""AABMobile"", QuerySalesOfficer, ""BranchCode"")",Chrome 88.0.4324.146,,,2021-02-10 08:43:36,2021-02-10 08:43:51,15.169s,PASSED
