Suite/Test/Step Name,Browser,Description,Tag,Start time,End time,Duration,Status
"INPROSPECT-NONGODIG GO,COMP,M200,FULLCVR,COMPANY",Chrome 90.0.4430.72,,,2021-04-21 17:48:21,2021-04-21 18:05:21,16m - 59.970s,INCOMPLETE
,,,,,,,
"Test Cases/SCENARIO/OTOSALES/Collaboration/NEW ORDER/MVNONGODIG/SINGLE YEAR/AO/SKIP SURVEY/INPROSPECT-NONGODIG GO,COMP,M200,FULLCVR,COMPANY",Chrome 90.0.4430.72,,,2021-04-21 17:48:23,2021-04-21 17:57:21,8m - 58.884s,PASSED
"callTestCase(findTestCase(""SCENARIO/OTOSALES/LOGIN/Login AO""), [:], STOP_ON_FAILURE)",Chrome 90.0.4430.72,,,2021-04-21 17:48:25,2021-04-21 17:49:14,49.007s,PASSED
"callTestCase(findTestCase(""PAGE/OTOSALES/LOGIN/Side Menu-Switch""), [""menu"":""Input Prospect""], STOP_ON_FAILURE)",Chrome 90.0.4430.72,,,2021-04-21 17:49:14,2021-04-21 17:49:30,16.182s,PASSED
"callTestCase(findTestCase(""PAGE/OTOSALES/NEW/INPUT PROSPECT/1.Prospect Info""), [""MV"":""MV NON GODIG"", ""isCompany"":true, ""prospectName"":""Automate Customer Non Godig"", ""phone1"":""082127670262"", ""phone2"":""081290154328"", ... ], STOP_ON_FAILURE)",Chrome 90.0.4430.72,,,2021-04-21 17:49:30,2021-04-21 17:50:01,30.909s,PASSED
"callTestCase(findTestCase(""PAGE/OTOSALES/NEW/INPUT PROSPECT/2.Vehicle Info""), [""VehicleName"":""XPANDER 2018 ULTIMATE"", ""Usage"":""PRIBADI"", ""Region"":""Wilayah 2""], STOP_ON_FAILURE)",Chrome 90.0.4430.72,,,2021-04-21 17:50:01,2021-04-21 17:50:31,30.151s,PASSED
"callTestCase(findTestCase(""PAGE/OTOSALES/NEW/INPUT PROSPECT/3.Cover""), [""ProductType"":""Garda Oto"", ""ProductCode"":""GWU50"", ""Coverage"":""Comprehensive 1 Year"", ""TJH"":""25,000,000"", ""Terrorism"":true, ... ], STOP_ON_FAILURE)",Chrome 90.0.4430.72,,,2021-04-21 17:50:31,2021-04-21 17:51:42,1m - 10.323s,PASSED
"callTestCase(findTestCase(""PAGE/OTOSALES/LOGIN/Side Menu-Switch""), [""menu"":""Task List""], STOP_ON_FAILURE)",Chrome 90.0.4430.72,,,2021-04-21 17:51:42,2021-04-21 17:51:48,6.248s,PASSED
"callTestCase(findTestCase(""PAGE/OTOSALES/NEW/TASKLIST/1.Home""), [""Chassis"":ChassisNo, ""CustName"":ProspectName], STOP_ON_FAILURE)",Chrome 90.0.4430.72,,,2021-04-21 17:51:48,2021-04-21 17:52:02,14.112s,PASSED
"callTestCase(findTestCase(""PAGE/OTOSALES/NEW/TASKLIST/2.Tasklist""), [""birthDate"":""15/10/1989"", ""NomorNPWP"":""371829374123456"", ""JenisKelamin"":""Laki-Laki"", ""Alamat"":""Jalan Pelan - Pelan"", ""KodePos"":""55141"", ... ], STOP_ON_FAILURE)",Chrome 90.0.4430.72,,,2021-04-21 17:52:02,2021-04-21 17:55:43,3m - 41.230s,PASSED
"callTestCase(findTestCase(""PAGE/OTOSALES/NEW/TASKLIST/3.FollowUp""), [""Reason"":""Send to SA"", ""Notes"":""Contacted"", ""Receiver"":""Sir Cok Kotelawala"", ""Remarks"":""Created by Katalon Studio"", ""ProspectName"":ProspectName], STOP_ON_FAILURE)",Chrome 90.0.4430.72,,,2021-04-21 17:55:43,2021-04-21 17:57:21,1m - 38.051s,PASSED
,,,,,,,
Test Cases/SCENARIO/GEN5/TASKLIST SA/Tasklist,Chrome 90.0.4430.72,,,2021-04-21 17:57:21,2021-04-21 18:03:15,5m - 53.499s,PASSED
"callTestCase(findTestCase(""PAGE/GEN5/LOGIN/Login""), [""username"":""DOC"", ""password"":""ITG@nt1P455QC"", ""isSyariah"":false], STOP_ON_FAILURE)",Chrome 90.0.4430.72,,,2021-04-21 17:57:22,2021-04-21 17:57:44,21.645s,PASSED
"callTestCase(findTestCase(""PAGE/GEN5/HOME/Side Menu""), [""SideMenu"":""Task List SA""], STOP_ON_FAILURE)",Chrome 90.0.4430.72,,,2021-04-21 17:57:44,2021-04-21 17:58:05,20.864s,PASSED
"callTestCase(findTestCase(""PAGE/GEN5/TASKLIST SA/Dashboard""), [""SearchBy"":""Order No"", ""Parameter"":OtosalesOrderNo], STOP_ON_FAILURE)",Chrome 90.0.4430.72,,,2021-04-21 17:58:05,2021-04-21 17:58:54,49.591s,PASSED
"callTestCase(findTestCase(""PAGE/GEN5/TASKLIST SA/Tasklist SA""), [""changePolicyHolder"":false, ""SearchParam"":""Name"", ""PolicyHolderName"":""Sir Cok Kotelawala"", ""NameOnPolicy"":""Default"", ""EmailDelivery"":""Customer"", ... ], STOP_ON_FAILURE)",Chrome 90.0.4430.72,,,2021-04-21 17:58:54,2021-04-21 18:03:15,4m - 20.830s,PASSED
,,,,,,,
Test Cases/SCENARIO/OTOSALES/APPROVAL/Approval AO,Chrome 90.0.4430.72,,,2021-04-21 18:03:15,2021-04-21 18:05:21,2m - 5.627s,PASSED
"QuerySalesOfficer = ""SELECT TOP 1* FROM dbo.SalesOfficer WHERE SalesOfficerID = '"" + OtosalesLogin + ""'""",Chrome 90.0.4430.72,,,2021-04-21 18:03:16,2021-04-21 18:03:16,0.003s,PASSED
"BranchCode = UI.getValueDatabase(""172.16.94.48"", ""AABMobile"", QuerySalesOfficer, ""BranchCode"")",Chrome 90.0.4430.72,,,2021-04-21 18:03:16,2021-04-21 18:03:16,0.257s,PASSED
"QueryAABHead = ""SELECT TOP 1* FROM dbo.AABHead WHERE param = '"" + BranchCode + ""' and RowStatus = '1'""",Chrome 90.0.4430.72,,,2021-04-21 18:03:16,2021-04-21 18:03:16,0.002s,PASSED
"Login = UI.getValueDatabase(""172.16.94.48"", ""AABMobile"", QueryAABHead, ""Value"")",Chrome 90.0.4430.72,,,2021-04-21 18:03:16,2021-04-21 18:03:16,0.361s,PASSED
Userlogin = OtosalesLogin,Chrome 90.0.4430.72,,,2021-04-21 18:03:16,2021-04-21 18:03:16,0.001s,PASSED
"Approve = ""SELECT TOP 1* FROM mst_order_mobile_approval where Order_no = '"" + OtosalesOrderNo + ""' and ApprovalStatus = '0' order by ApprovalType ASC""",Chrome 90.0.4430.72,,,2021-04-21 18:03:16,2021-04-21 18:03:16,0.001s,PASSED
"approvalType = UI.getValueDatabase(""172.16.94.74"", ""AAB"", Approve, ""ApprovalType"")",Chrome 90.0.4430.72,,,2021-04-21 18:03:16,2021-04-21 18:03:17,0.099s,PASSED
println(approvalType),Chrome 90.0.4430.72,,,2021-04-21 18:03:17,2021-04-21 18:03:17,0.002s,PASSED
"QueryMstOrder = ""SELECT * FROM mst_order WHERE Order_No = '"" + OtosalesOrderNo + ""'""",Chrome 90.0.4430.72,,,2021-04-21 18:03:17,2021-04-21 18:03:17,0.001s,PASSED
"OrdStatus = UI.getValueDatabase(""172.16.94.74"", ""AAB"", QueryMstOrder, ""Order_Status"")",Chrome 90.0.4430.72,,,2021-04-21 18:03:17,2021-04-21 18:03:17,0.393s,PASSED
"OrderNo = ""SELECT * FROM dbo.OrderSimulation WHERE PolicyOrderno = '"" + OtosalesOrderNo + ""'""",Chrome 90.0.4430.72,,,2021-04-21 18:03:17,2021-04-21 18:03:17,0.002s,PASSED
"OrderNoLong = UI.getValueDatabase(""172.16.94.48"", ""AABMOBILE"", OrderNo, ""OrderNo"")",Chrome 90.0.4430.72,,,2021-04-21 18:03:17,2021-04-21 18:03:18,0.811s,PASSED
"ApproveLP = ""SELECT * FROM dbo.OrderSimulationApproval where OrderNo = '"" + OrderNoLong + ""' and RowStatus = '1' and ApprovalStatus = '0'""",Chrome 90.0.4430.72,,,2021-04-21 18:03:18,2021-04-21 18:03:18,0.002s,PASSED
"approvalTypeLP = UI.getValueDatabase(""172.16.94.48"", ""AABMOBILE"", ApproveLP, ""ApprovalStatus"")",Chrome 90.0.4430.72,,,2021-04-21 18:03:18,2021-04-21 18:03:18,0.377s,PASSED
"while (approvalType != ""null"" && OrdStatus != ""9"")",Chrome 90.0.4430.72,,,2021-04-21 18:03:18,2021-04-21 18:04:31,1m - 13.172s,PASSED
println(approvalTypeLP),Chrome 90.0.4430.72,,,2021-04-21 18:04:31,2021-04-21 18:04:31,0.000s,PASSED
"if (approvalTypeLP == ""0"")",Chrome 90.0.4430.72,,,2021-04-21 18:04:31,2021-04-21 18:04:31,0.000s,PASSED
delay(2),Chrome 90.0.4430.72,,,2021-04-21 18:04:31,2021-04-21 18:04:33,2.013s,PASSED
delay(2),Chrome 90.0.4430.72,,,2021-04-21 18:04:33,2021-04-21 18:04:35,2.006s,PASSED
delay(2),Chrome 90.0.4430.72,,,2021-04-21 18:04:35,2021-04-21 18:04:37,2.010s,PASSED
delay(2),Chrome 90.0.4430.72,,,2021-04-21 18:04:37,2021-04-21 18:04:39,2.022s,PASSED
"QueryOrderStatus = ""select * from mst_order WHERE Order_No = '"" + OtosalesOrderNo + ""'""",Chrome 90.0.4430.72,,,2021-04-21 18:04:39,2021-04-21 18:04:39,0.002s,PASSED
"OrderStatus = UI.getValueDatabase(""172.16.94.74"", ""AAB"", QueryOrderStatus, ""Order_Status"")",Chrome 90.0.4430.72,,,2021-04-21 18:04:39,2021-04-21 18:04:40,0.225s,PASSED
"while (OrderStatus != ""9"")",Chrome 90.0.4430.72,,,2021-04-21 18:04:40,2021-04-21 18:05:18,38.878s,PASSED
closeBrowser(),Chrome 90.0.4430.72,,,2021-04-21 18:05:18,2021-04-21 18:05:21,2.138s,PASSED
