Suite/Test/Step Name,Browser,Description,Tag,Start time,End time,Duration,Status
"INPROSPECT-NONGODIG GO,COMP,M200,FULLCVR,PERSONAL - AO - UMA -Edit",Chrome 91.0.4472.114,,,2021-06-27 17:11:27,2021-06-27 17:24:03,12m - 36.175s,INCOMPLETE
,,,,,,,
"Test Cases/SCENARIO/OTOSALES/Collaboration/NEW ORDER/MVNONGODIG/SINGLE YEAR/Create Polis/INPROSPECT-NONGODIG GO,COMP,M200,FULLCVR,PERSONAL - AO - UMA -Edit",Chrome 91.0.4472.114,,,2021-06-27 17:11:29,2021-06-27 17:20:07,8m - 37.739s,FAILED
"callTestCase(findTestCase(""SCENARIO/OTOSALES/LOGIN/Login AO""), [:], STOP_ON_FAILURE)",Chrome 91.0.4472.114,,,2021-06-27 17:11:31,2021-06-27 17:12:47,1m - 16.226s,PASSED
"callTestCase(findTestCase(""PAGE/OTOSALES/LOGIN/Side Menu-Switch""), [""menu"":""Input Prospect""], STOP_ON_FAILURE)",Chrome 91.0.4472.114,,,2021-06-27 17:12:47,2021-06-27 17:13:14,26.973s,PASSED
"callTestCase(findTestCase(""PAGE/OTOSALES/NEW/INPUT PROSPECT/1.Prospect Info""), [""MV"":""MV NON GODIG"", ""isCompany"":false, ""prospectName"":""Test Otosales AO CD COM SPRINT 23 HRM"", ""phone1"":""082127670262"", ""phone2"":""081290154328"", ... ], STOP_ON_FAILURE)",Chrome 91.0.4472.114,,,2021-06-27 17:13:14,2021-06-27 17:15:24,2m - 10.047s,PASSED
"callTestCase(findTestCase(""PAGE/OTOSALES/NEW/INPUT PROSPECT/2.Vehicle Info""), [""VehicleName"":""SUZUKI CARRY 2008 PICK UP 1.0 BOX"", ""Usage"":""KOMERSIAL"", ""Region"":""Wilayah 2""], STOP_ON_FAILURE)",Chrome 91.0.4472.114,,,2021-06-27 17:15:24,2021-06-27 17:16:02,37.742s,PASSED
"callTestCase(findTestCase(""PAGE/OTOSALES/NEW/INPUT PROSPECT/3.Cover""), [""ProductType"":""Garda Oto"", ""MV"":OrderType, ""ProductCode"":""GDU52"", ""Coverage"":""TLO 1 Year"", ""TJH"":""25,000,000"", ""Terrorism"":true, ... ], STOP_ON_FAILURE)",Chrome 91.0.4472.114,,,2021-06-27 17:16:02,2021-06-27 17:20:07,4m - 4.419s,FAILED
,,,,,,,
Test Cases/SCENARIO/GEN5/TASKLIST SA/Tasklist,Chrome 91.0.4472.114,,,2021-06-27 17:20:07,2021-06-27 17:23:44,3m - 37.153s,FAILED
file = new java.io.File((com.kms.katalon.core.configuration.RunConfiguration.getProjectDir() + /Data Files/parameterLinkOtosales.txt)),Chrome 91.0.4472.114,,,2021-06-27 17:20:08,2021-06-27 17:20:08,0.003s,PASSED
text = FileUtils.readFileToString(file),Chrome 91.0.4472.114,,,2021-06-27 17:20:08,2021-06-27 17:20:08,0.004s,PASSED
switch (text),Chrome 91.0.4472.114,,,2021-06-27 17:20:08,2021-06-27 17:20:46,37.768s,PASSED
"callTestCase(findTestCase(""PAGE/GEN5/HOME/Side Menu""), [""SideMenu"":""Task List SA""], STOP_ON_FAILURE)",Chrome 91.0.4472.114,,,2021-06-27 17:20:46,2021-06-27 17:21:18,32.352s,PASSED
"callTestCase(findTestCase(""PAGE/GEN5/TASKLIST SA/Dashboard""), [""SearchBy"":""Order No"", ""Parameter"":OtosalesOrderNo], STOP_ON_FAILURE)",Chrome 91.0.4472.114,,,2021-06-27 17:21:18,2021-06-27 17:22:28,1m - 9.740s,PASSED
"callTestCase(findTestCase(""PAGE/GEN5/TASKLIST SA/Tasklist SA""), [""changePolicyHolder"":false, ""SearchParam"":""Name"", ""PolicyHolderName"":""Sir Cok Kotelawala"", ""NameOnPolicy"":""Default"", ""EmailDelivery"":""Customer"", ... ], STOP_ON_FAILURE)",Chrome 91.0.4472.114,,,2021-06-27 17:22:28,2021-06-27 17:23:44,1m - 16.109s,FAILED
,,,,,,,
Test Cases/SCENARIO/OTOSALES/APPROVAL/Approval AO,Chrome 91.0.4472.114,,,2021-06-27 17:23:44,2021-06-27 17:24:03,18.980s,PASSED
"QuerySalesOfficer = ""SELECT TOP 1* FROM dbo.SalesOfficer WHERE SalesOfficerID = '"" + OtosalesLogin + ""'""",Chrome 91.0.4472.114,,,2021-06-27 17:23:45,2021-06-27 17:23:45,0.003s,PASSED
"BranchCode = UI.getValueDatabase(""172.16.94.48"", ""AABMobile"", QuerySalesOfficer, ""BranchCode"")",Chrome 91.0.4472.114,,,2021-06-27 17:23:45,2021-06-27 17:23:46,0.962s,PASSED
"QueryAABHead = ""SELECT TOP 1* FROM dbo.AABHead WHERE param = '"" + BranchCode + ""' and RowStatus = '1'""",Chrome 91.0.4472.114,,,2021-06-27 17:23:46,2021-06-27 17:23:46,0.002s,PASSED
"Login = UI.getValueDatabase(""172.16.94.48"", ""AABMobile"", QueryAABHead, ""Value"")",Chrome 91.0.4472.114,,,2021-06-27 17:23:46,2021-06-27 17:23:47,1.097s,PASSED
Userlogin = OtosalesLogin,Chrome 91.0.4472.114,,,2021-06-27 17:23:47,2021-06-27 17:23:47,0.001s,PASSED
"Approve = ""SELECT TOP 1* FROM mst_order_mobile_approval where Order_no = '"" + OtosalesOrderNo + ""' and ApprovalStatus = '0' order by ApprovalType ASC""",Chrome 91.0.4472.114,,,2021-06-27 17:23:47,2021-06-27 17:23:47,0.002s,PASSED
"approvalType = UI.getValueDatabase(""172.16.94.74"", ""AAB"", Approve, ""ApprovalType"")",Chrome 91.0.4472.114,,,2021-06-27 17:23:47,2021-06-27 17:23:48,0.988s,PASSED
println(approvalType),Chrome 91.0.4472.114,,,2021-06-27 17:23:48,2021-06-27 17:23:48,0.003s,PASSED
"QueryMstOrder = ""SELECT * FROM mst_order WHERE Order_No = '"" + OtosalesOrderNo + ""'""",Chrome 91.0.4472.114,,,2021-06-27 17:23:48,2021-06-27 17:23:48,0.002s,PASSED
"OrdStatus = UI.getValueDatabase(""172.16.94.74"", ""AAB"", QueryMstOrder, ""Order_Status"")",Chrome 91.0.4472.114,,,2021-06-27 17:23:48,2021-06-27 17:23:49,1.235s,PASSED
"OrderNo = ""SELECT * FROM dbo.OrderSimulation WHERE PolicyOrderno = '"" + OtosalesOrderNo + ""'""",Chrome 91.0.4472.114,,,2021-06-27 17:23:49,2021-06-27 17:23:49,0.002s,PASSED
"OrderNoLong = UI.getValueDatabase(""172.16.94.48"", ""AABMOBILE"", OrderNo, ""OrderNo"")",Chrome 91.0.4472.114,,,2021-06-27 17:23:49,2021-06-27 17:23:50,1.143s,PASSED
"ApproveLP = ""SELECT * FROM dbo.OrderSimulationApproval where OrderNo = '"" + OrderNoLong + ""' and RowStatus = '1' and ApprovalStatus = '0'""",Chrome 91.0.4472.114,,,2021-06-27 17:23:50,2021-06-27 17:23:50,0.002s,PASSED
"approvalTypeLP = UI.getValueDatabase(""172.16.94.48"", ""AABMOBILE"", ApproveLP, ""ApprovalStatus"")",Chrome 91.0.4472.114,,,2021-06-27 17:23:50,2021-06-27 17:23:51,0.528s,PASSED
"while (approvalType != ""null"" && OrdStatus != ""9"")",Chrome 91.0.4472.114,,,2021-06-27 17:23:51,2021-06-27 17:23:51,0.001s,PASSED
println(approvalTypeLP),Chrome 91.0.4472.114,,,2021-06-27 17:23:51,2021-06-27 17:23:51,0.002s,PASSED
"if (approvalTypeLP == ""0"")",Chrome 91.0.4472.114,,,2021-06-27 17:23:51,2021-06-27 17:23:51,0.001s,PASSED
delay(2),Chrome 91.0.4472.114,,,2021-06-27 17:23:51,2021-06-27 17:23:53,2.008s,PASSED
delay(2),Chrome 91.0.4472.114,,,2021-06-27 17:23:53,2021-06-27 17:23:55,2.007s,PASSED
delay(2),Chrome 91.0.4472.114,,,2021-06-27 17:23:55,2021-06-27 17:23:57,2.007s,PASSED
delay(2),Chrome 91.0.4472.114,,,2021-06-27 17:23:57,2021-06-27 17:23:59,2.010s,PASSED
"QueryOrderStatus = ""select * from mst_order WHERE Order_No = '"" + OtosalesOrderNo + ""'""",Chrome 91.0.4472.114,,,2021-06-27 17:23:59,2021-06-27 17:23:59,0.002s,PASSED
"OrderStatus = UI.getValueDatabase(""172.16.94.74"", ""AAB"", QueryOrderStatus, ""Order_Status"")",Chrome 91.0.4472.114,,,2021-06-27 17:23:59,2021-06-27 17:24:00,1.072s,PASSED
"QueryAABMobile = ""SELECT FollowUpInfo,* FROM followUp WHERE FollowUpNo = (SELECT followUpNo FROM OrderSimulation WHERE PolicyOrderNo = '"" + OtosalesOrderNo + ""')""",Chrome 91.0.4472.114,,,2021-06-27 17:24:00,2021-06-27 17:24:00,0.002s,PASSED
"description = UI.getValueDatabase(""172.16.94.48"", ""AABMobile"", QueryAABMobile, ""FollowUpInfo"")",Chrome 91.0.4472.114,,,2021-06-27 17:24:00,2021-06-27 17:24:01,1.032s,PASSED
"while (description != ""50"")",Chrome 91.0.4472.114,,,2021-06-27 17:24:01,2021-06-27 17:24:01,0.002s,PASSED
println(description),Chrome 91.0.4472.114,,,2021-06-27 17:24:01,2021-06-27 17:24:01,0.001s,PASSED
closeBrowser(),Chrome 91.0.4472.114,,,2021-06-27 17:24:01,2021-06-27 17:24:03,1.690s,PASSED
