Suite/Test/Step Name,Browser,Description,Tag,Start time,End time,Duration,Status
"INPROSPECT-NONGODIG SYARIAH,COMP,M200,FULLCVR,COMPANY - AO - UMA - edit - Copy",Chrome 91.0.4472.114,,,2021-06-29 23:33:17,2021-06-29 23:53:49,20m - 32.468s,INCOMPLETE
,,,,,,,
"Test Cases/SCENARIO/OTOSALES/Collaboration/NEW ORDER/MVNONGODIG/SINGLE YEAR/Create Polis/INPROSPECT-NONGODIG SYARIAH,COMP,M200,FULLCVR,COMPANY - AO - UMA - edit - Copy",Chrome 91.0.4472.114,,,2021-06-29 23:33:18,2021-06-29 23:45:26,12m - 7.264s,PASSED
"callTestCase(findTestCase(""SCENARIO/OTOSALES/LOGIN/Login AO""), [:], STOP_ON_FAILURE)",Chrome 91.0.4472.114,,,2021-06-29 23:33:21,2021-06-29 23:34:06,45.748s,PASSED
"callTestCase(findTestCase(""PAGE/OTOSALES/LOGIN/Side Menu-Switch""), [""menu"":""Input Prospect""], STOP_ON_FAILURE)",Chrome 91.0.4472.114,,,2021-06-29 23:34:06,2021-06-29 23:34:19,12.965s,PASSED
"callTestCase(findTestCase(""PAGE/OTOSALES/NEW/INPUT PROSPECT/1.Prospect Info""), [""MV"":""MV NON GODIG"", ""isCompany"":true, ""prospectName"":""Test Otosales AO WIC COM SYA SPRINT 23 HRMi"", ""phone1"":""082127670262"", ... ], STOP_ON_FAILURE)",Chrome 91.0.4472.114,,,2021-06-29 23:34:19,2021-06-29 23:34:51,31.246s,PASSED
"callTestCase(findTestCase(""PAGE/OTOSALES/NEW/INPUT PROSPECT/2.Vehicle Info""), [""VehicleName"":""TOYOTA AGYA 2018 NEW 1.2 TRD M/T"", ""Usage"":""KOMERSIAL"", ""Region"":""Wilayah 2""], STOP_ON_FAILURE)",Chrome 91.0.4472.114,,,2021-06-29 23:34:51,2021-06-29 23:35:28,37.212s,PASSED
"callTestCase(findTestCase(""PAGE/OTOSALES/NEW/INPUT PROSPECT/3.Cover""), [""ProductType"":""Garda Oto Syariah"", ""ProductCode"":""GWU0S"", ""Coverage"":""TLO 1 Year"", ""TJH"":""25,000,000"", ""Terrorism"":true, ""Driver"":""20,000,000"", ... ], STOP_ON_FAILURE)",Chrome 91.0.4472.114,,,2021-06-29 23:35:28,2021-06-29 23:39:59,4m - 30.997s,PASSED
"callTestCase(findTestCase(""PAGE/OTOSALES/LOGIN/Side Menu-Switch""), [""menu"":""Task List""], STOP_ON_FAILURE)",Chrome 91.0.4472.114,,,2021-06-29 23:39:59,2021-06-29 23:40:04,5.023s,PASSED
"callTestCase(findTestCase(""PAGE/OTOSALES/NEW/TASKLIST/1.Home""), [""Chassis"":ChassisNo, ""CustName"":ProspectName], STOP_ON_FAILURE)",Chrome 91.0.4472.114,,,2021-06-29 23:40:04,2021-06-29 23:40:19,15.322s,PASSED
"callTestCase(findTestCase(""PAGE/OTOSALES/NEW/TASKLIST/2.Tasklist""), [""birthDate"":""15/10/1989"", ""NomorNPWP"":""371829374123456"", ""JenisKelamin"":""Laki-Laki"", ""Alamat"":""Jalan Pelan - Pelan"", ""KodePos"":""55141"", ... ], STOP_ON_FAILURE)",Chrome 91.0.4472.114,,,2021-06-29 23:40:19,2021-06-29 23:44:25,4m - 5.765s,PASSED
"callTestCase(findTestCase(""PAGE/OTOSALES/NEW/TASKLIST/3.FollowUp""), [""Reason"":""Send to SA"", ""Notes"":""Contacted"", ""Receiver"":""Sir Cok Kotelawala"", ""Remarks"":""Created by Katalon Studio"", ""ProspectName"":ProspectName], STOP_ON_FAILURE)",Chrome 91.0.4472.114,,,2021-06-29 23:44:25,2021-06-29 23:45:26,1m - 0.653s,PASSED
,,,,,,,
Test Cases/SCENARIO/GEN5/TASKLIST SA/Tasklist Syariah,Chrome 91.0.4472.114,,,2021-06-29 23:45:26,2021-06-29 23:51:18,5m - 52.021s,ERROR
file = new java.io.File((com.kms.katalon.core.configuration.RunConfiguration.getProjectDir() + /Data Files/parameterLinkOtosales.txt)),Chrome 91.0.4472.114,,,2021-06-29 23:45:27,2021-06-29 23:45:27,0.002s,PASSED
text = FileUtils.readFileToString(file),Chrome 91.0.4472.114,,,2021-06-29 23:45:27,2021-06-29 23:45:27,0.004s,PASSED
switch (text),Chrome 91.0.4472.114,,,2021-06-29 23:45:27,2021-06-29 23:45:55,28.391s,PASSED
"callTestCase(findTestCase(""PAGE/GEN5/HOME/Side Menu""), [""SideMenu"":""Task List SA""], STOP_ON_FAILURE)",Chrome 91.0.4472.114,,,2021-06-29 23:45:55,2021-06-29 23:46:23,27.730s,PASSED
"callTestCase(findTestCase(""PAGE/GEN5/TASKLIST SA/Dashboard""), [""SearchBy"":""Order No"", ""Parameter"":OtosalesOrderNo], STOP_ON_FAILURE)",Chrome 91.0.4472.114,,,2021-06-29 23:46:23,2021-06-29 23:47:10,47.012s,PASSED
"callTestCase(findTestCase(""PAGE/GEN5/TASKLIST SA/Tasklist SA""), [""changePolicyHolder"":false, ""SearchParam"":""Name"", ""PolicyHolderName"":""Sir Cok Kotelawala"", ""NameOnPolicy"":""Default"", ""EmailDelivery"":""Customer"", ... ], STOP_ON_FAILURE)",Chrome 91.0.4472.114,,,2021-06-29 23:47:10,2021-06-29 23:51:18,4m - 7.821s,FAILED
,,,,,,,
Test Cases/SCENARIO/OTOSALES/APPROVAL/Approval AO,Chrome 91.0.4472.114,,,2021-06-29 23:51:18,2021-06-29 23:53:49,2m - 31.616s,PASSED
"QuerySalesOfficer = ""SELECT TOP 1* FROM dbo.SalesOfficer WHERE SalesOfficerID = '"" + OtosalesLogin + ""'""",Chrome 91.0.4472.114,,,2021-06-29 23:51:19,2021-06-29 23:51:19,0.001s,PASSED
"BranchCode = UI.getValueDatabase(""172.16.94.48"", ""AABMobile"", QuerySalesOfficer, ""BranchCode"")",Chrome 91.0.4472.114,,,2021-06-29 23:51:19,2021-06-29 23:51:19,0.182s,PASSED
"QueryAABHead = ""SELECT TOP 1* FROM dbo.AABHead WHERE param = '"" + BranchCode + ""' and RowStatus = '1'""",Chrome 91.0.4472.114,,,2021-06-29 23:51:19,2021-06-29 23:51:19,0.001s,PASSED
"Login = UI.getValueDatabase(""172.16.94.48"", ""AABMobile"", QueryAABHead, ""Value"")",Chrome 91.0.4472.114,,,2021-06-29 23:51:19,2021-06-29 23:51:19,0.197s,PASSED
Userlogin = OtosalesLogin,Chrome 91.0.4472.114,,,2021-06-29 23:51:19,2021-06-29 23:51:19,0.002s,PASSED
"Approve = ""SELECT TOP 1* FROM mst_order_mobile_approval where Order_no = '"" + OtosalesOrderNo + ""' and ApprovalStatus = '0' order by ApprovalType ASC""",Chrome 91.0.4472.114,,,2021-06-29 23:51:19,2021-06-29 23:51:19,0.002s,PASSED
"approvalType = UI.getValueDatabase(""172.16.94.74"", ""AAB"", Approve, ""ApprovalType"")",Chrome 91.0.4472.114,,,2021-06-29 23:51:19,2021-06-29 23:51:19,0.124s,PASSED
println(approvalType),Chrome 91.0.4472.114,,,2021-06-29 23:51:19,2021-06-29 23:51:19,0.003s,PASSED
"QueryMstOrder = ""SELECT * FROM mst_order WHERE Order_No = '"" + OtosalesOrderNo + ""'""",Chrome 91.0.4472.114,,,2021-06-29 23:51:19,2021-06-29 23:51:19,0.002s,PASSED
"OrdStatus = UI.getValueDatabase(""172.16.94.74"", ""AAB"", QueryMstOrder, ""Order_Status"")",Chrome 91.0.4472.114,,,2021-06-29 23:51:19,2021-06-29 23:51:19,0.135s,PASSED
"OrderNo = ""SELECT * FROM dbo.OrderSimulation WHERE PolicyOrderno = '"" + OtosalesOrderNo + ""'""",Chrome 91.0.4472.114,,,2021-06-29 23:51:19,2021-06-29 23:51:19,0.001s,PASSED
"OrderNoLong = UI.getValueDatabase(""172.16.94.48"", ""AABMOBILE"", OrderNo, ""OrderNo"")",Chrome 91.0.4472.114,,,2021-06-29 23:51:19,2021-06-29 23:51:20,0.419s,PASSED
"ApproveLP = ""SELECT * FROM dbo.OrderSimulationApproval where OrderNo = '"" + OrderNoLong + ""' and RowStatus = '1' and ApprovalStatus = '0'""",Chrome 91.0.4472.114,,,2021-06-29 23:51:20,2021-06-29 23:51:20,0.001s,PASSED
"approvalTypeLP = UI.getValueDatabase(""172.16.94.48"", ""AABMOBILE"", ApproveLP, ""ApprovalStatus"")",Chrome 91.0.4472.114,,,2021-06-29 23:51:20,2021-06-29 23:51:21,1.152s,PASSED
"while (approvalType != ""null"" && OrdStatus != ""9"")",Chrome 91.0.4472.114,,,2021-06-29 23:51:21,2021-06-29 23:52:27,1m - 6.280s,PASSED
println(approvalTypeLP),Chrome 91.0.4472.114,,,2021-06-29 23:52:27,2021-06-29 23:52:27,0.001s,PASSED
"if (approvalTypeLP == ""0"")",Chrome 91.0.4472.114,,,2021-06-29 23:52:27,2021-06-29 23:52:27,0.001s,PASSED
delay(2),Chrome 91.0.4472.114,,,2021-06-29 23:52:27,2021-06-29 23:52:29,2.006s,PASSED
delay(2),Chrome 91.0.4472.114,,,2021-06-29 23:52:29,2021-06-29 23:52:31,2.008s,PASSED
delay(2),Chrome 91.0.4472.114,,,2021-06-29 23:52:31,2021-06-29 23:52:33,2.008s,PASSED
delay(2),Chrome 91.0.4472.114,,,2021-06-29 23:52:33,2021-06-29 23:52:35,2.008s,PASSED
"QueryOrderStatus = ""select * from mst_order WHERE Order_No = '"" + OtosalesOrderNo + ""'""",Chrome 91.0.4472.114,,,2021-06-29 23:52:35,2021-06-29 23:52:35,0.002s,PASSED
"OrderStatus = UI.getValueDatabase(""172.16.94.74"", ""AAB"", QueryOrderStatus, ""Order_Status"")",Chrome 91.0.4472.114,,,2021-06-29 23:52:35,2021-06-29 23:52:36,0.331s,PASSED
"QueryAABMobile = ""SELECT FollowUpInfo,* FROM followUp WHERE FollowUpNo = (SELECT followUpNo FROM OrderSimulation WHERE PolicyOrderNo = '"" + OtosalesOrderNo + ""')""",Chrome 91.0.4472.114,,,2021-06-29 23:52:36,2021-06-29 23:52:36,0.002s,PASSED
"description = UI.getValueDatabase(""172.16.94.48"", ""AABMobile"", QueryAABMobile, ""FollowUpInfo"")",Chrome 91.0.4472.114,,,2021-06-29 23:52:36,2021-06-29 23:52:36,0.419s,PASSED
"while (description != ""50"")",Chrome 91.0.4472.114,,,2021-06-29 23:52:36,2021-06-29 23:53:47,1m - 11.090s,PASSED
println(description),Chrome 91.0.4472.114,,,2021-06-29 23:53:47,2021-06-29 23:53:47,0.002s,PASSED
closeBrowser(),Chrome 91.0.4472.114,,,2021-06-29 23:53:47,2021-06-29 23:53:49,2.173s,PASSED
