Suite/Test/Step Name,Browser,Description,Tag,Start time,End time,Duration,Status
"INPROSPECT-NONGODIG SYARIAH,COMP,M200,FULLCVR,COMPANY - AO - UMA",Chrome 89.0.4389.114,,,2021-04-13 09:48:35,2021-04-13 10:02:08,13m - 33.630s,INCOMPLETE
,,,,,,,
"Test Cases/SCENARIO/OTOSALES/Collaboration/NEW ORDER/MVNONGODIG/SINGLE YEAR/Create Polis/INPROSPECT-NONGODIG SYARIAH,COMP,M200,FULLCVR,COMPANY,KOMISI,NOAPPADJ - AO",Chrome 89.0.4389.114,,,2021-04-13 09:48:37,2021-04-13 09:57:56,9m - 18.567s,PASSED
"callTestCase(findTestCase(""SCENARIO/OTOSALES/LOGIN/Login AO""), [:], STOP_ON_FAILURE)",Chrome 89.0.4389.114,,,2021-04-13 09:48:41,2021-04-13 09:49:46,1m - 5.268s,PASSED
"callTestCase(findTestCase(""PAGE/OTOSALES/LOGIN/Side Menu-Switch""), [""menu"":""Input Prospect""], STOP_ON_FAILURE)",Chrome 89.0.4389.114,,,2021-04-13 09:49:46,2021-04-13 09:49:53,7.388s,PASSED
"callTestCase(findTestCase(""PAGE/OTOSALES/NEW/INPUT PROSPECT/1.Prospect Info""), [""MV"":""MV NON GODIG"", ""isCompany"":true, ""prospectName"":""Test Otosales AO CD Syariah HRM"", ""phone1"":""082127670262"", ""phone2"":""081290154328"", ... ], STOP_ON_FAILURE)",Chrome 89.0.4389.114,,,2021-04-13 09:49:53,2021-04-13 09:50:25,31.507s,PASSED
"callTestCase(findTestCase(""PAGE/OTOSALES/NEW/INPUT PROSPECT/2.Vehicle Info""), [""VehicleName"":""XPANDER 2018 ULTIMATE"", ""Usage"":""PRIBADI"", ""Region"":""Wilayah 2""], STOP_ON_FAILURE)",Chrome 89.0.4389.114,,,2021-04-13 09:50:25,2021-04-13 09:50:58,33.657s,PASSED
"callTestCase(findTestCase(""PAGE/OTOSALES/NEW/INPUT PROSPECT/3.Cover""), [""ProductType"":""Garda Oto Syariah"", ""ProductCode"":""GDU0S"", ""Coverage"":""Comprehensive 1 Year"", ""TJH"":""25,000,000"", ""Terrorism"":true, ... ], STOP_ON_FAILURE)",Chrome 89.0.4389.114,,,2021-04-13 09:50:58,2021-04-13 09:52:10,1m - 12.063s,PASSED
"callTestCase(findTestCase(""PAGE/OTOSALES/LOGIN/Side Menu-Switch""), [""menu"":""Task List""], STOP_ON_FAILURE)",Chrome 89.0.4389.114,,,2021-04-13 09:52:10,2021-04-13 09:52:15,4.315s,PASSED
"callTestCase(findTestCase(""PAGE/OTOSALES/NEW/TASKLIST/1.Home""), [""Chassis"":ChassisNo, ""CustName"":ProspectName], STOP_ON_FAILURE)",Chrome 89.0.4389.114,,,2021-04-13 09:52:15,2021-04-13 09:52:27,11.914s,PASSED
"callTestCase(findTestCase(""PAGE/OTOSALES/NEW/TASKLIST/2.Tasklist""), [""birthDate"":""15/10/1989"", ""NomorNPWP"":""371829374123456"", ""JenisKelamin"":""Laki-Laki"", ""Alamat"":""Jalan Pelan - Pelan"", ""KodePos"":""55141"", ... ], STOP_ON_FAILURE)",Chrome 89.0.4389.114,,,2021-04-13 09:52:27,2021-04-13 09:56:21,3m - 53.807s,PASSED
"callTestCase(findTestCase(""PAGE/OTOSALES/NEW/TASKLIST/3.FollowUp""), [""Reason"":""Send to SA"", ""Notes"":""Contacted"", ""Receiver"":""Sir Cok Kotelawala"", ""Remarks"":""Created by Katalon Studio"", ""ProspectName"":ProspectName], STOP_ON_FAILURE)",Chrome 89.0.4389.114,,,2021-04-13 09:56:21,2021-04-13 09:57:56,1m - 35.025s,PASSED
,,,,,,,
Test Cases/SCENARIO/GEN5/TASKLIST SA/Tasklist Syariah,Chrome 89.0.4389.114,,,2021-04-13 09:57:56,2021-04-13 10:01:41,3m - 45.672s,PASSED
"callTestCase(findTestCase(""PAGE/GEN5/LOGIN/Login""), [""username"":""DOC"", ""password"":""ITG@nt1P455QC"", ""isSyariah"":true], STOP_ON_FAILURE)",Chrome 89.0.4389.114,,,2021-04-13 09:57:56,2021-04-13 09:58:17,20.603s,PASSED
"callTestCase(findTestCase(""PAGE/GEN5/HOME/Side Menu""), [""SideMenu"":""Task List SA""], STOP_ON_FAILURE)",Chrome 89.0.4389.114,,,2021-04-13 09:58:17,2021-04-13 09:58:36,19.223s,PASSED
"callTestCase(findTestCase(""PAGE/GEN5/TASKLIST SA/Dashboard""), [""SearchBy"":""Order No"", ""Parameter"":OtosalesOrderNo], STOP_ON_FAILURE)",Chrome 89.0.4389.114,,,2021-04-13 09:58:36,2021-04-13 09:59:20,44.377s,PASSED
"callTestCase(findTestCase(""PAGE/GEN5/TASKLIST SA/Tasklist SA""), [""changePolicyHolder"":false, ""SearchParam"":""Name"", ""PolicyHolderName"":""Sir Cok Kotelawala"", ""NameOnPolicy"":""Default"", ""EmailDelivery"":""Customer"", ... ], STOP_ON_FAILURE)",Chrome 89.0.4389.114,,,2021-04-13 09:59:20,2021-04-13 10:01:41,2m - 20.934s,PASSED
,,,,,,,
Test Cases/SCENARIO/OTOSALES/APPROVAL/Approval AO,Chrome 89.0.4389.114,,,2021-04-13 10:01:41,2021-04-13 10:02:08,27.206s,PASSED
"QuerySalesOfficer = ""SELECT TOP 1* FROM dbo.SalesOfficer WHERE SalesOfficerID = '"" + OtosalesLogin + ""'""",Chrome 89.0.4389.114,,,2021-04-13 10:01:42,2021-04-13 10:01:42,0.002s,PASSED
"BranchCode = UI.getValueDatabase(""172.16.94.48"", ""AABMobile"", QuerySalesOfficer, ""BranchCode"")",Chrome 89.0.4389.114,,,2021-04-13 10:01:42,2021-04-13 10:01:42,0.212s,PASSED
"QueryAABHead = ""SELECT TOP 1* FROM dbo.AABHead WHERE param = '"" + BranchCode + ""' and RowStatus = '1'""",Chrome 89.0.4389.114,,,2021-04-13 10:01:42,2021-04-13 10:01:42,0.002s,PASSED
"Login = UI.getValueDatabase(""172.16.94.48"", ""AABMobile"", QueryAABHead, ""Value"")",Chrome 89.0.4389.114,,,2021-04-13 10:01:42,2021-04-13 10:01:43,0.231s,PASSED
Userlogin = OtosalesLogin,Chrome 89.0.4389.114,,,2021-04-13 10:01:43,2021-04-13 10:01:43,0.001s,PASSED
"Approve = ""SELECT TOP 1* FROM mst_order_mobile_approval where Order_no = '"" + OtosalesOrderNo + ""' and ApprovalStatus = '0' order by ApprovalType ASC""",Chrome 89.0.4389.114,,,2021-04-13 10:01:43,2021-04-13 10:01:43,0.001s,PASSED
"approvalType = UI.getValueDatabase(""172.16.94.74"", ""AAB"", Approve, ""ApprovalType"")",Chrome 89.0.4389.114,,,2021-04-13 10:01:43,2021-04-13 10:01:43,0.125s,PASSED
println(approvalType),Chrome 89.0.4389.114,,,2021-04-13 10:01:43,2021-04-13 10:01:43,0.002s,PASSED
"while (approvalType != ""null"")",Chrome 89.0.4389.114,,,2021-04-13 10:01:43,2021-04-13 10:01:43,0.001s,PASSED
"QueryOrderStatus = ""select * from mst_order WHERE Order_No = '"" + OtosalesOrderNo + ""'""",Chrome 89.0.4389.114,,,2021-04-13 10:01:43,2021-04-13 10:01:43,0.001s,PASSED
"OrderStatus = UI.getValueDatabase(""172.16.94.74"", ""AAB"", QueryOrderStatus, ""Order_Status"")",Chrome 89.0.4389.114,,,2021-04-13 10:01:43,2021-04-13 10:01:43,0.123s,PASSED
"while (OrderStatus != ""9"")",Chrome 89.0.4389.114,,,2021-04-13 10:01:43,2021-04-13 10:02:08,25.666s,PASSED
closeBrowser(),Chrome 89.0.4389.114,,,2021-04-13 10:02:08,2021-04-13 10:02:08,0.013s,PASSED
