Suite/Test/Step Name,Browser,Description,Tag,Start time,End time,Duration,Status
"INPROSPECT-NONGODIG SYARIAH,COMP,M200,FULLCVR,COMPANY - TELERENEWAL",Chrome 91.0.4472.77,,,2021-06-10 05:43:16,2021-06-10 05:59:25,16m - 8.952s,INCOMPLETE
,,,,,,,
"Test Cases/SCENARIO/OTOSALES/Collaboration/NEW ORDER/MVNONGODIG/SINGLE YEAR/Create Polis/INPROSPECT-NONGODIG SYARIAH,COMP,M200,FULLCVR,COMPANY - TELERENEWAL",Chrome 91.0.4472.77,,,2021-06-10 05:43:19,2021-06-10 05:53:10,9m - 51.082s,PASSED
"callTestCase(findTestCase(""SCENARIO/OTOSALES/LOGIN/Login Telerenewal""), [:], STOP_ON_FAILURE)",Chrome 91.0.4472.77,,,2021-06-10 05:43:22,2021-06-10 05:44:35,1m - 13.191s,PASSED
"callTestCase(findTestCase(""PAGE/OTOSALES/LOGIN/Side Menu-Switch""), [""menu"":""Input Prospect""], STOP_ON_FAILURE)",Chrome 91.0.4472.77,,,2021-06-10 05:44:35,2021-06-10 05:44:49,13.556s,PASSED
"callTestCase(findTestCase(""PAGE/OTOSALES/NEW/INPUT PROSPECT/1.Prospect Info""), [""MV"":""MV NON GODIG"", ""isCompany"":true, ""prospectName"":""Test Otosales TELE COM Syariah HRM"", ""phone1"":""082127670262"", ""phone2"":""081290154328"", ... ], STOP_ON_FAILURE)",Chrome 91.0.4472.77,,,2021-06-10 05:44:49,2021-06-10 05:45:23,34.442s,PASSED
"callTestCase(findTestCase(""PAGE/OTOSALES/NEW/INPUT PROSPECT/2.Vehicle Info""), [""VehicleName"":""XPANDER 2018 ULTIMATE"", ""Usage"":""PRIBADI"", ""Region"":""Wilayah 2""], STOP_ON_FAILURE)",Chrome 91.0.4472.77,,,2021-06-10 05:45:23,2021-06-10 05:46:07,43.931s,PASSED
"callTestCase(findTestCase(""PAGE/OTOSALES/NEW/INPUT PROSPECT/3.Cover""), [""ProductType"":""Garda Oto Syariah"", ""ProductCode"":""GWU0S"", ""Coverage"":""Comprehensive 1 Year"", ""TJH"":""25,000,000"", ""Terrorism"":true, ... ], STOP_ON_FAILURE)",Chrome 91.0.4472.77,,,2021-06-10 05:46:07,2021-06-10 05:47:45,1m - 38.250s,PASSED
"callTestCase(findTestCase(""PAGE/OTOSALES/LOGIN/Side Menu-Switch""), [""menu"":""Task List""], STOP_ON_FAILURE)",Chrome 91.0.4472.77,,,2021-06-10 05:47:45,2021-06-10 05:47:51,5.020s,PASSED
"callTestCase(findTestCase(""PAGE/OTOSALES/NEW/TASKLIST/1.Home""), [""Chassis"":ChassisNo, ""CustName"":ProspectName], STOP_ON_FAILURE)",Chrome 91.0.4472.77,,,2021-06-10 05:47:51,2021-06-10 05:48:04,13.791s,PASSED
"callTestCase(findTestCase(""PAGE/OTOSALES/NEW/TASKLIST/2.Tasklist""), [""birthDate"":""15/10/1989"", ""NomorNPWP"":""371829374123456"", ""JenisKelamin"":""Laki-Laki"", ""Alamat"":""Jalan Pelan - Pelan"", ""KodePos"":""55141"", ... ], STOP_ON_FAILURE)",Chrome 91.0.4472.77,,,2021-06-10 05:48:04,2021-06-10 05:51:47,3m - 42.452s,PASSED
"callTestCase(findTestCase(""PAGE/OTOSALES/NEW/TASKLIST/3.FollowUp""), [""Reason"":""Send to SA"", ""Notes"":""Contacted"", ""Receiver"":""Sir Cok Kotelawala"", ""Remarks"":""Created by Katalon Studio"", ""ProspectName"":ProspectName], STOP_ON_FAILURE)",Chrome 91.0.4472.77,,,2021-06-10 05:51:47,2021-06-10 05:53:10,1m - 23.283s,PASSED
,,,,,,,
Test Cases/SCENARIO/GEN5/TASKLIST SA/Tasklist Syariah,Chrome 91.0.4472.77,,,2021-06-10 05:53:10,2021-06-10 05:57:29,4m - 19.281s,PASSED
"callTestCase(findTestCase(""PAGE/GEN5/LOGIN/Login""), [""username"":""DOC"", ""password"":""ITG@nt1P455QC"", ""isSyariah"":true], STOP_ON_FAILURE)",Chrome 91.0.4472.77,,,2021-06-10 05:53:11,2021-06-10 05:53:30,19.399s,PASSED
"callTestCase(findTestCase(""PAGE/GEN5/HOME/Side Menu""), [""SideMenu"":""Task List SA""], STOP_ON_FAILURE)",Chrome 91.0.4472.77,,,2021-06-10 05:53:30,2021-06-10 05:53:52,22.352s,PASSED
"callTestCase(findTestCase(""PAGE/GEN5/TASKLIST SA/Dashboard""), [""SearchBy"":""Order No"", ""Parameter"":OtosalesOrderNo], STOP_ON_FAILURE)",Chrome 91.0.4472.77,,,2021-06-10 05:53:52,2021-06-10 05:54:38,45.646s,PASSED
"callTestCase(findTestCase(""PAGE/GEN5/TASKLIST SA/Tasklist SA""), [""changePolicyHolder"":false, ""SearchParam"":""Name"", ""PolicyHolderName"":""Sir Cok Kotelawala"", ""NameOnPolicy"":""Default"", ""EmailDelivery"":""Customer"", ... ], STOP_ON_FAILURE)",Chrome 91.0.4472.77,,,2021-06-10 05:54:38,2021-06-10 05:57:29,2m - 51.401s,PASSED
,,,,,,,
Test Cases/SCENARIO/OTOSALES/APPROVAL/Approval TELE,Chrome 91.0.4472.77,,,2021-06-10 05:57:29,2021-06-10 05:59:25,1m - 56.059s,PASSED
"QueryAABHead = ""SELECT TOP 1* FROM dbo.AABHead WHERE param = 'NIP'""",Chrome 91.0.4472.77,,,2021-06-10 05:57:30,2021-06-10 05:57:30,0.001s,PASSED
"Login = UI.getValueDatabase(""172.16.94.48"", ""AABMobile"", QueryAABHead, ""Value"")",Chrome 91.0.4472.77,,,2021-06-10 05:57:30,2021-06-10 05:57:32,2.068s,PASSED
"Approve = ""SELECT TOP 1* FROM mst_order_mobile_approval where Order_no = '"" + OtosalesOrderNo + ""' and ApprovalStatus = '0' order by ApprovalType ASC""",Chrome 91.0.4472.77,,,2021-06-10 05:57:32,2021-06-10 05:57:32,0.002s,PASSED
"approvalType = UI.getValueDatabase(""172.16.94.74"", ""AAB"", Approve, ""ApprovalType"")",Chrome 91.0.4472.77,,,2021-06-10 05:57:32,2021-06-10 05:57:32,0.117s,PASSED
"QueryMstOrder = ""SELECT * FROM mst_order WHERE Order_No = '"" + OtosalesOrderNo + ""'""",Chrome 91.0.4472.77,,,2021-06-10 05:57:32,2021-06-10 05:57:32,0.001s,PASSED
"OrdStatus = UI.getValueDatabase(""172.16.94.74"", ""AAB"", QueryMstOrder, ""Order_Status"")",Chrome 91.0.4472.77,,,2021-06-10 05:57:32,2021-06-10 05:57:33,0.103s,PASSED
"OrderNo = ""SELECT * FROM dbo.OrderSimulation WHERE PolicyOrderno = '"" + OtosalesOrderNo + ""'""",Chrome 91.0.4472.77,,,2021-06-10 05:57:33,2021-06-10 05:57:33,0.001s,PASSED
"OrderNoLong = UI.getValueDatabase(""172.16.94.48"", ""AABMOBILE"", OrderNo, ""OrderNo"")",Chrome 91.0.4472.77,,,2021-06-10 05:57:33,2021-06-10 05:57:33,0.434s,PASSED
"ApproveLP = ""SELECT * FROM dbo.OrderSimulationApproval where OrderNo = '"" + OrderNoLong + ""' and RowStatus = '1' and ApprovalStatus = '0'""",Chrome 91.0.4472.77,,,2021-06-10 05:57:33,2021-06-10 05:57:33,0.002s,PASSED
"approvalTypeLP = UI.getValueDatabase(""172.16.94.48"", ""AABMOBILE"", ApproveLP, ""ApprovalStatus"")",Chrome 91.0.4472.77,,,2021-06-10 05:57:33,2021-06-10 05:57:33,0.276s,PASSED
println(approvalType),Chrome 91.0.4472.77,,,2021-06-10 05:57:33,2021-06-10 05:57:33,0.002s,PASSED
println(OrdStatus),Chrome 91.0.4472.77,,,2021-06-10 05:57:33,2021-06-10 05:57:33,0.001s,PASSED
"while (approvalType != ""null"" && OrdStatus != ""9"")",Chrome 91.0.4472.77,,,2021-06-10 05:57:33,2021-06-10 05:58:33,59.876s,PASSED
println(approvalTypeLP),Chrome 91.0.4472.77,,,2021-06-10 05:58:33,2021-06-10 05:58:33,0.002s,PASSED
"if (approvalTypeLP == ""0"")",Chrome 91.0.4472.77,,,2021-06-10 05:58:33,2021-06-10 05:58:33,0.002s,PASSED
delay(2),Chrome 91.0.4472.77,,,2021-06-10 05:58:33,2021-06-10 05:58:35,2.008s,PASSED
delay(2),Chrome 91.0.4472.77,,,2021-06-10 05:58:35,2021-06-10 05:58:37,2.006s,PASSED
delay(2),Chrome 91.0.4472.77,,,2021-06-10 05:58:37,2021-06-10 05:58:39,2.013s,PASSED
delay(2),Chrome 91.0.4472.77,,,2021-06-10 05:58:39,2021-06-10 05:58:41,2.014s,PASSED
"QueryOrderStatus = ""select * from mst_order WHERE Order_No = '"" + OtosalesOrderNo + ""'""",Chrome 91.0.4472.77,,,2021-06-10 05:58:41,2021-06-10 05:58:41,0.003s,PASSED
"OrderStatus = UI.getValueDatabase(""172.16.94.74"", ""AAB"", QueryOrderStatus, ""Order_Status"")",Chrome 91.0.4472.77,,,2021-06-10 05:58:41,2021-06-10 05:58:41,0.185s,PASSED
"QueryAABMobile = ""SELECT FollowUpInfo,* FROM followUp WHERE FollowUpNo = (SELECT followUpNo FROM OrderSimulation WHERE PolicyOrderNo = '"" + OtosalesOrderNo + ""')""",Chrome 91.0.4472.77,,,2021-06-10 05:58:41,2021-06-10 05:58:41,0.001s,PASSED
"description = UI.getValueDatabase(""172.16.94.48"", ""AABMobile"", QueryAABMobile, ""FollowUpInfo"")",Chrome 91.0.4472.77,,,2021-06-10 05:58:41,2021-06-10 05:58:42,0.305s,PASSED
"while (description != ""50"")",Chrome 91.0.4472.77,,,2021-06-10 05:58:42,2021-06-10 05:59:24,42.157s,PASSED
println(description),Chrome 91.0.4472.77,,,2021-06-10 05:59:24,2021-06-10 05:59:24,0.002s,PASSED
closeBrowser(),Chrome 91.0.4472.77,,,2021-06-10 05:59:24,2021-06-10 05:59:25,1.579s,PASSED
