Suite/Test/Step Name,Browser,Description,Tag,Start time,End time,Duration,Status
"INPROSPECT-NONGODIG GO,COMP,M200,FULLCVR,COMPANY - TELERENEWAL",Chrome 91.0.4472.77,,,2021-06-10 01:06:33,2021-06-10 01:22:40,16m - 6.832s,INCOMPLETE
,,,,,,,
"Test Cases/SCENARIO/OTOSALES/Collaboration/NEW ORDER/MVNONGODIG/SINGLE YEAR/Create Polis/INPROSPECT-NONGODIG GO,COMP,M200,FULLCVR,COMPANY - TELERENEWAL",Chrome 91.0.4472.77,,,2021-06-10 01:06:36,2021-06-10 01:15:14,8m - 38.103s,PASSED
"callTestCase(findTestCase(""SCENARIO/OTOSALES/LOGIN/Login Telerenewal""), [:], STOP_ON_FAILURE)",Chrome 91.0.4472.77,,,2021-06-10 01:06:39,2021-06-10 01:07:31,51.589s,PASSED
"callTestCase(findTestCase(""PAGE/OTOSALES/LOGIN/Side Menu-Switch""), [""menu"":""Input Prospect""], STOP_ON_FAILURE)",Chrome 91.0.4472.77,,,2021-06-10 01:07:31,2021-06-10 01:07:41,9.891s,PASSED
"callTestCase(findTestCase(""PAGE/OTOSALES/NEW/INPUT PROSPECT/1.Prospect Info""), [""MV"":""MV NON GODIG"", ""isCompany"":false, ""prospectName"":""Test Otosales Telerenewal WIC COM HRM K200 MY"", ""phone1"":""082127670262"", ... ], STOP_ON_FAILURE)",Chrome 91.0.4472.77,,,2021-06-10 01:07:41,2021-06-10 01:09:41,2m - 0.221s,PASSED
"callTestCase(findTestCase(""PAGE/OTOSALES/NEW/INPUT PROSPECT/2.Vehicle Info""), [""VehicleName"":""XPANDER 2018 ULTIMATE"", ""Usage"":""PRIBADI"", ""Region"":""Wilayah 2""], STOP_ON_FAILURE)",Chrome 91.0.4472.77,,,2021-06-10 01:09:41,2021-06-10 01:10:09,28.101s,PASSED
"callTestCase(findTestCase(""PAGE/OTOSALES/NEW/INPUT PROSPECT/3.Cover""), [""ProductType"":""Garda Oto"", ""MV"":OrderType, ""ProductCode"":""GWU50"", ""Coverage"":""Comprehensive 1 Year"", ""TJH"":""25,000,000"", ""Terrorism"":true, ... ], STOP_ON_FAILURE)",Chrome 91.0.4472.77,,,2021-06-10 01:10:09,2021-06-10 01:11:17,1m - 7.802s,PASSED
"callTestCase(findTestCase(""PAGE/OTOSALES/LOGIN/Side Menu-Switch""), [""menu"":""Task List""], STOP_ON_FAILURE)",Chrome 91.0.4472.77,,,2021-06-10 01:11:17,2021-06-10 01:11:23,6.265s,PASSED
"callTestCase(findTestCase(""PAGE/OTOSALES/NEW/TASKLIST/1.Home""), [""Chassis"":ChassisNo, ""CustName"":ProspectName], STOP_ON_FAILURE)",Chrome 91.0.4472.77,,,2021-06-10 01:11:23,2021-06-10 01:11:39,16.116s,PASSED
"callTestCase(findTestCase(""PAGE/OTOSALES/NEW/TASKLIST/2.Tasklist""), [""birthDate"":""15/10/1989"", ""NomorNPWP"":""371829374123"", ""JenisKelamin"":""Laki-Laki"", ""Alamat"":""Jalan Pelan - Pelan"", ""KodePos"":""55141"", ... ], STOP_ON_FAILURE)",Chrome 91.0.4472.77,,,2021-06-10 01:11:39,2021-06-10 01:13:47,2m - 7.481s,PASSED
"callTestCase(findTestCase(""PAGE/OTOSALES/NEW/TASKLIST/3.FollowUp""), [""Reason"":""Send to SA"", ""Notes"":""Contacted"", ""Receiver"":""Sir Cok Kotelawala"", ""Remarks"":""Created by Katalon Studio"", ""ProspectName"":ProspectName], STOP_ON_FAILURE)",Chrome 91.0.4472.77,,,2021-06-10 01:13:47,2021-06-10 01:15:14,1m - 27.629s,PASSED
,,,,,,,
Test Cases/SCENARIO/GEN5/TASKLIST SA/Tasklist,Chrome 91.0.4472.77,,,2021-06-10 01:15:14,2021-06-10 01:21:24,6m - 9.576s,PASSED
"callTestCase(findTestCase(""PAGE/GEN5/LOGIN/Login""), [""username"":""DOC"", ""password"":""ITG@nt1P455QC"", ""isSyariah"":false], STOP_ON_FAILURE)",Chrome 91.0.4472.77,,,2021-06-10 01:15:15,2021-06-10 01:15:46,31.426s,PASSED
"callTestCase(findTestCase(""PAGE/GEN5/HOME/Side Menu""), [""SideMenu"":""Task List SA""], STOP_ON_FAILURE)",Chrome 91.0.4472.77,,,2021-06-10 01:15:46,2021-06-10 01:16:08,21.365s,PASSED
"callTestCase(findTestCase(""PAGE/GEN5/TASKLIST SA/Dashboard""), [""SearchBy"":""Order No"", ""Parameter"":OtosalesOrderNo], STOP_ON_FAILURE)",Chrome 91.0.4472.77,,,2021-06-10 01:16:08,2021-06-10 01:17:11,1m - 3.223s,PASSED
"callTestCase(findTestCase(""PAGE/GEN5/TASKLIST SA/Tasklist SA""), [""changePolicyHolder"":false, ""SearchParam"":""Name"", ""PolicyHolderName"":""Sir Cok Kotelawala"", ""NameOnPolicy"":""Default"", ""EmailDelivery"":""Customer"", ... ], STOP_ON_FAILURE)",Chrome 91.0.4472.77,,,2021-06-10 01:17:11,2021-06-10 01:21:24,4m - 12.895s,PASSED
,,,,,,,
Test Cases/SCENARIO/OTOSALES/APPROVAL/Approval TELE,Chrome 91.0.4472.77,,,2021-06-10 01:21:24,2021-06-10 01:22:40,1m - 16.249s,PASSED
"QueryAABHead = ""SELECT TOP 1* FROM dbo.AABHead WHERE param = 'NIP'""",Chrome 91.0.4472.77,,,2021-06-10 01:21:25,2021-06-10 01:21:25,0.001s,PASSED
"Login = UI.getValueDatabase(""172.16.94.48"", ""AABMobile"", QueryAABHead, ""Value"")",Chrome 91.0.4472.77,,,2021-06-10 01:21:25,2021-06-10 01:21:25,0.612s,PASSED
"Approve = ""SELECT TOP 1* FROM mst_order_mobile_approval where Order_no = '"" + OtosalesOrderNo + ""' and ApprovalStatus = '0' order by ApprovalType ASC""",Chrome 91.0.4472.77,,,2021-06-10 01:21:25,2021-06-10 01:21:25,0.002s,PASSED
"approvalType = UI.getValueDatabase(""172.16.94.74"", ""AAB"", Approve, ""ApprovalType"")",Chrome 91.0.4472.77,,,2021-06-10 01:21:25,2021-06-10 01:21:25,0.228s,PASSED
"QueryMstOrder = ""SELECT * FROM mst_order WHERE Order_No = '"" + OtosalesOrderNo + ""'""",Chrome 91.0.4472.77,,,2021-06-10 01:21:25,2021-06-10 01:21:25,0.002s,PASSED
"OrdStatus = UI.getValueDatabase(""172.16.94.74"", ""AAB"", QueryMstOrder, ""Order_Status"")",Chrome 91.0.4472.77,,,2021-06-10 01:21:25,2021-06-10 01:21:26,0.245s,PASSED
"OrderNo = ""SELECT * FROM dbo.OrderSimulation WHERE PolicyOrderno = '"" + OtosalesOrderNo + ""'""",Chrome 91.0.4472.77,,,2021-06-10 01:21:26,2021-06-10 01:21:26,0.002s,PASSED
"OrderNoLong = UI.getValueDatabase(""172.16.94.48"", ""AABMOBILE"", OrderNo, ""OrderNo"")",Chrome 91.0.4472.77,,,2021-06-10 01:21:26,2021-06-10 01:21:26,0.800s,PASSED
"ApproveLP = ""SELECT * FROM dbo.OrderSimulationApproval where OrderNo = '"" + OrderNoLong + ""' and RowStatus = '1' and ApprovalStatus = '0'""",Chrome 91.0.4472.77,,,2021-06-10 01:21:26,2021-06-10 01:21:26,0.001s,PASSED
"approvalTypeLP = UI.getValueDatabase(""172.16.94.48"", ""AABMOBILE"", ApproveLP, ""ApprovalStatus"")",Chrome 91.0.4472.77,,,2021-06-10 01:21:26,2021-06-10 01:21:27,0.449s,PASSED
println(approvalType),Chrome 91.0.4472.77,,,2021-06-10 01:21:27,2021-06-10 01:21:27,0.003s,PASSED
println(OrdStatus),Chrome 91.0.4472.77,,,2021-06-10 01:21:27,2021-06-10 01:21:27,0.002s,PASSED
"while (approvalType != ""null"" && OrdStatus != ""9"")",Chrome 91.0.4472.77,,,2021-06-10 01:21:27,2021-06-10 01:22:29,1m - 1.716s,PASSED
println(approvalTypeLP),Chrome 91.0.4472.77,,,2021-06-10 01:22:29,2021-06-10 01:22:29,0.001s,PASSED
"if (approvalTypeLP == ""0"")",Chrome 91.0.4472.77,,,2021-06-10 01:22:29,2021-06-10 01:22:29,0.001s,PASSED
delay(2),Chrome 91.0.4472.77,,,2021-06-10 01:22:29,2021-06-10 01:22:31,2.009s,PASSED
delay(2),Chrome 91.0.4472.77,,,2021-06-10 01:22:31,2021-06-10 01:22:33,2.027s,PASSED
delay(2),Chrome 91.0.4472.77,,,2021-06-10 01:22:33,2021-06-10 01:22:35,2.014s,PASSED
delay(2),Chrome 91.0.4472.77,,,2021-06-10 01:22:35,2021-06-10 01:22:37,2.011s,PASSED
"QueryOrderStatus = ""select * from mst_order WHERE Order_No = '"" + OtosalesOrderNo + ""'""",Chrome 91.0.4472.77,,,2021-06-10 01:22:37,2021-06-10 01:22:37,0.002s,PASSED
"OrderStatus = UI.getValueDatabase(""172.16.94.74"", ""AAB"", QueryOrderStatus, ""Order_Status"")",Chrome 91.0.4472.77,,,2021-06-10 01:22:37,2021-06-10 01:22:37,0.684s,PASSED
"QueryAABMobile = ""SELECT FollowUpInfo,* FROM followUp WHERE FollowUpNo = (SELECT followUpNo FROM OrderSimulation WHERE PolicyOrderNo = '"" + OtosalesOrderNo + ""')""",Chrome 91.0.4472.77,,,2021-06-10 01:22:37,2021-06-10 01:22:37,0.001s,PASSED
"description = UI.getValueDatabase(""172.16.94.48"", ""AABMobile"", QueryAABMobile, ""FollowUpInfo"")",Chrome 91.0.4472.77,,,2021-06-10 01:22:37,2021-06-10 01:22:38,0.774s,PASSED
"while (description != ""50"")",Chrome 91.0.4472.77,,,2021-06-10 01:22:38,2021-06-10 01:22:38,0.002s,PASSED
println(description),Chrome 91.0.4472.77,,,2021-06-10 01:22:38,2021-06-10 01:22:38,0.002s,PASSED
closeBrowser(),Chrome 91.0.4472.77,,,2021-06-10 01:22:38,2021-06-10 01:22:40,2.032s,PASSED
