Suite/Test/Step Name,Browser,Description,Tag,Start time,End time,Duration,Status
"INPROSPECT-NONGODIG GO,COMP,M200,FULLCVR,COMPANY - TELERENEWAL - Edit - Copy",Chrome 91.0.4472.114,,,2021-06-28 00:16:55,2021-06-28 01:54:50,1h - 37m - 54.834s,ERROR
,,,,,,,
"Test Cases/SCENARIO/OTOSALES/Collaboration/NEW ORDER/MVNONGODIG/SINGLE YEAR/Create Polis/INPROSPECT-NONGODIG GO,COMP,M200,FULLCVR,COMPANY - TELERENEWAL - Edit - Copy",Chrome 91.0.4472.114,,,2021-06-28 00:16:57,2021-06-28 01:54:50,1h - 37m - 53.479s,ERROR
"callTestCase(findTestCase(""SCENARIO/OTOSALES/LOGIN/Login Telerenewal""), [:], STOP_ON_FAILURE)",Chrome 91.0.4472.114,,,2021-06-28 00:16:59,2021-06-28 00:17:41,42.467s,PASSED
"callTestCase(findTestCase(""PAGE/OTOSALES/LOGIN/Side Menu-Switch""), [""menu"":""Input Prospect""], STOP_ON_FAILURE)",Chrome 91.0.4472.114,,,2021-06-28 00:17:41,2021-06-28 00:17:50,9.362s,PASSED
"callTestCase(findTestCase(""PAGE/OTOSALES/NEW/INPUT PROSPECT/1.Prospect Info""), [""MV"":""MV NON GODIG"", ""isCompany"":true, ""prospectName"":""Test Otosales TELE WIC COM SPRINT 23 HRMi"", ""phone1"":""082127670262"", ... ], STOP_ON_FAILURE)",Chrome 91.0.4472.114,,,2021-06-28 00:17:50,2021-06-28 00:18:17,26.646s,PASSED
"callTestCase(findTestCase(""PAGE/OTOSALES/NEW/INPUT PROSPECT/2.Vehicle Info""), [""VehicleName"":""TOYOTA AGYA 2018 NEW 1.2 TRD M/T"", ""Usage"":""KOMERSIAL"", ""Region"":""Wilayah 2""], STOP_ON_FAILURE)",Chrome 91.0.4472.114,,,2021-06-28 00:18:17,2021-06-28 00:18:53,35.937s,PASSED
"callTestCase(findTestCase(""PAGE/OTOSALES/NEW/INPUT PROSPECT/3.Cover""), [""ProductType"":""Garda Oto"", ""MV"":OrderType, ""ProductCode"":""GWU50"", ""Coverage"":""Comprehensive 1 Year"", ""TJH"":""25,000,000"", ""Terrorism"":true, ... ], STOP_ON_FAILURE)",Chrome 91.0.4472.114,,,2021-06-28 00:18:53,2021-06-28 00:20:25,1m - 32.160s,PASSED
"callTestCase(findTestCase(""PAGE/OTOSALES/LOGIN/Side Menu-Switch""), [""menu"":""Task List""], STOP_ON_FAILURE)",Chrome 91.0.4472.114,,,2021-06-28 00:20:25,2021-06-28 00:20:31,5.607s,PASSED
"callTestCase(findTestCase(""PAGE/OTOSALES/NEW/TASKLIST/1.Home""), [""Chassis"":ChassisNo, ""CustName"":ProspectName], STOP_ON_FAILURE)",Chrome 91.0.4472.114,,,2021-06-28 00:20:31,2021-06-28 00:20:59,27.909s,PASSED
"callTestCase(findTestCase(""PAGE/OTOSALES/NEW/TASKLIST/2.Tasklist""), [""birthDate"":""15/10/1989"", ""NomorNPWP"":""371829374123"", ""JenisKelamin"":""Laki-Laki"", ""Alamat"":""Jalan Pelan - Pelan"", ""KodePos"":""55141"", ... ], STOP_ON_FAILURE)",Chrome 91.0.4472.114,,,2021-06-28 00:20:59,2021-06-28 00:24:57,3m - 58.795s,PASSED
"callTestCase(findTestCase(""PAGE/OTOSALES/NEW/TASKLIST/3.FollowUp""), [""Reason"":""Send to SA"", ""Notes"":""Contacted"", ""Receiver"":""Sir Cok Kotelawala"", ""Remarks"":""Created by Katalon Studio"", ""ProspectName"":ProspectName], STOP_ON_FAILURE)",Chrome 91.0.4472.114,,,2021-06-28 00:24:57,2021-06-28 01:54:50,1h - 29m - 52.596s,FAILED
,,,,,,,
Test Cases/SCENARIO/GEN5/TASKLIST SA/Tasklist,Chrome 91.0.4472.114,,,2021-06-28 01:54:50,2021-06-28 01:57:31,2m - 40.451s,FAILED
file = new java.io.File((com.kms.katalon.core.configuration.RunConfiguration.getProjectDir() + /Data Files/parameterLinkOtosales.txt)),Chrome 91.0.4472.114,,,2021-06-28 01:54:51,2021-06-28 01:54:51,0.004s,PASSED
text = FileUtils.readFileToString(file),Chrome 91.0.4472.114,,,2021-06-28 01:54:51,2021-06-28 01:54:51,0.003s,PASSED
switch (text),Chrome 91.0.4472.114,,,2021-06-28 01:54:51,2021-06-28 01:55:17,25.868s,PASSED
"callTestCase(findTestCase(""PAGE/GEN5/HOME/Side Menu""), [""SideMenu"":""Task List SA""], STOP_ON_FAILURE)",Chrome 91.0.4472.114,,,2021-06-28 01:55:17,2021-06-28 01:55:35,17.483s,PASSED
"callTestCase(findTestCase(""PAGE/GEN5/TASKLIST SA/Dashboard""), [""SearchBy"":""Order No"", ""Parameter"":OtosalesOrderNo], STOP_ON_FAILURE)",Chrome 91.0.4472.114,,,2021-06-28 01:55:35,2021-06-28 01:56:34,59.165s,PASSED
"callTestCase(findTestCase(""PAGE/GEN5/TASKLIST SA/Tasklist SA""), [""changePolicyHolder"":false, ""SearchParam"":""Name"", ""PolicyHolderName"":""Sir Cok Kotelawala"", ""NameOnPolicy"":""Default"", ""EmailDelivery"":""Customer"", ... ], STOP_ON_FAILURE)",Chrome 91.0.4472.114,,,2021-06-28 01:56:34,2021-06-28 01:57:31,56.685s,FAILED
,,,,,,,
Test Cases/SCENARIO/OTOSALES/APPROVAL/Approval TELE,Chrome 91.0.4472.114,,,2021-06-28 01:57:31,2021-06-28 01:57:46,15.286s,PASSED
"QueryAABHead = ""SELECT TOP 1* FROM dbo.AABHead WHERE param = 'NIP'""",Chrome 91.0.4472.114,,,2021-06-28 01:57:32,2021-06-28 01:57:32,0.002s,PASSED
"Login = UI.getValueDatabase(""172.16.94.48"", ""AABMobile"", QueryAABHead, ""Value"")",Chrome 91.0.4472.114,,,2021-06-28 01:57:32,2021-06-28 01:57:33,0.638s,PASSED
"Approve = ""SELECT TOP 1* FROM mst_order_mobile_approval where Order_no = '"" + OtosalesOrderNo + ""' and ApprovalStatus = '0' order by ApprovalType ASC""",Chrome 91.0.4472.114,,,2021-06-28 01:57:33,2021-06-28 01:57:33,0.002s,PASSED
"approvalType = UI.getValueDatabase(""172.16.94.74"", ""AAB"", Approve, ""ApprovalType"")",Chrome 91.0.4472.114,,,2021-06-28 01:57:33,2021-06-28 01:57:33,0.144s,PASSED
"QueryMstOrder = ""SELECT * FROM mst_order WHERE Order_No = '"" + OtosalesOrderNo + ""'""",Chrome 91.0.4472.114,,,2021-06-28 01:57:33,2021-06-28 01:57:33,0.001s,PASSED
"OrdStatus = UI.getValueDatabase(""172.16.94.74"", ""AAB"", QueryMstOrder, ""Order_Status"")",Chrome 91.0.4472.114,,,2021-06-28 01:57:33,2021-06-28 01:57:33,0.164s,PASSED
"OrderNo = ""SELECT * FROM dbo.OrderSimulation WHERE PolicyOrderno = '"" + OtosalesOrderNo + ""'""",Chrome 91.0.4472.114,,,2021-06-28 01:57:33,2021-06-28 01:57:33,0.002s,PASSED
"OrderNoLong = UI.getValueDatabase(""172.16.94.48"", ""AABMOBILE"", OrderNo, ""OrderNo"")",Chrome 91.0.4472.114,,,2021-06-28 01:57:33,2021-06-28 01:57:34,0.990s,PASSED
"ApproveLP = ""SELECT * FROM dbo.OrderSimulationApproval where OrderNo = '"" + OrderNoLong + ""' and RowStatus = '1' and ApprovalStatus = '0'""",Chrome 91.0.4472.114,,,2021-06-28 01:57:34,2021-06-28 01:57:34,0.002s,PASSED
"approvalTypeLP = UI.getValueDatabase(""172.16.94.48"", ""AABMOBILE"", ApproveLP, ""ApprovalStatus"")",Chrome 91.0.4472.114,,,2021-06-28 01:57:34,2021-06-28 01:57:34,0.456s,PASSED
println(approvalType),Chrome 91.0.4472.114,,,2021-06-28 01:57:34,2021-06-28 01:57:34,0.002s,PASSED
println(OrdStatus),Chrome 91.0.4472.114,,,2021-06-28 01:57:34,2021-06-28 01:57:34,0.001s,PASSED
"while (approvalType != ""null"" && OrdStatus != ""9"")",Chrome 91.0.4472.114,,,2021-06-28 01:57:34,2021-06-28 01:57:34,0.001s,PASSED
println(approvalTypeLP),Chrome 91.0.4472.114,,,2021-06-28 01:57:34,2021-06-28 01:57:34,0.002s,PASSED
"if (approvalTypeLP == ""0"")",Chrome 91.0.4472.114,,,2021-06-28 01:57:34,2021-06-28 01:57:34,0.001s,PASSED
delay(2),Chrome 91.0.4472.114,,,2021-06-28 01:57:34,2021-06-28 01:57:36,2.006s,PASSED
delay(2),Chrome 91.0.4472.114,,,2021-06-28 01:57:36,2021-06-28 01:57:38,2.006s,PASSED
delay(2),Chrome 91.0.4472.114,,,2021-06-28 01:57:38,2021-06-28 01:57:40,2.007s,PASSED
delay(2),Chrome 91.0.4472.114,,,2021-06-28 01:57:40,2021-06-28 01:57:42,2.008s,PASSED
"QueryOrderStatus = ""select * from mst_order WHERE Order_No = '"" + OtosalesOrderNo + ""'""",Chrome 91.0.4472.114,,,2021-06-28 01:57:42,2021-06-28 01:57:42,0.000s,PASSED
"OrderStatus = UI.getValueDatabase(""172.16.94.74"", ""AAB"", QueryOrderStatus, ""Order_Status"")",Chrome 91.0.4472.114,,,2021-06-28 01:57:42,2021-06-28 01:57:43,0.273s,PASSED
"QueryAABMobile = ""SELECT FollowUpInfo,* FROM followUp WHERE FollowUpNo = (SELECT followUpNo FROM OrderSimulation WHERE PolicyOrderNo = '"" + OtosalesOrderNo + ""')""",Chrome 91.0.4472.114,,,2021-06-28 01:57:43,2021-06-28 01:57:43,0.002s,PASSED
"description = UI.getValueDatabase(""172.16.94.48"", ""AABMobile"", QueryAABMobile, ""FollowUpInfo"")",Chrome 91.0.4472.114,,,2021-06-28 01:57:43,2021-06-28 01:57:44,1.332s,PASSED
"while (description != ""50"")",Chrome 91.0.4472.114,,,2021-06-28 01:57:44,2021-06-28 01:57:44,0.001s,PASSED
println(description),Chrome 91.0.4472.114,,,2021-06-28 01:57:44,2021-06-28 01:57:44,0.002s,PASSED
closeBrowser(),Chrome 91.0.4472.114,,,2021-06-28 01:57:44,2021-06-28 01:57:46,1.937s,PASSED
