Suite/Test/Step Name,Browser,Description,Tag,Start time,End time,Duration,Status
TELESALES-GO-WIC-Muncul Link Payment-CCIP,Chrome 87.0.4280.88,,,2020-12-16 14:58:43,2020-12-16 15:21:52,23m - 9.568s,INCOMPLETE
,,,,,,,
"Test Cases/SCENARIO/OTOSALES/Collaboration/NEW ORDER/LINK PAYMENT/TELESALES-GO-WIC-Muncul Link Payment-CCIP/ORD-IP-NONGODIG GO,COMP,M200,FULLCVR,COM",Chrome 87.0.4280.88,,,2020-12-16 14:58:46,2020-12-16 15:07:35,8m - 48.947s,PASSED
"callTestCase(findTestCase(""SCENARIO/OTOSALES/LOGIN/Login Telesales""), [:], STOP_ON_FAILURE)",Chrome 87.0.4280.88,,,2020-12-16 14:58:48,2020-12-16 14:59:46,58.356s,PASSED
"callTestCase(findTestCase(""PAGE/OTOSALES/LOGIN/Side Menu-Switch""), [""menu"":""Input Prospect""], STOP_ON_FAILURE)",Chrome 87.0.4280.88,,,2020-12-16 14:59:46,2020-12-16 14:59:56,10.166s,PASSED
"callTestCase(findTestCase(""PAGE/OTOSALES/NEW/INPUT PROSPECT/1.Prospect Info""), [""MV"":""MV NON GODIG"", ""isCompany"":true, ""prospectName"":""Automate Customer Non Godig"", ""phone1"":""082127670262"", ""phone2"":""081290154328"", ... ], STOP_ON_FAILURE)",Chrome 87.0.4280.88,,,2020-12-16 14:59:56,2020-12-16 15:00:24,27.897s,PASSED
"callTestCase(findTestCase(""PAGE/OTOSALES/NEW/INPUT PROSPECT/2.Vehicle Info""), [""VehicleName"":""XPANDER 2018 ULTIMATE"", ""Usage"":""PRIBADI"", ""Region"":""Wilayah 2""], STOP_ON_FAILURE)",Chrome 87.0.4280.88,,,2020-12-16 15:00:24,2020-12-16 15:00:57,32.444s,PASSED
"callTestCase(findTestCase(""PAGE/OTOSALES/NEW/INPUT PROSPECT/3.Cover""), [""ProductType"":""Garda Oto"", ""ProductCode"":""GWU50"", ""Coverage"":""Comprehensive 1 Year"", ""TJH"":""25,000,000"", ""Terrorism"":true, ... ], STOP_ON_FAILURE)",Chrome 87.0.4280.88,,,2020-12-16 15:00:57,2020-12-16 15:02:18,1m - 21.867s,PASSED
"callTestCase(findTestCase(""PAGE/OTOSALES/LOGIN/Side Menu-Switch""), [""menu"":""Task List""], STOP_ON_FAILURE)",Chrome 87.0.4280.88,,,2020-12-16 15:02:18,2020-12-16 15:02:28,9.913s,PASSED
"callTestCase(findTestCase(""PAGE/OTOSALES/NEW/TASKLIST/1.Home""), [""Chassis"":ChassisNo, ""CustName"":ProspectName], STOP_ON_FAILURE)",Chrome 87.0.4280.88,,,2020-12-16 15:02:28,2020-12-16 15:02:52,23.531s,PASSED
"callTestCase(findTestCase(""PAGE/OTOSALES/NEW/TASKLIST/2.Tasklist""), [""birthDate"":""15/10/1989"", ""NomorNPWP"":""371829374123456"", ""JenisKelamin"":""Laki-Laki"", ""Alamat"":""Jalan Pelan - Pelan"", ""KodePos"":""55141"", ... ], STOP_ON_FAILURE)",Chrome 87.0.4280.88,,,2020-12-16 15:02:52,2020-12-16 15:06:31,3m - 39.652s,PASSED
"callTestCase(findTestCase(""PAGE/OTOSALES/NEW/TASKLIST/3.FollowUp""), [""Reason"":""Send to SA"", ""Notes"":""Contacted"", ""Receiver"":""Sir Cok Kotelawala"", ""Remarks"":""Created by Katalon Studio"", ""ProspectName"":ProspectName], STOP_ON_FAILURE)",Chrome 87.0.4280.88,,,2020-12-16 15:06:31,2020-12-16 15:07:35,1m - 3.043s,PASSED
,,,,,,,
Test Cases/SCENARIO/GEN5/TASKLIST SA/Tasklist,Chrome 87.0.4280.88,,,2020-12-16 15:07:35,2020-12-16 15:15:30,7m - 55.931s,PASSED
"callTestCase(findTestCase(""PAGE/GEN5/LOGIN/Login""), [""username"":""DOC"", ""password"":""ITG@nt1P455QC"", ""isSyariah"":false], STOP_ON_FAILURE)",Chrome 87.0.4280.88,,,2020-12-16 15:07:35,2020-12-16 15:08:00,24.721s,PASSED
"callTestCase(findTestCase(""PAGE/GEN5/HOME/Side Menu""), [""SideMenu"":""Task List SA""], STOP_ON_FAILURE)",Chrome 87.0.4280.88,,,2020-12-16 15:08:00,2020-12-16 15:08:23,23.343s,PASSED
"callTestCase(findTestCase(""PAGE/GEN5/TASKLIST SA/Dashboard""), [""SearchBy"":""Order No"", ""Parameter"":OtosalesOrderNo], STOP_ON_FAILURE)",Chrome 87.0.4280.88,,,2020-12-16 15:08:23,2020-12-16 15:09:27,1m - 3.530s,PASSED
"callTestCase(findTestCase(""PAGE/GEN5/TASKLIST SA/Tasklist SA""), [""changePolicyHolder"":false, ""SearchParam"":""Name"", ""PolicyHolderName"":""Sir Cok Kotelawala"", ""NameOnPolicy"":""Default"", ""EmailDelivery"":""Customer"", ... ], STOP_ON_FAILURE)",Chrome 87.0.4280.88,,,2020-12-16 15:09:27,2020-12-16 15:15:30,6m - 3.522s,PASSED
,,,,,,,
Test Cases/SCENARIO/OTOSALES/APPROVAL/Approval TELE,Chrome 87.0.4280.88,,,2020-12-16 15:15:31,2020-12-16 15:17:03,1m - 32.069s,FAILED
"QueryAABHead = ""SELECT TOP 1* FROM dbo.AABHead WHERE param = 'NIP'""",Chrome 87.0.4280.88,,,2020-12-16 15:15:32,2020-12-16 15:15:32,0.002s,PASSED
"Login = UI.getValueDatabase(""172.16.94.48"", ""AABMobile"", QueryAABHead, ""Value"")",Chrome 87.0.4280.88,,,2020-12-16 15:15:32,2020-12-16 15:15:32,0.592s,PASSED
"Approve = ""SELECT TOP 1* FROM mst_order_mobile_approval where Order_no = '"" + OtosalesOrderNo + ""' and ApprovalStatus = '0' order by ApprovalType ASC""",Chrome 87.0.4280.88,,,2020-12-16 15:15:32,2020-12-16 15:15:32,0.002s,PASSED
"approvalType = UI.getValueDatabase(""172.16.94.74"", ""AAB"", Approve, ""ApprovalType"")",Chrome 87.0.4280.88,,,2020-12-16 15:15:32,2020-12-16 15:15:32,0.351s,PASSED
"OrderNo = ""SELECT * FROM dbo.OrderSimulation WHERE PolicyOrderno = '"" + OtosalesOrderNo + ""'""",Chrome 87.0.4280.88,,,2020-12-16 15:15:32,2020-12-16 15:15:32,0.001s,PASSED
"OrderNoLong = UI.getValueDatabase(""172.16.94.48"", ""AABMOBILE"", OrderNo, ""OrderNo"")",Chrome 87.0.4280.88,,,2020-12-16 15:15:32,2020-12-16 15:15:33,0.474s,PASSED
"ApproveLP = ""SELECT * FROM dbo.OrderSimulationApproval where OrderNo = '"" + OrderNoLong + ""' and RowStatus = '1' and ApprovalStatus = '0'""",Chrome 87.0.4280.88,,,2020-12-16 15:15:33,2020-12-16 15:15:33,0.001s,PASSED
"approvalTypeLP = UI.getValueDatabase(""172.16.94.48"", ""AABMOBILE"", ApproveLP, ""ApprovalStatus"")",Chrome 87.0.4280.88,,,2020-12-16 15:15:33,2020-12-16 15:15:33,0.444s,PASSED
"while (approvalType != ""null"")",Chrome 87.0.4280.88,,,2020-12-16 15:15:33,2020-12-16 15:17:03,1m - 29.101s,FAILED
,,,,,,,
"Test Cases/SCENARIO/OTOSALES/Collaboration/NEW ORDER/LINK PAYMENT/TELESALES-GO-WIC-Muncul Link Payment-CCIP/POL-IP-NONGODIG GO,COMP,M200,FULLCVR,COM",Chrome 87.0.4280.88,,,2020-12-16 15:17:03,2020-12-16 15:20:25,3m - 21.906s,FAILED
"callTestCase(findTestCase(""SCENARIO/OTOSALES/LOGIN/Login Telesales""), [:], STOP_ON_FAILURE)",Chrome 87.0.4280.88,,,2020-12-16 15:17:04,2020-12-16 15:18:38,1m - 33.509s,PASSED
"callTestCase(findTestCase(""PAGE/OTOSALES/LOGIN/Side Menu-Switch""), [""menu"":""Task List""], STOP_ON_FAILURE)",Chrome 87.0.4280.88,,,2020-12-16 15:18:38,2020-12-16 15:18:43,4.855s,PASSED
"callTestCase(findTestCase(""PAGE/OTOSALES/NEW/TASKLIST/1.Home""), [""Chassis"":ChassisNo, ""CustName"":ProspectName], STOP_ON_FAILURE)",Chrome 87.0.4280.88,,,2020-12-16 15:18:43,2020-12-16 15:20:24,1m - 41.821s,FAILED
,,,,,,,
Test Cases/SCENARIO/OTOSALES/APPROVAL/Approval TELE - Reject,Chrome 87.0.4280.88,,,2020-12-16 15:20:25,2020-12-16 15:21:52,1m - 27.903s,FAILED
"QueryAABHead = ""SELECT TOP 1* FROM dbo.AABHead WHERE param = 'NIP'""",Chrome 87.0.4280.88,,,2020-12-16 15:20:25,2020-12-16 15:20:25,0.001s,PASSED
"Login = UI.getValueDatabase(""172.16.94.48"", ""AABMobile"", QueryAABHead, ""Value"")",Chrome 87.0.4280.88,,,2020-12-16 15:20:25,2020-12-16 15:20:26,0.505s,PASSED
"Approve = ""SELECT TOP 1* FROM mst_order_mobile_approval where Order_no = '"" + OtosalesOrderNo + ""' and ApprovalStatus = '0' order by ApprovalType ASC""",Chrome 87.0.4280.88,,,2020-12-16 15:20:26,2020-12-16 15:20:26,0.002s,PASSED
"approvalType = UI.getValueDatabase(""172.16.94.74"", ""AAB"", Approve, ""ApprovalType"")",Chrome 87.0.4280.88,,,2020-12-16 15:20:26,2020-12-16 15:20:26,0.395s,PASSED
"OrderNo = ""SELECT * FROM dbo.OrderSimulation WHERE PolicyOrderno = '"" + OtosalesOrderNo + ""'""",Chrome 87.0.4280.88,,,2020-12-16 15:20:26,2020-12-16 15:20:26,0.001s,PASSED
"OrderNoLong = UI.getValueDatabase(""172.16.94.48"", ""AABMOBILE"", OrderNo, ""OrderNo"")",Chrome 87.0.4280.88,,,2020-12-16 15:20:26,2020-12-16 15:20:27,0.603s,PASSED
"ApproveLP = ""SELECT * FROM dbo.OrderSimulationApproval where OrderNo = '"" + OrderNoLong + ""' and RowStatus = '1' and ApprovalStatus = '0'""",Chrome 87.0.4280.88,,,2020-12-16 15:20:27,2020-12-16 15:20:27,0.001s,PASSED
"approvalTypeLP = UI.getValueDatabase(""172.16.94.48"", ""AABMOBILE"", ApproveLP, ""ApprovalStatus"")",Chrome 87.0.4280.88,,,2020-12-16 15:20:27,2020-12-16 15:20:28,0.570s,PASSED
"while (approvalType != ""null"")",Chrome 87.0.4280.88,,,2020-12-16 15:20:28,2020-12-16 15:21:52,1m - 24.908s,FAILED
