Suite/Test/Step Name,Browser,Description,Tag,Start time,End time,Duration,Status
"INPROSPECT-NONGODIG GO,COMP,M200,FULLCVR,PERSONAL - TELERENEWAL",Chrome 89.0.4389.114,,,2021-04-08 13:07:14,2021-04-08 13:44:07,36m - 52.683s,INCOMPLETE
,,,,,,,
"Test Cases/SCENARIO/OTOSALES/Collaboration/NEW ORDER/MVNONGODIG/SINGLE YEAR/Create Polis/INPROSPECT-NONGODIG GO,COMP,M200,FULLCVR,PERSONAL - TELERENEWAL",Chrome 89.0.4389.114,,,2021-04-08 13:07:16,2021-04-08 13:23:44,16m - 27.832s,PASSED
"callTestCase(findTestCase(""SCENARIO/OTOSALES/LOGIN/Login Telerenewal""), [:], STOP_ON_FAILURE)",Chrome 89.0.4389.114,,,2021-04-08 13:07:19,2021-04-08 13:10:53,3m - 33.824s,PASSED
"callTestCase(findTestCase(""PAGE/OTOSALES/LOGIN/Side Menu-Switch""), [""menu"":""Input Prospect""], STOP_ON_FAILURE)",Chrome 89.0.4389.114,,,2021-04-08 13:10:53,2021-04-08 13:11:04,11.386s,PASSED
"callTestCase(findTestCase(""PAGE/OTOSALES/NEW/INPUT PROSPECT/1.Prospect Info""), [""MV"":""MV NON GODIG"", ""isCompany"":false, ""prospectName"":""Test Otosales Telerenewal WIC HRM"", ""phone1"":""082127670262"", ""phone2"":""081290154328"", ... ], STOP_ON_FAILURE)",Chrome 89.0.4389.114,,,2021-04-08 13:11:04,2021-04-08 13:12:57,1m - 52.837s,PASSED
"callTestCase(findTestCase(""PAGE/OTOSALES/NEW/INPUT PROSPECT/2.Vehicle Info""), [""VehicleName"":""XPANDER 2018 ULTIMATE"", ""Usage"":""PRIBADI"", ""Region"":""Wilayah 2""], STOP_ON_FAILURE)",Chrome 89.0.4389.114,,,2021-04-08 13:12:57,2021-04-08 13:13:34,37.103s,PASSED
"callTestCase(findTestCase(""PAGE/OTOSALES/NEW/INPUT PROSPECT/3.Cover""), [""ProductType"":""Garda Oto"", ""MV"":OrderType, ""ProductCode"":""GWU50"", ""Coverage"":""TLO 1 Year"", ""TJH"":""25,000,000"", ""Terrorism"":true, ... ], STOP_ON_FAILURE)",Chrome 89.0.4389.114,,,2021-04-08 13:13:34,2021-04-08 13:18:40,5m - 6.111s,PASSED
"callTestCase(findTestCase(""PAGE/OTOSALES/LOGIN/Side Menu-Switch""), [""menu"":""Task List""], STOP_ON_FAILURE)",Chrome 89.0.4389.114,,,2021-04-08 13:18:40,2021-04-08 13:18:50,10.214s,PASSED
"callTestCase(findTestCase(""PAGE/OTOSALES/NEW/TASKLIST/1.Home""), [""Chassis"":ChassisNo, ""CustName"":ProspectName], STOP_ON_FAILURE)",Chrome 89.0.4389.114,,,2021-04-08 13:18:50,2021-04-08 13:19:14,23.175s,PASSED
"callTestCase(findTestCase(""PAGE/OTOSALES/NEW/TASKLIST/2.Tasklist""), [""birthDate"":""15/10/1989"", ""NomorNPWP"":""371829374123"", ""JenisKelamin"":""Laki-Laki"", ""Alamat"":""Jalan Pelan - Pelan"", ""KodePos"":""55141"", ... ], STOP_ON_FAILURE)",Chrome 89.0.4389.114,,,2021-04-08 13:19:14,2021-04-08 13:22:27,3m - 13.663s,PASSED
"callTestCase(findTestCase(""PAGE/OTOSALES/NEW/TASKLIST/3.FollowUp""), [""Reason"":""Send to SA"", ""Notes"":""Contacted"", ""Receiver"":""Sir Cok Kotelawala"", ""Remarks"":""Created by Katalon Studio"", ""ProspectName"":ProspectName], STOP_ON_FAILURE)",Chrome 89.0.4389.114,,,2021-04-08 13:22:27,2021-04-08 13:23:44,1m - 16.794s,PASSED
,,,,,,,
Test Cases/SCENARIO/GEN5/TASKLIST SA/Tasklist,Chrome 89.0.4389.114,,,2021-04-08 13:23:44,2021-04-08 13:31:30,7m - 46.234s,PASSED
"callTestCase(findTestCase(""PAGE/GEN5/LOGIN/Login""), [""username"":""DOC"", ""password"":""ITG@nt1P455QC"", ""isSyariah"":false], STOP_ON_FAILURE)",Chrome 89.0.4389.114,,,2021-04-08 13:23:45,2021-04-08 13:24:10,24.784s,PASSED
"callTestCase(findTestCase(""PAGE/GEN5/HOME/Side Menu""), [""SideMenu"":""Task List SA""], STOP_ON_FAILURE)",Chrome 89.0.4389.114,,,2021-04-08 13:24:10,2021-04-08 13:24:34,24.296s,PASSED
"callTestCase(findTestCase(""PAGE/GEN5/TASKLIST SA/Dashboard""), [""SearchBy"":""Order No"", ""Parameter"":OtosalesOrderNo], STOP_ON_FAILURE)",Chrome 89.0.4389.114,,,2021-04-08 13:24:34,2021-04-08 13:25:29,54.394s,PASSED
"callTestCase(findTestCase(""PAGE/GEN5/TASKLIST SA/Tasklist SA""), [""changePolicyHolder"":false, ""SearchParam"":""Name"", ""PolicyHolderName"":""Sir Cok Kotelawala"", ""NameOnPolicy"":""Default"", ""EmailDelivery"":""Customer"", ... ], STOP_ON_FAILURE)",Chrome 89.0.4389.114,,,2021-04-08 13:25:29,2021-04-08 13:31:30,6m - 1.757s,PASSED
,,,,,,,
Test Cases/SCENARIO/OTOSALES/APPROVAL/Approval TELE,Chrome 89.0.4389.114,,,2021-04-08 13:31:30,2021-04-08 13:44:07,12m - 36.487s,PASSED
"QueryAABHead = ""SELECT TOP 1* FROM dbo.AABHead WHERE param = 'NIP'""",Chrome 89.0.4389.114,,,2021-04-08 13:31:31,2021-04-08 13:31:31,0.001s,PASSED
"Login = UI.getValueDatabase(""172.16.94.48"", ""AABMobile"", QueryAABHead, ""Value"")",Chrome 89.0.4389.114,,,2021-04-08 13:31:31,2021-04-08 13:31:32,0.342s,PASSED
"Approve = ""SELECT TOP 1* FROM mst_order_mobile_approval where Order_no = '"" + OtosalesOrderNo + ""' and ApprovalStatus = '0' order by ApprovalType ASC""",Chrome 89.0.4389.114,,,2021-04-08 13:31:32,2021-04-08 13:31:32,0.001s,PASSED
"approvalType = UI.getValueDatabase(""172.16.94.74"", ""AAB"", Approve, ""ApprovalType"")",Chrome 89.0.4389.114,,,2021-04-08 13:31:32,2021-04-08 13:31:32,0.125s,PASSED
"OrderNo = ""SELECT * FROM dbo.OrderSimulation WHERE PolicyOrderno = '"" + OtosalesOrderNo + ""'""",Chrome 89.0.4389.114,,,2021-04-08 13:31:32,2021-04-08 13:31:32,0.002s,PASSED
"OrderNoLong = UI.getValueDatabase(""172.16.94.48"", ""AABMOBILE"", OrderNo, ""OrderNo"")",Chrome 89.0.4389.114,,,2021-04-08 13:31:32,2021-04-08 13:31:33,0.663s,PASSED
"ApproveLP = ""SELECT * FROM dbo.OrderSimulationApproval where OrderNo = '"" + OrderNoLong + ""' and RowStatus = '1' and ApprovalStatus = '0'""",Chrome 89.0.4389.114,,,2021-04-08 13:31:33,2021-04-08 13:31:33,0.002s,PASSED
"approvalTypeLP = UI.getValueDatabase(""172.16.94.48"", ""AABMOBILE"", ApproveLP, ""ApprovalStatus"")",Chrome 89.0.4389.114,,,2021-04-08 13:31:33,2021-04-08 13:31:33,0.459s,PASSED
"while (approvalType != ""null"")",Chrome 89.0.4389.114,,,2021-04-08 13:31:33,2021-04-08 13:39:09,7m - 35.883s,PASSED
println(approvalTypeLP),Chrome 89.0.4389.114,,,2021-04-08 13:39:09,2021-04-08 13:39:09,0.002s,PASSED
"if (approvalTypeLP == ""0"")",Chrome 89.0.4389.114,,,2021-04-08 13:39:09,2021-04-08 13:39:09,0.002s,PASSED
delay(2),Chrome 89.0.4389.114,,,2021-04-08 13:39:09,2021-04-08 13:39:11,2.008s,PASSED
general.scheduler.Otosales_Approval_Gen5(),Chrome 89.0.4389.114,,,2021-04-08 13:39:11,2021-04-08 13:40:28,1m - 17.002s,PASSED
delay(2),Chrome 89.0.4389.114,,,2021-04-08 13:40:28,2021-04-08 13:40:30,2.011s,PASSED
general.scheduler.Otosales_Approval_New(),Chrome 89.0.4389.114,,,2021-04-08 13:40:30,2021-04-08 13:42:02,1m - 31.632s,PASSED
delay(2),Chrome 89.0.4389.114,,,2021-04-08 13:42:02,2021-04-08 13:42:04,2.011s,PASSED
general.scheduler.Otosales_Approval_Next_Limit(),Chrome 89.0.4389.114,,,2021-04-08 13:42:04,2021-04-08 13:42:55,51.569s,PASSED
delay(2),Chrome 89.0.4389.114,,,2021-04-08 13:42:55,2021-04-08 13:42:57,2.010s,PASSED
general.scheduler.Otosales_MonitorOrder(),Chrome 89.0.4389.114,,,2021-04-08 13:42:57,2021-04-08 13:44:04,1m - 6.737s,PASSED
closeBrowser(),Chrome 89.0.4389.114,,,2021-04-08 13:44:04,2021-04-08 13:44:07,3.057s,PASSED
