Suite/Test/Step Name,Browser,Description,Tag,Start time,End time,Duration,Status
MGO-AGENCY-Muncul Link Payment-CCFP,Chrome 90.0.4430.72,,,2021-04-21 23:08:18,2021-04-21 23:29:14,20m - 56.434s,INCOMPLETE
,,,,,,,
"Test Cases/SCENARIO/OTOSALES/Collaboration/NEW ORDER/LINK PAYMENT/MGO-AGENCY-Muncul Link Payment-CCFP/ORD-IP-NONGODIG GO,COMP,M200,FULLCVR,PER,NOAPPADJ",Chrome 90.0.4430.72,,,2021-04-21 23:08:23,2021-04-21 23:19:47,11m - 24.867s,PASSED
"callTestCase(findTestCase(""SCENARIO/OTOSALES/LOGIN/Login MGO""), [:], STOP_ON_FAILURE)",Chrome 90.0.4430.72,,,2021-04-21 23:08:27,2021-04-21 23:09:25,58.612s,PASSED
"callTestCase(findTestCase(""PAGE/OTOSALES/LOGIN/Side Menu-Switch""), [""menu"":""Input Prospect""], STOP_ON_FAILURE)",Chrome 90.0.4430.72,,,2021-04-21 23:09:25,2021-04-21 23:09:42,16.548s,PASSED
"callTestCase(findTestCase(""PAGE/OTOSALES/NEW/INPUT PROSPECT/1.Prospect Info""), [""MV"":""MV NON GODIG"", ""isCompany"":false, ""prospectName"":""Automate Customer Non Godig"", ""phone1"":""082127670262"", ""phone2"":""081290154328"", ... ], STOP_ON_FAILURE)",Chrome 90.0.4430.72,,,2021-04-21 23:09:42,2021-04-21 23:11:38,1m - 55.919s,PASSED
"callTestCase(findTestCase(""PAGE/OTOSALES/NEW/INPUT PROSPECT/2.Vehicle Info""), [""VehicleName"":""XPANDER 2018 ULTIMATE"", ""Usage"":""PRIBADI"", ""Region"":""Wilayah 2""], STOP_ON_FAILURE)",Chrome 90.0.4430.72,,,2021-04-21 23:11:38,2021-04-21 23:12:09,30.930s,PASSED
"callTestCase(findTestCase(""PAGE/OTOSALES/NEW/INPUT PROSPECT/3.Cover""), [""ProductType"":""Garda Oto"", ""MV"":OrderType, ""ProductCode"":""GAU52"", ""Coverage"":""Comprehensive 1 Year"", ""TJH"":""25,000,000"", ""Terrorism"":true, ... ], STOP_ON_FAILURE)",Chrome 90.0.4430.72,,,2021-04-21 23:12:09,2021-04-21 23:13:24,1m - 15.525s,PASSED
"callTestCase(findTestCase(""PAGE/OTOSALES/LOGIN/Side Menu-Switch""), [""menu"":""Task List""], STOP_ON_FAILURE)",Chrome 90.0.4430.72,,,2021-04-21 23:13:24,2021-04-21 23:13:31,6.934s,PASSED
"callTestCase(findTestCase(""PAGE/OTOSALES/NEW/TASKLIST/1.Home""), [""Chassis"":ChassisNo, ""CustName"":ProspectName], STOP_ON_FAILURE)",Chrome 90.0.4430.72,,,2021-04-21 23:13:31,2021-04-21 23:14:01,29.891s,PASSED
"callTestCase(findTestCase(""PAGE/OTOSALES/NEW/TASKLIST/2.Tasklist""), [""birthDate"":""15/10/1989"", ""NomorNPWP"":""371829374123"", ""JenisKelamin"":""Laki-Laki"", ""Alamat"":""Jalan Pelan - Pelan"", ""KodePos"":""55141"", ... ], STOP_ON_FAILURE)",Chrome 90.0.4430.72,,,2021-04-21 23:14:01,2021-04-21 23:16:26,2m - 25.050s,PASSED
"callTestCase(findTestCase(""PAGE/OTOSALES/NEW/TASKLIST/3.FollowUp""), [""Reason"":""Send to SA"", ""Notes"":""Contacted"", ""Receiver"":""Sir Cok Kotelawala"", ""Remarks"":""Created by Katalon Studio"", ""ProspectName"":ProspectName], STOP_ON_FAILURE)",Chrome 90.0.4430.72,,,2021-04-21 23:16:26,2021-04-21 23:19:47,3m - 21.225s,PASSED
,,,,,,,
Test Cases/SCENARIO/GEN5/TASKLIST SA/Tasklist,Chrome 90.0.4430.72,,,2021-04-21 23:19:47,2021-04-21 23:25:19,5m - 31.474s,PASSED
"callTestCase(findTestCase(""PAGE/GEN5/LOGIN/Login""), [""username"":""DOC"", ""password"":""ITG@nt1P455QC"", ""isSyariah"":false], STOP_ON_FAILURE)",Chrome 90.0.4430.72,,,2021-04-21 23:19:48,2021-04-21 23:20:11,22.641s,PASSED
"callTestCase(findTestCase(""PAGE/GEN5/HOME/Side Menu""), [""SideMenu"":""Task List SA""], STOP_ON_FAILURE)",Chrome 90.0.4430.72,,,2021-04-21 23:20:11,2021-04-21 23:20:31,20.137s,PASSED
"callTestCase(findTestCase(""PAGE/GEN5/TASKLIST SA/Dashboard""), [""SearchBy"":""Order No"", ""Parameter"":OtosalesOrderNo], STOP_ON_FAILURE)",Chrome 90.0.4430.72,,,2021-04-21 23:20:31,2021-04-21 23:21:23,51.838s,PASSED
"callTestCase(findTestCase(""PAGE/GEN5/TASKLIST SA/Tasklist SA""), [""changePolicyHolder"":false, ""SearchParam"":""Name"", ""PolicyHolderName"":""Sir Cok Kotelawala"", ""NameOnPolicy"":""Default"", ""EmailDelivery"":""Customer"", ... ], STOP_ON_FAILURE)",Chrome 90.0.4430.72,,,2021-04-21 23:21:23,2021-04-21 23:25:19,3m - 56.371s,PASSED
,,,,,,,
Test Cases/SCENARIO/OTOSALES/APPROVAL/Approval MGO,Chrome 90.0.4430.72,,,2021-04-21 23:25:19,2021-04-21 23:27:56,2m - 36.693s,PASSED
"QuerySalesOfficer = ""SELECT TOP 1* FROM dbo.SalesOfficer WHERE email = '"" + OtosalesLogin + ""'""",Chrome 90.0.4430.72,,,2021-04-21 23:25:20,2021-04-21 23:25:20,0.009s,PASSED
"UserID = UI.getValueDatabase(""172.16.94.48"", ""AABMobile"", QuerySalesOfficer, ""SalesOfficerID"")",Chrome 90.0.4430.72,,,2021-04-21 23:25:20,2021-04-21 23:25:20,0.414s,PASSED
"QueryAABHead = ""SELECT TOP 1* FROM dbo.AABHead WHERE param = '"" + UserID + ""' and RowStatus = '1' and Value = 'SRW'""",Chrome 90.0.4430.72,,,2021-04-21 23:25:20,2021-04-21 23:25:20,0.001s,PASSED
"Login = UI.getValueDatabase(""172.16.94.48"", ""AABMobile"", QueryAABHead, ""Value"")",Chrome 90.0.4430.72,,,2021-04-21 23:25:20,2021-04-21 23:25:20,0.369s,PASSED
"Approve = ""SELECT TOP 1* FROM mst_order_mobile_approval where Order_no = '"" + OtosalesOrderNo + ""' and ApprovalStatus = '0' order by ApprovalType ASC""",Chrome 90.0.4430.72,,,2021-04-21 23:25:20,2021-04-21 23:25:20,0.001s,PASSED
"approvalType = UI.getValueDatabase(""172.16.94.74"", ""AAB"", Approve, ""ApprovalType"")",Chrome 90.0.4430.72,,,2021-04-21 23:25:20,2021-04-21 23:25:21,0.107s,PASSED
"QueryMstOrder = ""SELECT * FROM mst_order WHERE Order_No = '"" + OtosalesOrderNo + ""'""",Chrome 90.0.4430.72,,,2021-04-21 23:25:21,2021-04-21 23:25:21,0.001s,PASSED
"OrdStatus = UI.getValueDatabase(""172.16.94.74"", ""AAB"", QueryMstOrder, ""Order_Status"")",Chrome 90.0.4430.72,,,2021-04-21 23:25:21,2021-04-21 23:25:21,0.125s,PASSED
"OrderNo = ""SELECT * FROM dbo.OrderSimulation WHERE PolicyOrderno = '"" + OtosalesOrderNo + ""'""",Chrome 90.0.4430.72,,,2021-04-21 23:25:21,2021-04-21 23:25:21,0.001s,PASSED
"OrderNoLong = UI.getValueDatabase(""172.16.94.48"", ""AABMOBILE"", OrderNo, ""OrderNo"")",Chrome 90.0.4430.72,,,2021-04-21 23:25:21,2021-04-21 23:25:22,1.152s,PASSED
"ApproveLP = ""SELECT * FROM dbo.OrderSimulationApproval where OrderNo = '"" + OrderNoLong + ""' and RowStatus = '1' and ApprovalStatus = '0'""",Chrome 90.0.4430.72,,,2021-04-21 23:25:22,2021-04-21 23:25:22,0.002s,PASSED
"approvalTypeLP = UI.getValueDatabase(""172.16.94.48"", ""AABMOBILE"", ApproveLP, ""ApprovalStatus"")",Chrome 90.0.4430.72,,,2021-04-21 23:25:22,2021-04-21 23:25:22,0.476s,PASSED
"while (approvalType != ""null"" && OrdStatus != ""9"")",Chrome 90.0.4430.72,,,2021-04-21 23:25:22,2021-04-21 23:27:44,2m - 21.792s,PASSED
println(approvalTypeLP),Chrome 90.0.4430.72,,,2021-04-21 23:27:44,2021-04-21 23:27:44,0.003s,PASSED
"if (approvalTypeLP == ""0"")",Chrome 90.0.4430.72,,,2021-04-21 23:27:44,2021-04-21 23:27:44,0.002s,PASSED
delay(2),Chrome 90.0.4430.72,,,2021-04-21 23:27:44,2021-04-21 23:27:46,2.012s,PASSED
delay(2),Chrome 90.0.4430.72,,,2021-04-21 23:27:46,2021-04-21 23:27:48,2.030s,PASSED
delay(2),Chrome 90.0.4430.72,,,2021-04-21 23:27:48,2021-04-21 23:27:50,2.026s,PASSED
delay(2),Chrome 90.0.4430.72,,,2021-04-21 23:27:50,2021-04-21 23:27:52,2.017s,PASSED
"QueryOrderStatus = ""select * from mst_order WHERE Order_No = '"" + OtosalesOrderNo + ""'""",Chrome 90.0.4430.72,,,2021-04-21 23:27:52,2021-04-21 23:27:52,0.002s,PASSED
"OrderStatus = UI.getValueDatabase(""172.16.94.74"", ""AAB"", QueryOrderStatus, ""Order_Status"")",Chrome 90.0.4430.72,,,2021-04-21 23:27:52,2021-04-21 23:27:52,0.125s,PASSED
"while (OrderStatus != ""9"")",Chrome 90.0.4430.72,,,2021-04-21 23:27:52,2021-04-21 23:27:52,0.001s,PASSED
closeBrowser(),Chrome 90.0.4430.72,,,2021-04-21 23:27:52,2021-04-21 23:27:56,3.365s,PASSED
,,,,,,,
"Test Cases/SCENARIO/OTOSALES/Collaboration/NEW ORDER/LINK PAYMENT/MGO-AGENCY-Muncul Link Payment-CCFP/POL-IP-NONGODIG GO,COMP,M200,FULLCVR,PER,NOAPPADJ",Chrome 90.0.4430.72,,,2021-04-21 23:27:56,2021-04-21 23:29:14,1m - 18.634s,FAILED
"callTestCase(findTestCase(""SCENARIO/OTOSALES/LOGIN/Login MGO""), [:], STOP_ON_FAILURE)",Chrome 90.0.4430.72,,,2021-04-21 23:27:56,2021-04-21 23:28:31,34.561s,PASSED
"callTestCase(findTestCase(""PAGE/OTOSALES/LOGIN/Side Menu-Switch""), [""menu"":""Task List""], STOP_ON_FAILURE)",Chrome 90.0.4430.72,,,2021-04-21 23:28:31,2021-04-21 23:28:41,9.978s,PASSED
"callTestCase(findTestCase(""PAGE/OTOSALES/NEW/TASKLIST/1.Home""), [""Chassis"":ChassisNo, ""CustName"":ProspectName], STOP_ON_FAILURE)",Chrome 90.0.4430.72,,,2021-04-21 23:28:41,2021-04-21 23:29:14,33.440s,FAILED
