Suite/Test/Step Name,Browser,Description,Tag,Start time,End time,Duration,Status
"INPROSPECT-NONGODIG SYARIAH,COMP,M200,FULLCVR,COMPANY - AO - UMA - edit",Chrome 91.0.4472.114,,,2021-06-28 00:00:32,2021-06-28 00:06:18,5m - 45.667s,INCOMPLETE
,,,,,,,
"Test Cases/SCENARIO/OTOSALES/Collaboration/NEW ORDER/MVNONGODIG/SINGLE YEAR/Create Polis/INPROSPECT-NONGODIG SYARIAH,COMP,M200,FULLCVR,COMPANY - AO - UMA - edit",Chrome 91.0.4472.114,,,2021-06-28 00:00:34,2021-06-28 00:04:05,3m - 31.839s,FAILED
"callTestCase(findTestCase(""SCENARIO/OTOSALES/LOGIN/Login AO""), [:], STOP_ON_FAILURE)",Chrome 91.0.4472.114,,,2021-06-28 00:00:36,2021-06-28 00:01:37,1m - 0.925s,PASSED
"callTestCase(findTestCase(""PAGE/OTOSALES/LOGIN/Side Menu-Switch""), [""menu"":""Input Prospect""], STOP_ON_FAILURE)",Chrome 91.0.4472.114,,,2021-06-28 00:01:37,2021-06-28 00:01:50,12.892s,PASSED
"callTestCase(findTestCase(""PAGE/OTOSALES/NEW/INPUT PROSPECT/1.Prospect Info""), [""MV"":""MV NON GODIG"", ""isCompany"":true, ""prospectName"":""Test Otosales AO WIC COM SYA SPRINT 23 HRM"", ""phone1"":""082127670262"", ... ], STOP_ON_FAILURE)",Chrome 91.0.4472.114,,,2021-06-28 00:01:50,2021-06-28 00:02:13,22.839s,PASSED
"callTestCase(findTestCase(""PAGE/OTOSALES/NEW/INPUT PROSPECT/2.Vehicle Info""), [""VehicleName"":""SUZUKI CARRY 2008 PICK UP 1.0 BOX"", ""Usage"":""KOMERSIAL"", ""Region"":""Wilayah 2""], STOP_ON_FAILURE)",Chrome 91.0.4472.114,,,2021-06-28 00:02:13,2021-06-28 00:04:05,1m - 52.808s,FAILED
,,,,,,,
Test Cases/SCENARIO/GEN5/TASKLIST SA/Tasklist Syariah,Chrome 91.0.4472.114,,,2021-06-28 00:04:05,2021-06-28 00:06:01,1m - 55.925s,FAILED
file = new java.io.File((com.kms.katalon.core.configuration.RunConfiguration.getProjectDir() + /Data Files/parameterLinkOtosales.txt)),Chrome 91.0.4472.114,,,2021-06-28 00:04:06,2021-06-28 00:04:06,0.004s,PASSED
text = FileUtils.readFileToString(file),Chrome 91.0.4472.114,,,2021-06-28 00:04:06,2021-06-28 00:04:06,0.005s,PASSED
switch (text),Chrome 91.0.4472.114,,,2021-06-28 00:04:06,2021-06-28 00:04:29,22.164s,PASSED
"callTestCase(findTestCase(""PAGE/GEN5/HOME/Side Menu""), [""SideMenu"":""Task List SA""], STOP_ON_FAILURE)",Chrome 91.0.4472.114,,,2021-06-28 00:04:29,2021-06-28 00:04:56,27.732s,PASSED
"callTestCase(findTestCase(""PAGE/GEN5/TASKLIST SA/Dashboard""), [""SearchBy"":""Order No"", ""Parameter"":OtosalesOrderNo], STOP_ON_FAILURE)",Chrome 91.0.4472.114,,,2021-06-28 00:04:56,2021-06-28 00:06:01,1m - 5.009s,FAILED
,,,,,,,
Test Cases/SCENARIO/OTOSALES/APPROVAL/Approval AO,Chrome 91.0.4472.114,,,2021-06-28 00:06:01,2021-06-28 00:06:18,16.727s,PASSED
"QuerySalesOfficer = ""SELECT TOP 1* FROM dbo.SalesOfficer WHERE SalesOfficerID = '"" + OtosalesLogin + ""'""",Chrome 91.0.4472.114,,,2021-06-28 00:06:03,2021-06-28 00:06:03,0.002s,PASSED
"BranchCode = UI.getValueDatabase(""172.16.94.48"", ""AABMobile"", QuerySalesOfficer, ""BranchCode"")",Chrome 91.0.4472.114,,,2021-06-28 00:06:03,2021-06-28 00:06:03,0.221s,PASSED
"QueryAABHead = ""SELECT TOP 1* FROM dbo.AABHead WHERE param = '"" + BranchCode + ""' and RowStatus = '1'""",Chrome 91.0.4472.114,,,2021-06-28 00:06:03,2021-06-28 00:06:03,0.002s,PASSED
"Login = UI.getValueDatabase(""172.16.94.48"", ""AABMobile"", QueryAABHead, ""Value"")",Chrome 91.0.4472.114,,,2021-06-28 00:06:03,2021-06-28 00:06:03,0.249s,PASSED
Userlogin = OtosalesLogin,Chrome 91.0.4472.114,,,2021-06-28 00:06:03,2021-06-28 00:06:03,0.002s,PASSED
"Approve = ""SELECT TOP 1* FROM mst_order_mobile_approval where Order_no = '"" + OtosalesOrderNo + ""' and ApprovalStatus = '0' order by ApprovalType ASC""",Chrome 91.0.4472.114,,,2021-06-28 00:06:03,2021-06-28 00:06:03,0.002s,PASSED
"approvalType = UI.getValueDatabase(""172.16.94.74"", ""AAB"", Approve, ""ApprovalType"")",Chrome 91.0.4472.114,,,2021-06-28 00:06:03,2021-06-28 00:06:03,0.251s,PASSED
println(approvalType),Chrome 91.0.4472.114,,,2021-06-28 00:06:03,2021-06-28 00:06:03,0.008s,PASSED
"QueryMstOrder = ""SELECT * FROM mst_order WHERE Order_No = '"" + OtosalesOrderNo + ""'""",Chrome 91.0.4472.114,,,2021-06-28 00:06:03,2021-06-28 00:06:03,0.002s,PASSED
"OrdStatus = UI.getValueDatabase(""172.16.94.74"", ""AAB"", QueryMstOrder, ""Order_Status"")",Chrome 91.0.4472.114,,,2021-06-28 00:06:03,2021-06-28 00:06:04,0.814s,PASSED
"OrderNo = ""SELECT * FROM dbo.OrderSimulation WHERE PolicyOrderno = '"" + OtosalesOrderNo + ""'""",Chrome 91.0.4472.114,,,2021-06-28 00:06:04,2021-06-28 00:06:04,0.002s,PASSED
"OrderNoLong = UI.getValueDatabase(""172.16.94.48"", ""AABMOBILE"", OrderNo, ""OrderNo"")",Chrome 91.0.4472.114,,,2021-06-28 00:06:04,2021-06-28 00:06:07,2.486s,PASSED
"ApproveLP = ""SELECT * FROM dbo.OrderSimulationApproval where OrderNo = '"" + OrderNoLong + ""' and RowStatus = '1' and ApprovalStatus = '0'""",Chrome 91.0.4472.114,,,2021-06-28 00:06:07,2021-06-28 00:06:07,0.003s,PASSED
"approvalTypeLP = UI.getValueDatabase(""172.16.94.48"", ""AABMOBILE"", ApproveLP, ""ApprovalStatus"")",Chrome 91.0.4472.114,,,2021-06-28 00:06:07,2021-06-28 00:06:07,0.544s,PASSED
"while (approvalType != ""null"" && OrdStatus != ""9"")",Chrome 91.0.4472.114,,,2021-06-28 00:06:07,2021-06-28 00:06:07,0.001s,PASSED
println(approvalTypeLP),Chrome 91.0.4472.114,,,2021-06-28 00:06:07,2021-06-28 00:06:07,0.002s,PASSED
"if (approvalTypeLP == ""0"")",Chrome 91.0.4472.114,,,2021-06-28 00:06:07,2021-06-28 00:06:07,0.002s,PASSED
delay(2),Chrome 91.0.4472.114,,,2021-06-28 00:06:07,2021-06-28 00:06:09,2.010s,PASSED
delay(2),Chrome 91.0.4472.114,,,2021-06-28 00:06:09,2021-06-28 00:06:11,2.012s,PASSED
delay(2),Chrome 91.0.4472.114,,,2021-06-28 00:06:11,2021-06-28 00:06:13,2.010s,PASSED
delay(2),Chrome 91.0.4472.114,,,2021-06-28 00:06:13,2021-06-28 00:06:15,2.008s,PASSED
"QueryOrderStatus = ""select * from mst_order WHERE Order_No = '"" + OtosalesOrderNo + ""'""",Chrome 91.0.4472.114,,,2021-06-28 00:06:15,2021-06-28 00:06:15,0.003s,PASSED
"OrderStatus = UI.getValueDatabase(""172.16.94.74"", ""AAB"", QueryOrderStatus, ""Order_Status"")",Chrome 91.0.4472.114,,,2021-06-28 00:06:15,2021-06-28 00:06:16,0.773s,PASSED
"QueryAABMobile = ""SELECT FollowUpInfo,* FROM followUp WHERE FollowUpNo = (SELECT followUpNo FROM OrderSimulation WHERE PolicyOrderNo = '"" + OtosalesOrderNo + ""')""",Chrome 91.0.4472.114,,,2021-06-28 00:06:16,2021-06-28 00:06:16,0.003s,PASSED
"description = UI.getValueDatabase(""172.16.94.48"", ""AABMobile"", QueryAABMobile, ""FollowUpInfo"")",Chrome 91.0.4472.114,,,2021-06-28 00:06:16,2021-06-28 00:06:17,0.534s,PASSED
"while (description != ""50"")",Chrome 91.0.4472.114,,,2021-06-28 00:06:17,2021-06-28 00:06:17,0.002s,PASSED
println(description),Chrome 91.0.4472.114,,,2021-06-28 00:06:17,2021-06-28 00:06:17,0.003s,PASSED
closeBrowser(),Chrome 91.0.4472.114,,,2021-06-28 00:06:17,2021-06-28 00:06:18,1.585s,PASSED
