Suite/Test/Step Name,Browser,Description,Tag,Start time,End time,Duration,Status
"INPROSPECT-NONGODIG GO,COMP,M200,FULLCVR,PERSONAL - TELERENEWAL",Chrome 90.0.4430.93,,,2021-05-08 22:26:57,2021-05-08 22:28:22,1m - 24.596s,INCOMPLETE
,,,,,,,
"Test Cases/SCENARIO/OTOSALES/Collaboration/NEW ORDER/MVNONGODIG/SINGLE YEAR/Create Polis/INPROSPECT-NONGODIG GO,COMP,M200,FULLCVR,PERSONAL - TELERENEWAL",Chrome 90.0.4430.93,,,2021-05-08 22:27:00,2021-05-08 22:27:42,42.442s,FAILED
"callTestCase(findTestCase(""SCENARIO/OTOSALES/LOGIN/Login Telerenewal""), [:], STOP_ON_FAILURE)",Chrome 90.0.4430.93,,,2021-05-08 22:27:03,2021-05-08 22:27:42,39.434s,FAILED
,,,,,,,
Test Cases/SCENARIO/GEN5/TASKLIST SA/Tasklist,Chrome 90.0.4430.93,,,2021-05-08 22:27:42,2021-05-08 22:28:02,19.778s,FAILED
"callTestCase(findTestCase(""PAGE/GEN5/LOGIN/Login""), [""username"":""DOC"", ""password"":""ITG@nt1P455QC"", ""isSyariah"":false], STOP_ON_FAILURE)",Chrome 90.0.4430.93,,,2021-05-08 22:27:43,2021-05-08 22:28:02,18.921s,FAILED
,,,,,,,
Test Cases/SCENARIO/OTOSALES/APPROVAL/Approval TELE,Chrome 90.0.4430.93,,,2021-05-08 22:28:02,2021-05-08 22:28:22,19.788s,ERROR
"QueryAABHead = ""SELECT TOP 1* FROM dbo.AABHead WHERE param = 'NIP'""",Chrome 90.0.4430.93,,,2021-05-08 22:28:06,2021-05-08 22:28:06,0.005s,PASSED
"Login = UI.getValueDatabase(""172.16.94.48"", ""AABMobile"", QueryAABHead, ""Value"")",Chrome 90.0.4430.93,,,2021-05-08 22:28:06,2021-05-08 22:28:22,16.100s,PASSED
