Suite/Test/Step Name,Browser,Description,Tag,Start time,End time,Duration,Status
"INPROSPECT-NONGODIG GO,COMP,M200,FULLCVR,COMPANY - MGO - Cabang",Chrome 87.0.4280.66,,,2020-11-30 22:15:54,2020-11-30 22:18:13,2m - 18.959s,INCOMPLETE
,,,,,,,
"Test Cases/SCENARIO/OTOSALES/Collaboration/NEW ORDER/MVNONGODIG/SINGLE YEAR/Create Polis/INPROSPECT-NONGODIG GO,COMP,M200,FULLCVR,COMPANY - MGO - Cabang",Chrome 87.0.4280.66,,,2020-11-30 22:15:57,2020-11-30 22:16:42,45.605s,FAILED
"callTestCase(findTestCase(""SCENARIO/OTOSALES/LOGIN/Login MGO Cabang""), [:], STOP_ON_FAILURE)",Chrome 87.0.4280.66,,,2020-11-30 22:16:01,2020-11-30 22:16:42,41.242s,FAILED
,,,,,,,
Test Cases/SCENARIO/GEN5/TASKLIST SA/Tasklist,Chrome 87.0.4280.66,,,2020-11-30 22:16:42,2020-11-30 22:17:41,58.935s,FAILED
"callTestCase(findTestCase(""PAGE/GEN5/LOGIN/Login""), [""username"":""DOC"", ""password"":""ITG@nt1P455QC"", ""isSyariah"":false], STOP_ON_FAILURE)",Chrome 87.0.4280.66,,,2020-11-30 22:16:43,2020-11-30 22:17:41,57.912s,FAILED
,,,,,,,
Test Cases/SCENARIO/OTOSALES/APPROVAL/Approval MGO,Chrome 87.0.4280.66,,,2020-11-30 22:17:41,2020-11-30 22:18:13,31.903s,ERROR
"QuerySalesOfficer = ""SELECT TOP 1* FROM dbo.SalesOfficer WHERE email = '"" + OtosalesLogin + ""'""",Chrome 87.0.4280.66,,,2020-11-30 22:17:44,2020-11-30 22:17:56,11.930s,PASSED
"UserID = UI.getValueDatabase(""172.16.94.48"", ""AABMobile"", QuerySalesOfficer, ""SalesOfficerID"")",Chrome 87.0.4280.66,,,2020-11-30 22:17:56,2020-11-30 22:18:13,16.810s,PASSED
